{"from":1,"to":50,"currentPage":1,"total":169,"totalPages":4,"queryTime":"0.027","totalTime":"0.160","partial":false,"canonicalUrl":"/v1/products((search=\"Smart\"&search=\"TV*\")&(categoryPath.id=abcat0101000)|(categoryPath.id=abcat0101000&manufacturer=\"Toshiba\"&smartCapable=true))?show=sku,manufacturer,name,salesRankShortTerm,salesRankMediumTerm,salesRankLongTerm,bestSellingRank,customerReviewAverage,customerReviewCount,image,url&sort=salesRankShortTerm,bestSellingRank&pageSize=50&format=json&facet=manufacturer,10&apiKey=AVMRk1IkGNUlScJLbvgQVFPX","products":[{"sku":4863301,"manufacturer":"Sharp","name":"Sharp - 43\" Class (42.5\" Diag.) - LED - 1080p - Smart - HDTV - Roku TV","salesRankShortTerm":61,"salesRankMediumTerm":160,"salesRankLongTerm":187,"bestSellingRank":156,"customerReviewAverage":4.50,"customerReviewCount":2536,"image":"https://img.bbystatic.com/BestBuy_US/images/products/4863/4863301_sa.jpg","url":"https://api.bestbuy.com/click/-/4863301/pdp"},{"sku":4822001,"manufacturer":"Insignia™","name":"Insignia™ - 32\" Class (31.5\" Diag.) - LED - 720p - Smart - Roku TV","salesRankShortTerm":63,"salesRankMediumTerm":103,"salesRankLongTerm":124,"bestSellingRank":107,"customerReviewAverage":4.50,"customerReviewCount":4787,"image":"https://img.bbystatic.com/BestBuy_US/images/products/4822/4822001_sa.jpg","url":"https://api.bestbuy.com/click/-/4822001/pdp"},{"sku":5803100,"manufacturer":"LG","name":"LG - 49\" Class (48.5\" Diag.) - LED - 1080p - Smart - HDTV","salesRankShortTerm":117,"salesRankMediumTerm":197,"salesRankLongTerm":239,"bestSellingRank":210,"customerReviewAverage":4.60,"customerReviewCount":171,"image":"https://img.bbystatic.com/BestBuy_US/images/products/5803/5803100_sa.jpg","url":"https://api.bestbuy.com/click/-/5803100/pdp"},{"sku":5754304,"manufacturer":"Samsung","name":"Samsung - 55\" Class (54.6\" Diag.) - LED - 2160p - Smart - 4K Ultra HD TV","salesRankShortTerm":139,"salesRankMediumTerm":182,"salesRankLongTerm":218,"bestSellingRank":194,"customerReviewAverage":4.70,"customerReviewCount":312,"image":"https://img.bbystatic.com/BestBuy_US/images/products/5754/5754304_sa.jpg","url":"https://api.bestbuy.com/click/-/5754304/pdp"},{"sku":4863802,"manufacturer":"Insignia™","name":"Insignia™ - 39\" Class (38.5\" Diag.) - LED - 1080p - Smart - HDTV Roku TV","salesRankShortTerm":167,"salesRankMediumTerm":163,"salesRankLongTerm":166,"bestSellingRank":170,"customerReviewAverage":4.50,"customerReviewCount":4429,"image":"https://img.bbystatic.com/BestBuy_US/images/products/4863/4863802_sa.jpg","url":"https://api.bestbuy.com/click/-/4863802/pdp"},{"sku":5762002,"manufacturer":"Samsung","name":"Samsung - 50\" Class (49.5\" Diag.) - LED - 2160p - Smart - 4K Ultra HD TV","salesRankShortTerm":182,"salesRankMediumTerm":343,"salesRankLongTerm":361,"bestSellingRank":320,"customerReviewAverage":4.70,"customerReviewCount":324,"image":"https://img.bbystatic.com/BestBuy_US/images/products/5762/5762002_sa.jpg","url":"https://api.bestbuy.com/click/-/5762002/pdp"},{"sku":5878703,"manufacturer":"TCL","name":"TCL - 55\" Class (54.6\" Diag.) - LED - 2160p - Smart - 4K Ultra HD TV Roku TV","salesRankShortTerm":193,"salesRankMediumTerm":483,"salesRankLongTerm":328,"bestSellingRank":339,"customerReviewAverage":4.50,"customerReviewCount":36,"image":"https://img.bbystatic.com/BestBuy_US/images/products/5878/5878703_sa.jpg","url":"https://api.bestbuy.com/click/-/5878703/pdp"},{"sku":5894900,"manufacturer":"Samsung","name":"Samsung - 58\" Class (57.5\" Diag.) - LED - 2160p - Smart - 4K Ultra HD TV","salesRankShortTerm":198,"salesRankMediumTerm":252,"salesRankLongTerm":222,"bestSellingRank":238,"customerReviewAverage":4.40,"customerReviewCount":77,"image":"https://img.bbystatic.com/BestBuy_US/images/products/5894/5894900_sa.jpg","url":"https://api.bestbuy.com/click/-/5894900/pdp"},{"sku":5803102,"manufacturer":"LG","name":"LG - 43\" Class (42.5\" Diag.) - LED - 1080p - Smart - HDTV","salesRankShortTerm":205,"salesRankMediumTerm":201,"salesRankLongTerm":238,"bestSellingRank":226,"customerReviewAverage":4.60,"customerReviewCount":257,"image":"https://img.bbystatic.com/BestBuy_US/images/products/5803/5803102_sa.jpg","url":"https://api.bestbuy.com/click/-/5803102/pdp"},{"sku":5733203,"manufacturer":"Toshiba","name":"Toshiba - 55\" Class (54.6\" Diag.) - LED - 2160p - with Chromecast Built-in - 4K Ultra HD TV","salesRankShortTerm":219,"salesRankMediumTerm":248,"salesRankLongTerm":351,"bestSellingRank":290,"customerReviewAverage":4.40,"customerReviewCount":14,"image":"https://img.bbystatic.com/BestBuy_US/images/products/5733/5733203_sa.jpg","url":"https://api.bestbuy.com/click/-/5733203/pdp"},{"sku":5792910,"manufacturer":"LG","name":"LG - 55\" Class (54.6\" Diag.) - LED - 2160p - Smart - 4K Ultra HD TV","salesRankShortTerm":221,"salesRankMediumTerm":267,"salesRankLongTerm":319,"bestSellingRank":283,"customerReviewAverage":4.50,"customerReviewCount":107,"image":"https://img.bbystatic.com/BestBuy_US/images/products/5792/5792910_sa.jpg","url":"https://api.bestbuy.com/click/-/5792910/pdp"},{"sku":5748207,"manufacturer":"Sony","name":"Sony - 65\" Class (64.5\" Diag.) - LED - 2160p - Smart - 4K Ultra HD TV with High Dynamic Range","salesRankShortTerm":231,"salesRankMediumTerm":246,"salesRankLongTerm":309,"bestSellingRank":274,"customerReviewAverage":4.80,"customerReviewCount":812,"image":"https://img.bbystatic.com/BestBuy_US/images/products/5748/5748207_sa.jpg","url":"https://api.bestbuy.com/click/-/5748207/pdp"},{"sku":5773800,"manufacturer":"Samsung","name":"Samsung - 65\" Class (64.5\" Diag.) - LED - 2160p - Smart - 4K Ultra HD TV with High Dynamic Range","salesRankShortTerm":248,"salesRankMediumTerm":288,"salesRankLongTerm":334,"bestSellingRank":300,"customerReviewAverage":4.70,"customerReviewCount":626,"image":"https://img.bbystatic.com/BestBuy_US/images/products/5773/5773800_sa.jpg","url":"https://api.bestbuy.com/click/-/5773800/pdp"},{"sku":4380083,"manufacturer":"Samsung","name":"Samsung - 32\" Class (31.5\" Diag.) - LED - 1080p - Smart - HDTV","salesRankShortTerm":265,"salesRankMediumTerm":363,"salesRankLongTerm":430,"bestSellingRank":372,"customerReviewAverage":4.70,"customerReviewCount":5408,"image":"https://img.bbystatic.com/BestBuy_US/images/products/4380/4380083_sa.jpg","url":"https://api.bestbuy.com/click/-/4380083/pdp"},{"sku":5748209,"manufacturer":"Sony","name":"Sony - 55\" Class (54.6\" Diag.) - LED - 2160p - Smart - 4K Ultra HD TV with High Dynamic Range","salesRankShortTerm":267,"salesRankMediumTerm":417,"salesRankLongTerm":504,"bestSellingRank":423,"customerReviewAverage":4.70,"customerReviewCount":513,"image":"https://img.bbystatic.com/BestBuy_US/images/products/5748/5748209_sa.jpg","url":"https://api.bestbuy.com/click/-/5748209/pdp"},{"sku":5768501,"manufacturer":"Samsung","name":"Samsung - 43\" Class (42.5\" Diag.) - LED - 2160p - Smart - 4K Ultra HD TV","salesRankShortTerm":276,"salesRankMediumTerm":334,"salesRankLongTerm":383,"bestSellingRank":346,"customerReviewAverage":4.70,"customerReviewCount":194,"image":"https://img.bbystatic.com/BestBuy_US/images/products/5768/5768501_sa.jpg","url":"https://api.bestbuy.com/click/-/5768501/pdp"},{"sku":5865001,"manufacturer":"LG","name":"LG - 49\" Class (48.5\" Diag.) - LED - 2160p - Smart - 4K Ultra HD TV","salesRankShortTerm":281,"salesRankMediumTerm":313,"salesRankLongTerm":398,"bestSellingRank":342,"customerReviewAverage":4.50,"customerReviewCount":52,"image":"https://img.bbystatic.com/BestBuy_US/images/products/5865/5865001_sa.jpg","url":"https://api.bestbuy.com/click/-/5865001/pdp"},{"sku":5763401,"manufacturer":"LG","name":"LG - 43\" Class (43\" Diag.) - LED - 2160p - Smart - 4K Ultra HD TV","salesRankShortTerm":292,"salesRankMediumTerm":337,"salesRankLongTerm":416,"bestSellingRank":361,"customerReviewAverage":4.50,"customerReviewCount":398,"image":"https://img.bbystatic.com/BestBuy_US/images/products/5763/5763401_sa.jpg","url":"https://api.bestbuy.com/click/-/5763401/pdp"},{"sku":5748208,"manufacturer":"Sony","name":"Sony - 55\" Class (54.6\" Diag.) - LED - 2160p - Smart - 4K Ultra HD TV with High Dynamic Range","salesRankShortTerm":306,"salesRankMediumTerm":324,"salesRankLongTerm":415,"bestSellingRank":356,"customerReviewAverage":4.80,"customerReviewCount":241,"image":"https://img.bbystatic.com/BestBuy_US/images/products/5748/5748208_sa.jpg","url":"https://api.bestbuy.com/click/-/5748208/pdp"},{"sku":4904501,"manufacturer":"VIZIO","name":"VIZIO - 32\" Class - (31.51\" Diag.) - LED - 1080p - Smart - HDTV","salesRankShortTerm":313,"salesRankMediumTerm":327,"salesRankLongTerm":294,"bestSellingRank":298,"customerReviewAverage":4.60,"customerReviewCount":667,"image":"https://img.bbystatic.com/BestBuy_US/images/products/4904/4904501_sa.jpg","url":"https://api.bestbuy.com/click/-/4904501/pdp"},{"sku":5634400,"manufacturer":"Westinghouse","name":"Westinghouse - 24\" Class (23.6\" Diag.) - LED - 720p - Smart - HDTV","salesRankShortTerm":348,"salesRankMediumTerm":389,"salesRankLongTerm":440,"bestSellingRank":400,"customerReviewAverage":4.20,"customerReviewCount":294,"image":"https://img.bbystatic.com/BestBuy_US/images/products/5634/5634400_sa.jpg","url":"https://api.bestbuy.com/click/-/5634400/pdp"},{"sku":5684501,"manufacturer":"Insignia™","name":"Insignia™ - 50\" Class (49.5\" Diag.) - LED - 2160p - Smart - 4K Ultra HD TV Roku TV","salesRankShortTerm":356,"salesRankMediumTerm":199,"salesRankLongTerm":227,"bestSellingRank":235,"customerReviewAverage":4.40,"customerReviewCount":187,"image":"https://img.bbystatic.com/BestBuy_US/images/products/5684/5684501_sa.jpg","url":"https://api.bestbuy.com/click/-/5684501/pdp"},{"sku":5866700,"manufacturer":"Hisense","name":"Hisense - 50\" Class (49.5\" Diag.) - LED - 2160p - Smart - 4K Ultra HD TV","salesRankShortTerm":367,"salesRankMediumTerm":515,"salesRankLongTerm":607,"bestSellingRank":549,"customerReviewAverage":4.40,"customerReviewCount":71,"image":"https://img.bbystatic.com/BestBuy_US/images/products/5866/5866700_sa.jpg","url":"https://api.bestbuy.com/click/-/5866700/pdp"},{"sku":5746801,"manufacturer":"Sharp","name":"Sharp - 43\" Class (42.5\" Diag.) - LED - 2160p - Smart - 4K Ultra HD TV Roku TV","salesRankShortTerm":373,"salesRankMediumTerm":587,"salesRankLongTerm":676,"bestSellingRank":602,"customerReviewAverage":4.70,"customerReviewCount":7,"image":"https://img.bbystatic.com/BestBuy_US/images/products/5746/5746801_sa.jpg","url":"https://api.bestbuy.com/click/-/5746801/pdp"},{"sku":5930900,"manufacturer":"LG","name":"LG - 60\" Class (59.9\" Diag.) - LED - 2160p - Smart - 4K Ultra HD TV","salesRankShortTerm":386,"salesRankMediumTerm":1339,"salesRankLongTerm":1564,"bestSellingRank":1189,"customerReviewAverage":4.50,"customerReviewCount":55,"image":"https://img.bbystatic.com/BestBuy_US/images/products/5930/5930900_sa.jpg","url":"https://api.bestbuy.com/click/-/5930900/pdp"},{"sku":5746700,"manufacturer":"Sharp","name":"Sharp - 32\" Class (31.5\" Diag.) - LED - 720p - Smart - HDTV Roku TV","salesRankShortTerm":388,"salesRankMediumTerm":424,"salesRankLongTerm":396,"bestSellingRank":395,"customerReviewAverage":4.30,"customerReviewCount":58,"image":"https://img.bbystatic.com/BestBuy_US/images/products/5746/5746700_sa.jpg","url":"https://api.bestbuy.com/click/-/5746700/pdp"},{"sku":5754805,"manufacturer":"Samsung","name":"Samsung - 55\" Class (54.6\" Diag.) - LED - 2160p - Smart - 4K Ultra HD TV with High Dynamic Range","salesRankShortTerm":398,"salesRankMediumTerm":495,"salesRankLongTerm":533,"bestSellingRank":504,"customerReviewAverage":4.70,"customerReviewCount":283,"image":"https://img.bbystatic.com/BestBuy_US/images/products/5754/5754805_sa.jpg","url":"https://api.bestbuy.com/click/-/5754805/pdp"},{"sku":5768401,"manufacturer":"Samsung","name":"Samsung - 40\" Class (39.5\" Diag.) - LED - 2160p - Smart - 4K Ultra HD TV","salesRankShortTerm":413,"salesRankMediumTerm":535,"salesRankLongTerm":544,"bestSellingRank":535,"customerReviewAverage":4.70,"customerReviewCount":549,"image":"https://img.bbystatic.com/BestBuy_US/images/products/5768/5768401_sa.jpg","url":"https://api.bestbuy.com/click/-/5768401/pdp"},{"sku":5768700,"manufacturer":"Samsung","name":"Samsung - 49\" Class (48.5\" Diag.) - LED - 2160p - Smart - 4K Ultra HD TV with High Dynamic Range","salesRankShortTerm":450,"salesRankMediumTerm":518,"salesRankLongTerm":588,"bestSellingRank":555,"customerReviewAverage":4.60,"customerReviewCount":118,"image":"https://img.bbystatic.com/BestBuy_US/images/products/5768/5768700_sa.jpg","url":"https://api.bestbuy.com/click/-/5768700/pdp"},{"sku":5733205,"manufacturer":"Toshiba","name":"Toshiba - 43\" Class (42.5\" Diag.) - LED - 1080p - with Chromecast Built-in - HDTV","salesRankShortTerm":454,"salesRankMediumTerm":214,"salesRankLongTerm":170,"bestSellingRank":203,"customerReviewAverage":4.70,"customerReviewCount":23,"image":"https://img.bbystatic.com/BestBuy_US/images/products/5733/5733205_sa.jpg","url":"https://api.bestbuy.com/click/-/5733205/pdp"},{"sku":5679628,"manufacturer":"Insignia™","name":"Insignia™ - 55\" Class (54.5\" Diag.) - LED - 2160p - Smart - 4K Ultra HD TV Roku TV","salesRankShortTerm":459,"salesRankMediumTerm":505,"salesRankLongTerm":523,"bestSellingRank":516,"customerReviewAverage":4.70,"customerReviewCount":82,"image":"https://img.bbystatic.com/BestBuy_US/images/products/5679/5679628_sa.jpg","url":"https://api.bestbuy.com/click/-/5679628/pdp"},{"sku":4863102,"manufacturer":"Sharp","name":"Sharp - 50\" Class (49.5\" Diag.) - LED - 1080p - Smart - HDTV Roku TV","salesRankShortTerm":474,"salesRankMediumTerm":614,"salesRankLongTerm":390,"bestSellingRank":462,"customerReviewAverage":4.60,"customerReviewCount":2980,"image":"https://img.bbystatic.com/BestBuy_US/images/products/4863/4863102_sa.jpg","url":"https://api.bestbuy.com/click/-/4863102/pdp"},{"sku":5746805,"manufacturer":"Sharp","name":"Sharp - 50\" Class (49.5\" Diag.) - LED - 2160p - Smart - 4K Ultra HD TV Roku TV","salesRankShortTerm":482,"salesRankMediumTerm":657,"salesRankLongTerm":755,"bestSellingRank":682,"customerReviewAverage":5,"customerReviewCount":3,"image":"https://img.bbystatic.com/BestBuy_US/images/products/5746/5746805_sa.jpg","url":"https://api.bestbuy.com/click/-/5746805/pdp"},{"sku":5748203,"manufacturer":"Sony","name":"Sony - 75\" Class (74.5\" Diag.) - LED - 2160p - Smart - 4K Ultra HD TV with High Dynamic Range","salesRankShortTerm":505,"salesRankMediumTerm":682,"salesRankLongTerm":770,"bestSellingRank":707,"customerReviewAverage":4.70,"customerReviewCount":298,"image":"https://img.bbystatic.com/BestBuy_US/images/products/5748/5748203_sa.jpg","url":"https://api.bestbuy.com/click/-/5748203/pdp"},{"sku":4982500,"manufacturer":"Hisense","name":"Hisense - 50\" Class (49.5\" Diag.) - LED - 2160p - Smart - 4K Ultra HD TV with High Dynamic Range","salesRankShortTerm":521,"salesRankMediumTerm":711,"salesRankLongTerm":971,"bestSellingRank":799,"customerReviewAverage":4.60,"customerReviewCount":1107,"image":"https://img.bbystatic.com/BestBuy_US/images/products/4982/4982500_sa.jpg","url":"https://api.bestbuy.com/click/-/4982500/pdp"},{"sku":5748206,"manufacturer":"Sony","name":"Sony - 65\" Class (64.5\" Diag.) - LED - 2160p - Smart - 4K Ultra HD TV with High Dynamic Range","salesRankShortTerm":539,"salesRankMediumTerm":645,"salesRankLongTerm":689,"bestSellingRank":657,"customerReviewAverage":4.70,"customerReviewCount":420,"image":"https://img.bbystatic.com/BestBuy_US/images/products/5748/5748206_sa.jpg","url":"https://api.bestbuy.com/click/-/5748206/pdp"},{"sku":5878701,"manufacturer":"TCL","name":"TCL - 49\" Class (48.5\" Diag.) - LED - 2160p - Smart - 4K Ultra HD TV Roku TV","salesRankShortTerm":563,"salesRankMediumTerm":704,"salesRankLongTerm":565,"bestSellingRank":614,"customerReviewAverage":4.70,"customerReviewCount":74,"image":"https://img.bbystatic.com/BestBuy_US/images/products/5878/5878701_sa.jpg","url":"https://api.bestbuy.com/click/-/5878701/pdp"},{"sku":5754306,"manufacturer":"Samsung","name":"Samsung - 65\" Class (64.5\" Diag.) - LED - 2160p - Smart - 4K Ultra HD TV","salesRankShortTerm":579,"salesRankMediumTerm":767,"salesRankLongTerm":932,"bestSellingRank":814,"customerReviewAverage":4.70,"customerReviewCount":215,"image":"https://img.bbystatic.com/BestBuy_US/images/products/5754/5754306_sa.jpg","url":"https://api.bestbuy.com/click/-/5754306/pdp"},{"sku":5678701,"manufacturer":"Insignia™","name":"Insignia™ - 43\" Class (42.5\" Diag.) - LED - 2160p - Smart - 4K Ultra HD TV Roku TV","salesRankShortTerm":636,"salesRankMediumTerm":325,"salesRankLongTerm":268,"bestSellingRank":296,"customerReviewAverage":4.50,"customerReviewCount":229,"image":"https://img.bbystatic.com/BestBuy_US/images/products/5678/5678701_sa.jpg","url":"https://api.bestbuy.com/click/-/5678701/pdp"},{"sku":5768600,"manufacturer":"Samsung","name":"Samsung - 49\" Class (48.5\" Diag.) - LED - 2160p - Smart - 4K Ultra HD TV with High Dynamic Range","salesRankShortTerm":780,"salesRankMediumTerm":936,"salesRankLongTerm":1066,"bestSellingRank":984,"customerReviewAverage":4.70,"customerReviewCount":278,"image":"https://img.bbystatic.com/BestBuy_US/images/products/5768/5768600_sa.jpg","url":"https://api.bestbuy.com/click/-/5768600/pdp"},{"sku":5762810,"manufacturer":"VIZIO","name":"VIZIO - 39\" Class (38.5\" Diag.) - LED - 1080p - Smart - HDTV","salesRankShortTerm":781,"salesRankMediumTerm":847,"salesRankLongTerm":880,"bestSellingRank":860,"customerReviewAverage":4.60,"customerReviewCount":60,"image":"https://img.bbystatic.com/BestBuy_US/images/products/5762/5762810_sa.jpg","url":"https://api.bestbuy.com/click/-/5762810/pdp"},{"sku":5712448,"manufacturer":"Insignia™","name":"Insignia™ - 24\" Class (23.6\" Diag.) - LED - 720p - Smart - HDTV Roku TV","salesRankShortTerm":799,"salesRankMediumTerm":836,"salesRankLongTerm":826,"bestSellingRank":834,"customerReviewAverage":4.20,"customerReviewCount":34,"image":"https://img.bbystatic.com/BestBuy_US/images/products/5712/5712448_sa.jpg","url":"https://api.bestbuy.com/click/-/5712448/pdp"},{"sku":5754303,"manufacturer":"Samsung","name":"Samsung - 55\" Class (54.6\" Diag.) - LED Curved - 2160p - Smart - 4K Ultra HD TV with High Dynamic Range","salesRankShortTerm":827,"salesRankMediumTerm":1036,"salesRankLongTerm":1205,"bestSellingRank":1097,"customerReviewAverage":4.70,"customerReviewCount":161,"image":"https://img.bbystatic.com/BestBuy_US/images/products/5754/5754303_sa.jpg","url":"https://api.bestbuy.com/click/-/5754303/pdp"},{"sku":5400401,"manufacturer":"Samsung","name":"Samsung - 65\" Class (64.5\" Diag.) - LED - 2160p - Smart - 4K Ultra HD TV","salesRankShortTerm":836,"salesRankMediumTerm":777,"salesRankLongTerm":563,"bestSellingRank":667,"customerReviewAverage":4.70,"customerReviewCount":979,"image":"https://img.bbystatic.com/BestBuy_US/images/products/5400/5400401_sa.jpg","url":"https://api.bestbuy.com/click/-/5400401/pdp"},{"sku":5871011,"manufacturer":"Samsung","name":"Samsung - 32\" Class (31.5\" Diag.) - LED - 1080p - Smart - HDTV","salesRankShortTerm":847,"salesRankMediumTerm":805,"salesRankLongTerm":828,"bestSellingRank":822,"customerReviewAverage":4,"customerReviewCount":6,"image":"https://img.bbystatic.com/BestBuy_US/images/products/5871/5871011_sa.jpg","url":"https://api.bestbuy.com/click/-/5871011/pdp"},{"sku":5878705,"manufacturer":"TCL","name":"TCL - 55\" Class (54.6\" Diag.) - LED - 2160p - Smart - 4K Ultra HD TV with High Dynamic Range Roku TV","salesRankShortTerm":876,"salesRankMediumTerm":1025,"salesRankLongTerm":650,"bestSellingRank":802,"customerReviewAverage":4.60,"customerReviewCount":123,"image":"https://img.bbystatic.com/BestBuy_US/images/products/5878/5878705_sa.jpg","url":"https://api.bestbuy.com/click/-/5878705/pdp"},{"sku":5871004,"manufacturer":"Samsung","name":"Samsung - 28\" Class (27.5\" Diag.) - LED - 720p - Smart - HDTV","salesRankShortTerm":891,"salesRankMediumTerm":825,"salesRankLongTerm":1003,"bestSellingRank":917,"customerReviewAverage":5,"customerReviewCount":2,"image":"https://img.bbystatic.com/BestBuy_US/images/products/5871/5871004_sa.jpg","url":"https://api.bestbuy.com/click/-/5871004/pdp"},{"sku":6422016,"manufacturer":"Samsung","name":"Samsung - 40\" Class (40\" Diag.) - LED - 1080p - Smart - HDTV","salesRankShortTerm":901,"salesRankMediumTerm":654,"salesRankLongTerm":471,"bestSellingRank":569,"customerReviewAverage":4.60,"customerReviewCount":5856,"image":"https://img.bbystatic.com/BestBuy_US/images/products/6422/6422016_sa.jpg","url":"https://api.bestbuy.com/click/-/6422016/pdp"},{"sku":5897427,"manufacturer":"Hisense","name":"Hisense - 55\" Class (54.6\" Diag.) - LED - 2160p - Smart - 4K Ultra HD TV","salesRankShortTerm":903,"salesRankMediumTerm":1120,"salesRankLongTerm":824,"bestSellingRank":932,"customerReviewAverage":4.60,"customerReviewCount":103,"image":"https://img.bbystatic.com/BestBuy_US/images/products/5897/5897427_sa.jpg","url":"https://api.bestbuy.com/click/-/5897427/pdp"},{"sku":5792903,"manufacturer":"LG","name":"LG - 65\" Class (64.5\" Diag.) - LED - 2160p - Smart - 4K Ultra HD TV","salesRankShortTerm":930,"salesRankMediumTerm":1184,"salesRankLongTerm":1087,"bestSellingRank":1111,"customerReviewAverage":4.80,"customerReviewCount":26,"image":"https://img.bbystatic.com/BestBuy_US/images/products/5792/5792903_sa.jpg","url":"https://api.bestbuy.com/click/-/5792903/pdp"}],"facets":{"manufacturer":{"samsung":59,"lg":30,"sony":28,"vizio":9,"hisense":8,"insignia™":8,"sharp":8,"westinghouse":7,"tcl":6,"toshiba":6}}}