{"from":151,"to":169,"currentPage":4,"total":169,"totalPages":4,"queryTime":"0.026","totalTime":"0.078","partial":false,"canonicalUrl":"/v1/products((search=\"Smart\"&search=\"TV*\")&(categoryPath.id=abcat0101000)|(categoryPath.id=abcat0101000&manufacturer=\"Toshiba\"&smartCapable=true))?show=sku,manufacturer,name,salesRankShortTerm,salesRankMediumTerm,salesRankLongTerm,bestSellingRank,customerReviewAverage,customerReviewCount,image,url&sort=salesRankShortTerm,bestSellingRank&pageSize=50&page=4&format=json&facet=manufacturer,10&apiKey=AVMRk1IkGNUlScJLbvgQVFPX","products":[{"sku":5872101,"manufacturer":"TCL","name":"TCL - 43\" Class (43\" Diag.) - LED - 1080p - Smart - HDTV Roku TV","salesRankShortTerm":17696,"salesRankMediumTerm":18116,"salesRankLongTerm":15533,"bestSellingRank":16611,"customerReviewAverage":5,"customerReviewCount":1,"image":"https://img.bbystatic.com/BestBuy_US/images/products/5872/5872101_sa.jpg","url":"https://api.bestbuy.com/click/-/5872101/pdp"},{"sku":5170201,"manufacturer":"VIZIO","name":"VIZIO - 43\" Class (43\" Diag.) - LED - 1080p - Smart - HDTV","salesRankShortTerm":17789,"salesRankMediumTerm":17627,"salesRankLongTerm":12755,"bestSellingRank":14270,"customerReviewAverage":4.60,"customerReviewCount":96,"image":"https://img.bbystatic.com/BestBuy_US/images/products/5170/5170201_sa.jpg","url":"https://api.bestbuy.com/click/-/5170201/pdp"},{"sku":5786407,"manufacturer":"Samsung","name":"Samsung - 55\" Class (54.5\" Diag.) - LED - Curved - 2160p - Smart - 4K Ultra HD TV with High Dynamic Range","salesRankShortTerm":17910,"salesRankMediumTerm":17181,"salesRankLongTerm":17460,"bestSellingRank":17492,"customerReviewAverage":4.70,"customerReviewCount":7,"image":"https://img.bbystatic.com/BestBuy_US/images/products/5786/5786407_sa.jpg","url":"https://api.bestbuy.com/click/-/5786407/pdp"},{"sku":5913702,"manufacturer":"LG","name":"LG - 77\" Class (76.7\" Diag.) - OLED - 2160p - Smart - 4K Ultra HD TV with High Dynamic Range","salesRankShortTerm":18502,"salesRankMediumTerm":27564,"salesRankLongTerm":40062,"bestSellingRank":29926,"customerReviewAverage":1,"customerReviewCount":1,"image":"https://img.bbystatic.com/BestBuy_US/images/products/5913/5913702_sa.jpg","url":"https://api.bestbuy.com/click/-/5913702/pdp"},{"sku":9502297,"manufacturer":"Westinghouse","name":"Westinghouse - 55\" Class (54.6\" Diag.) - LED - 2160p - Smart - 4K Ultra HD TV","salesRankShortTerm":21078,"salesRankMediumTerm":20144,"salesRankLongTerm":19645,"bestSellingRank":20113,"customerReviewAverage":3.80,"customerReviewCount":127,"image":"https://img.bbystatic.com/BestBuy_US/images/products/9502/9502297_sa.jpg","url":"https://api.bestbuy.com/click/-/9502297/pdp"},{"sku":5859436,"manufacturer":"LG","name":"LG - 55\" Class (54.6\" Diag.) - LED - 2160p - Smart - 4K Ultra HD TV","salesRankShortTerm":22373,"salesRankMediumTerm":21491,"salesRankLongTerm":17424,"bestSellingRank":18771,"customerReviewAverage":4.80,"customerReviewCount":23,"image":"https://img.bbystatic.com/BestBuy_US/images/products/5859/5859436_sa.jpg","url":"https://api.bestbuy.com/click/-/5859436/pdp"},{"sku":5336000,"manufacturer":"Samsung","name":"Samsung - 88\" Class (88\" Diag.) - Curved -  2160p - Smart - 4K Ultra HD TV with High Dynamic Range","salesRankShortTerm":22404,"salesRankMediumTerm":34252,"salesRankLongTerm":47928,"bestSellingRank":36764,"customerReviewAverage":5,"customerReviewCount":1,"image":"https://img.bbystatic.com/BestBuy_US/images/products/5336/5336000_sa.jpg","url":"https://api.bestbuy.com/click/-/5336000/pdp"},{"sku":5102704,"manufacturer":"VIZIO","name":"VIZIO - 50\" Class (49.5\" Diag.) - LED - 1080p - Smart - HDTV","salesRankShortTerm":23323,"salesRankMediumTerm":21682,"salesRankLongTerm":18375,"bestSellingRank":19460,"customerReviewAverage":null,"customerReviewCount":null,"image":"https://img.bbystatic.com/BestBuy_US/images/products/5102/5102704_sa.jpg","url":"https://api.bestbuy.com/click/-/5102704/pdp"},{"sku":5762018,"manufacturer":"Samsung","name":"Samsung - 88\" Class (88\" Diag.) - LED - 2160p Smart - 4K Ultra HD TV with High Dynamic Range","salesRankShortTerm":24649,"salesRankMediumTerm":37237,"salesRankLongTerm":39206,"bestSellingRank":34325,"customerReviewAverage":null,"customerReviewCount":null,"image":"https://img.bbystatic.com/BestBuy_US/images/products/5762/5762018_sa.jpg","url":"https://api.bestbuy.com/click/-/5762018/pdp"},{"sku":5872100,"manufacturer":"TCL","name":"TCL - 40\" Class (40\" Diag.) - LED - 1080p - Smart - HDTV Roku TV","salesRankShortTerm":24712,"salesRankMediumTerm":21979,"salesRankLongTerm":11329,"bestSellingRank":13508,"customerReviewAverage":null,"customerReviewCount":null,"image":"https://img.bbystatic.com/BestBuy_US/images/products/5872/5872100_sa.jpg","url":"https://api.bestbuy.com/click/-/5872100/pdp"},{"sku":5774700,"manufacturer":"Samsung","name":"Samsung - 75\" Class (74.5\" Diag.) - LED - 2160p - Smart - 4K Ultra HD TV with High Dynamic Range","salesRankShortTerm":null,"salesRankMediumTerm":19532,"salesRankLongTerm":19036,"bestSellingRank":19702,"customerReviewAverage":5,"customerReviewCount":2,"image":"https://img.bbystatic.com/BestBuy_US/images/products/5774/5774700_sa.jpg","url":"https://api.bestbuy.com/click/-/5774700/pdp"},{"sku":5997253,"manufacturer":"Hisense","name":"Hisense - 50\" Class (50\" Diag.) - LED - 1080p - Smart - HDTV Roku TV","salesRankShortTerm":null,"salesRankMediumTerm":16428,"salesRankLongTerm":21920,"bestSellingRank":19763,"customerReviewAverage":null,"customerReviewCount":null,"image":"https://img.bbystatic.com/BestBuy_US/images/products/5997/5997253_sa.jpg","url":"https://api.bestbuy.com/click/-/5997253/pdp"},{"sku":5146801,"manufacturer":"Samsung","name":"Samsung - 55\" Class (54.6\" Diag.) - LED - 2160p - Smart - 4K Ultra HD TV with High Dynamic Range","salesRankShortTerm":null,"salesRankMediumTerm":18428,"salesRankLongTerm":20856,"bestSellingRank":20593,"customerReviewAverage":4.60,"customerReviewCount":774,"image":"https://img.bbystatic.com/BestBuy_US/images/products/5146/5146801_sa.jpg","url":"https://api.bestbuy.com/click/-/5146801/pdp"},{"sku":5145600,"manufacturer":"Samsung","name":"Samsung - 75\" Class - (74.5\" Diag.) - LED - 2160p - Smart - 4K Ultra HD TV with High Dynamic Range","salesRankShortTerm":null,"salesRankMediumTerm":23861,"salesRankLongTerm":33835,"bestSellingRank":29776,"customerReviewAverage":4.60,"customerReviewCount":40,"image":"https://img.bbystatic.com/BestBuy_US/images/products/5145/5145600_sa.jpg","url":"https://api.bestbuy.com/click/-/5145600/pdp"},{"sku":5770942,"manufacturer":"Sony","name":"Sony - 77\" Class (76.7\" Diag.) - OLED - 2160p - Smart - 4K Ultra HD TV with High Dynamic Range","salesRankShortTerm":null,"salesRankMediumTerm":null,"salesRankLongTerm":39424,"bestSellingRank":44362,"customerReviewAverage":5,"customerReviewCount":1,"image":"https://img.bbystatic.com/BestBuy_US/images/products/5770/5770942_sa.jpg","url":"https://api.bestbuy.com/click/-/5770942/pdp"},{"sku":5871013,"manufacturer":"Samsung","name":"Samsung - 40\" Class (39.5\" Diag.) - LED - 1080p - Smart - HDTV","salesRankShortTerm":null,"salesRankMediumTerm":40533,"salesRankLongTerm":118398,"bestSellingRank":60619,"customerReviewAverage":null,"customerReviewCount":null,"image":"https://img.bbystatic.com/BestBuy_US/images/products/5871/5871013_sa.jpg","url":"https://api.bestbuy.com/click/-/5871013/pdp"},{"sku":5710461,"manufacturer":"LG","name":"LG - 65\" Class (64.5 Diag.) - Wallpaper OLED - 2160p - Smart - 4K Ultra HD TV - with High Dynamic Range","salesRankShortTerm":null,"salesRankMediumTerm":40674,"salesRankLongTerm":118539,"bestSellingRank":60760,"customerReviewAverage":3.20,"customerReviewCount":5,"image":"https://img.bbystatic.com/BestBuy_US/images/products/5710/5710461_sa.jpg","url":"https://api.bestbuy.com/click/-/5710461/pdp"},{"sku":5833900,"manufacturer":"LG","name":"LG - 77\" Class (76.7 Diag.) - Wallpaper OLED - 2160p - Smart - 4K Ultra HD TV - with High Dynamic Range","salesRankShortTerm":null,"salesRankMediumTerm":40732,"salesRankLongTerm":118597,"bestSellingRank":60818,"customerReviewAverage":3,"customerReviewCount":2,"image":"https://img.bbystatic.com/BestBuy_US/images/products/5833/5833900_sa.jpg","url":"https://api.bestbuy.com/click/-/5833900/pdp"},{"sku":5481100,"manufacturer":"Sony","name":"Sony - 100\" Class (99.5\" Diag.) - LED - 2160p - Smart - 3D - 4K Ultra HD TV with High Dynamic Range","salesRankShortTerm":null,"salesRankMediumTerm":null,"salesRankLongTerm":57716,"bestSellingRank":64342,"customerReviewAverage":4.30,"customerReviewCount":3,"image":"https://img.bbystatic.com/BestBuy_US/images/products/5481/5481100_sa.jpg","url":"https://api.bestbuy.com/click/-/5481100/pdp"}],"facets":{"manufacturer":{"samsung":59,"lg":30,"sony":28,"vizio":9,"hisense":8,"insignia™":8,"sharp":8,"westinghouse":7,"tcl":6,"toshiba":6}}}