{"from":51,"to":100,"currentPage":2,"total":170,"totalPages":4,"queryTime":"0.030","totalTime":"0.195","partial":false,"canonicalUrl":"/v1/products((search=\"Smart\"&search=\"TV*\")&(categoryPath.id=abcat0101000)|(categoryPath.id=abcat0101000&manufacturer=\"Toshiba\"&smartCapable=true))?show=sku,manufacturer,name,salesRankShortTerm,salesRankMediumTerm,salesRankLongTerm,bestSellingRank,customerReviewAverage,customerReviewCount,image,url&sort=salesRankShortTerm,bestSellingRank&pageSize=50&page=2&format=json&facet=manufacturer,10&apiKey=AVMRk1IkGNUlScJLbvgQVFPX","products":[{"sku":5871010,"manufacturer":"Samsung","name":"Samsung - 32\" Class (31.5\" Diag.) - LED - 720p - Smart - HDTV","salesRankShortTerm":2145,"salesRankMediumTerm":1891,"salesRankLongTerm":2177,"bestSellingRank":2104,"customerReviewAverage":5,"customerReviewCount":1,"image":"https://img.bbystatic.com/BestBuy_US/images/products/5871/5871010_sa.jpg","url":"https://api.bestbuy.com/click/-/5871010/pdp"},{"sku":4904601,"manufacturer":"VIZIO","name":"VIZIO - 24\" Class (23.54\" Diag.) - LED - 1080p - Smart - HDTV","salesRankShortTerm":2151,"salesRankMediumTerm":2418,"salesRankLongTerm":1358,"bestSellingRank":1602,"customerReviewAverage":4.50,"customerReviewCount":1319,"image":"https://img.bbystatic.com/BestBuy_US/images/products/4904/4904601_sa.jpg","url":"https://api.bestbuy.com/click/-/4904601/pdp"},{"sku":8040004,"manufacturer":"Samsung","name":"Samsung - 24\" Class (23-5/8\" Diag.) - LED - 720p - Smart - HDTV","salesRankShortTerm":2238,"salesRankMediumTerm":4761,"salesRankLongTerm":4511,"bestSellingRank":4358,"customerReviewAverage":4.50,"customerReviewCount":2695,"image":"https://img.bbystatic.com/BestBuy_US/images/products/8040/8040004_sa.jpg","url":"https://api.bestbuy.com/click/-/8040004/pdp"},{"sku":5748204,"manufacturer":"Sony","name":"Sony - 49\" Class (48.5\" Diag.) - LED - 2160p - Smart - 4K Ultra HD TV with High Dynamic Range","salesRankShortTerm":2266,"salesRankMediumTerm":1944,"salesRankLongTerm":1832,"bestSellingRank":1894,"customerReviewAverage":4.60,"customerReviewCount":220,"image":"https://img.bbystatic.com/BestBuy_US/images/products/5748/5748204_sa.jpg","url":"https://api.bestbuy.com/click/-/5748204/pdp"},{"sku":5773708,"manufacturer":"Samsung","name":"Samsung - 65\" Class (64.5\" Diag.) - LED - Curved - 2160p - Smart - 4K Ultra HD TV with High Dynamic Range","salesRankShortTerm":2295,"salesRankMediumTerm":1520,"salesRankLongTerm":1436,"bestSellingRank":1503,"customerReviewAverage":4.70,"customerReviewCount":216,"image":"https://img.bbystatic.com/BestBuy_US/images/products/5773/5773708_sa.jpg","url":"https://api.bestbuy.com/click/-/5773708/pdp"},{"sku":5723390,"manufacturer":"LG","name":"LG - 24\" Class (23.8\" Diag.) - LED - 720p - Smart - HDTV","salesRankShortTerm":2321,"salesRankMediumTerm":1880,"salesRankLongTerm":2109,"bestSellingRank":2061,"customerReviewAverage":4.60,"customerReviewCount":212,"image":"https://img.bbystatic.com/BestBuy_US/images/products/5723/5723390_sa.jpg","url":"https://api.bestbuy.com/click/-/5723390/pdp"},{"sku":5768600,"manufacturer":"Samsung","name":"Samsung - 49\" Class (48.5\" Diag.) - LED - 2160p - Smart - 4K Ultra HD TV with High Dynamic Range","salesRankShortTerm":2324,"salesRankMediumTerm":1457,"salesRankLongTerm":1294,"bestSellingRank":1375,"customerReviewAverage":4.70,"customerReviewCount":279,"image":"https://img.bbystatic.com/BestBuy_US/images/products/5768/5768600_sa.jpg","url":"https://api.bestbuy.com/click/-/5768600/pdp"},{"sku":5804403,"manufacturer":"LG","name":"LG - 55\" Class (54.6\" Diag.) - LED - 2160p - Smart - 4K Ultra HD TV with High Dynamic Range","salesRankShortTerm":2362,"salesRankMediumTerm":2399,"salesRankLongTerm":1577,"bestSellingRank":1796,"customerReviewAverage":4.80,"customerReviewCount":26,"image":"https://img.bbystatic.com/BestBuy_US/images/products/5804/5804403_sa.jpg","url":"https://api.bestbuy.com/click/-/5804403/pdp"},{"sku":5930900,"manufacturer":"LG","name":"LG - 60\" Class (59.9\" Diag.) - LED - 2160p - Smart - 4K Ultra HD TV","salesRankShortTerm":2363,"salesRankMediumTerm":760,"salesRankLongTerm":1437,"bestSellingRank":1196,"customerReviewAverage":4.50,"customerReviewCount":58,"image":"https://img.bbystatic.com/BestBuy_US/images/products/5930/5930900_sa.jpg","url":"https://api.bestbuy.com/click/-/5930900/pdp"},{"sku":5875644,"manufacturer":"Sony","name":"Sony - 43\" Class (42.5\" Diag.) - LED - 2160p - Smart - 4K Ultra HD TV","salesRankShortTerm":2395,"salesRankMediumTerm":1828,"salesRankLongTerm":1805,"bestSellingRank":1856,"customerReviewAverage":4.60,"customerReviewCount":27,"image":"https://img.bbystatic.com/BestBuy_US/images/products/5875/5875644_sa.jpg","url":"https://api.bestbuy.com/click/-/5875644/pdp"},{"sku":5634400,"manufacturer":"Westinghouse","name":"Westinghouse - 24\" Class (23.6\" Diag.) - LED - 720p - Smart - HDTV","salesRankShortTerm":2421,"salesRankMediumTerm":922,"salesRankLongTerm":553,"bestSellingRank":660,"customerReviewAverage":4.20,"customerReviewCount":294,"image":"https://img.bbystatic.com/BestBuy_US/images/products/5634/5634400_sa.jpg","url":"https://api.bestbuy.com/click/-/5634400/pdp"},{"sku":5773701,"manufacturer":"Samsung","name":"Samsung - 55\" Class (54.6\" Diag.) - LED - 2160p - Smart - 4K Ultra HD TV with High Dynamic Range","salesRankShortTerm":2453,"salesRankMediumTerm":1958,"salesRankLongTerm":1946,"bestSellingRank":1967,"customerReviewAverage":4.70,"customerReviewCount":240,"image":"https://img.bbystatic.com/BestBuy_US/images/products/5773/5773701_sa.jpg","url":"https://api.bestbuy.com/click/-/5773701/pdp"},{"sku":5733203,"manufacturer":"Toshiba","name":"Toshiba - 55\" Class (54.6\" Diag.) - LED - 2160p - with Chromecast Built-in - 4K Ultra HD TV","salesRankShortTerm":2543,"salesRankMediumTerm":508,"salesRankLongTerm":375,"bestSellingRank":435,"customerReviewAverage":4.40,"customerReviewCount":15,"image":"https://img.bbystatic.com/BestBuy_US/images/products/5733/5733203_sa.jpg","url":"https://api.bestbuy.com/click/-/5733203/pdp"},{"sku":5792902,"manufacturer":"LG","name":"LG - 65\" Class (64.5\" Diag.) - LED - 2160p - Smart - 4K Ultra HD TV with High Dynamic Range","salesRankShortTerm":2569,"salesRankMediumTerm":2070,"salesRankLongTerm":1955,"bestSellingRank":2009,"customerReviewAverage":4.60,"customerReviewCount":16,"image":"https://img.bbystatic.com/BestBuy_US/images/products/5792/5792902_sa.jpg","url":"https://api.bestbuy.com/click/-/5792902/pdp"},{"sku":5607100,"manufacturer":"Westinghouse","name":"Westinghouse - 50\" Class (49.5\" Diag.) - LED - 1080p - Smart - HDTV","salesRankShortTerm":2590,"salesRankMediumTerm":2225,"salesRankLongTerm":1823,"bestSellingRank":1957,"customerReviewAverage":4.20,"customerReviewCount":637,"image":"https://img.bbystatic.com/BestBuy_US/images/products/5607/5607100_sa.jpg","url":"https://api.bestbuy.com/click/-/5607100/pdp"},{"sku":5748205,"manufacturer":"Sony","name":"Sony - 49\" Class (48.5\" Diag.) - LED - 2160p - Smart - 4K Ultra HD TV with High Dynamic Range","salesRankShortTerm":2591,"salesRankMediumTerm":1884,"salesRankLongTerm":1513,"bestSellingRank":1649,"customerReviewAverage":4.70,"customerReviewCount":154,"image":"https://img.bbystatic.com/BestBuy_US/images/products/5748/5748205_sa.jpg","url":"https://api.bestbuy.com/click/-/5748205/pdp"},{"sku":4801501,"manufacturer":"Sony","name":"Sony - 48\" Class (47.6\" Diag.) - LED - 1080p - Smart - HDTV","salesRankShortTerm":2667,"salesRankMediumTerm":1775,"salesRankLongTerm":1775,"bestSellingRank":1826,"customerReviewAverage":4.40,"customerReviewCount":1031,"image":"https://img.bbystatic.com/BestBuy_US/images/products/4801/4801501_sa.jpg","url":"https://api.bestbuy.com/click/-/4801501/pdp"},{"sku":5773847,"manufacturer":"Samsung","name":"Samsung - 65\" Class (64.5\" Diag.) - LED - Curved - 2160p - Smart - 4K Ultra HD TV","salesRankShortTerm":2723,"salesRankMediumTerm":2409,"salesRankLongTerm":2909,"bestSellingRank":2748,"customerReviewAverage":4.70,"customerReviewCount":123,"image":"https://img.bbystatic.com/BestBuy_US/images/products/5773/5773847_sa.jpg","url":"https://api.bestbuy.com/click/-/5773847/pdp"},{"sku":4982500,"manufacturer":"Hisense","name":"Hisense - 50\" Class (49.5\" Diag.) - LED - 2160p - Smart - 4K Ultra HD TV with High Dynamic Range","salesRankShortTerm":2820,"salesRankMediumTerm":1122,"salesRankLongTerm":1147,"bestSellingRank":1183,"customerReviewAverage":4.60,"customerReviewCount":1113,"image":"https://img.bbystatic.com/BestBuy_US/images/products/4982/4982500_sa.jpg","url":"https://api.bestbuy.com/click/-/4982500/pdp"},{"sku":5746201,"manufacturer":"Sharp","name":"Sharp - 65\" Class (64.5\" Diag.) - LED - 2160p - Smart - 4K Ultra HD TV Roku TV","salesRankShortTerm":3020,"salesRankMediumTerm":1787,"salesRankLongTerm":1802,"bestSellingRank":1863,"customerReviewAverage":3.30,"customerReviewCount":7,"image":"https://img.bbystatic.com/BestBuy_US/images/products/5746/5746201_sa.jpg","url":"https://api.bestbuy.com/click/-/5746201/pdp"},{"sku":5247402,"manufacturer":"Westinghouse","name":"Westinghouse - 43\" Class (42.5\" Diag.) - LED - 2160p - Smart - 4K Ultra HD TV","salesRankShortTerm":3090,"salesRankMediumTerm":2717,"salesRankLongTerm":2655,"bestSellingRank":2710,"customerReviewAverage":4.20,"customerReviewCount":212,"image":"https://img.bbystatic.com/BestBuy_US/images/products/5247/5247402_sa.jpg","url":"https://api.bestbuy.com/click/-/5247402/pdp"},{"sku":5875626,"manufacturer":"Sony","name":"Sony - 49\" Class (48.5\" Diag.) - LED - 2160p - Smart - 4K Ultra HD TV","salesRankShortTerm":3106,"salesRankMediumTerm":2329,"salesRankLongTerm":2336,"bestSellingRank":2375,"customerReviewAverage":4.30,"customerReviewCount":12,"image":"https://img.bbystatic.com/BestBuy_US/images/products/5875/5875626_sa.jpg","url":"https://api.bestbuy.com/click/-/5875626/pdp"},{"sku":5792901,"manufacturer":"LG","name":"LG - 55\" Class (54.6\" Diag.) - LED - 1080p - Smart - HDTV","salesRankShortTerm":3156,"salesRankMediumTerm":2283,"salesRankLongTerm":2256,"bestSellingRank":2315,"customerReviewAverage":4.60,"customerReviewCount":212,"image":"https://img.bbystatic.com/BestBuy_US/images/products/5792/5792901_sa.jpg","url":"https://api.bestbuy.com/click/-/5792901/pdp"},{"sku":5763400,"manufacturer":"LG","name":"LG - 55\" Class (54.6\" Diag.) - OLED - 2160p - Smart - 4K Ultra HD TV with High Dynamic Range","salesRankShortTerm":3214,"salesRankMediumTerm":2507,"salesRankLongTerm":2015,"bestSellingRank":2197,"customerReviewAverage":4.90,"customerReviewCount":130,"image":"https://img.bbystatic.com/BestBuy_US/images/products/5763/5763400_sa.jpg","url":"https://api.bestbuy.com/click/-/5763400/pdp"},{"sku":5327500,"manufacturer":"Sharp","name":"Sharp - 55\" Class (54.6\" Diag.) - LED - 1080p - Smart - HDTV Roku TV - Black","salesRankShortTerm":3219,"salesRankMediumTerm":3013,"salesRankLongTerm":3368,"bestSellingRank":3276,"customerReviewAverage":4.50,"customerReviewCount":933,"image":"https://img.bbystatic.com/BestBuy_US/images/products/5327/5327500_sa.jpg","url":"https://api.bestbuy.com/click/-/5327500/pdp"},{"sku":5733300,"manufacturer":"Toshiba","name":"Toshiba - 50\" Class (49.5\" Diag.) - LED - 2160p - with Chromecast Built-in - 4K Ultra HD TV","salesRankShortTerm":3228,"salesRankMediumTerm":2696,"salesRankLongTerm":2251,"bestSellingRank":2426,"customerReviewAverage":4.70,"customerReviewCount":13,"image":"https://img.bbystatic.com/BestBuy_US/images/products/5733/5733300_sa.jpg","url":"https://api.bestbuy.com/click/-/5733300/pdp"},{"sku":5875600,"manufacturer":"Sony","name":"Sony - 55\" Class (54.6\" Diag.) - LED - 2160p - Smart - 4K Ultra HD TV","salesRankShortTerm":3326,"salesRankMediumTerm":2535,"salesRankLongTerm":2798,"bestSellingRank":2759,"customerReviewAverage":4.90,"customerReviewCount":25,"image":"https://img.bbystatic.com/BestBuy_US/images/products/5875/5875600_sa.jpg","url":"https://api.bestbuy.com/click/-/5875600/pdp"},{"sku":5900135,"manufacturer":"Sony","name":"Sony - 70\" Class (69.5\" Diag.) - LED - 2160p - Smart - 4K Ultra HD TV","salesRankShortTerm":3375,"salesRankMediumTerm":2952,"salesRankLongTerm":3018,"bestSellingRank":3029,"customerReviewAverage":4,"customerReviewCount":2,"image":"https://img.bbystatic.com/BestBuy_US/images/products/5900/5900135_sa.jpg","url":"https://api.bestbuy.com/click/-/5900135/pdp"},{"sku":5555039,"manufacturer":"Samsung","name":"Samsung - 32\" Class (31.5\" Diag.) - LED - 1080p - Smart - HDTV","salesRankShortTerm":3388,"salesRankMediumTerm":3931,"salesRankLongTerm":3257,"bestSellingRank":3471,"customerReviewAverage":4.60,"customerReviewCount":4573,"image":"https://img.bbystatic.com/BestBuy_US/images/products/5555/5555039_sa.jpg","url":"https://api.bestbuy.com/click/-/5555039/pdp"},{"sku":5748210,"manufacturer":"Sony","name":"Sony - 43\" Class (42.5\" Diag.) - LED - 2160p - Smart - 4K Ultra HD TV with High Dynamic Range","salesRankShortTerm":3417,"salesRankMediumTerm":3566,"salesRankLongTerm":3603,"bestSellingRank":3609,"customerReviewAverage":4.70,"customerReviewCount":47,"image":"https://img.bbystatic.com/BestBuy_US/images/products/5748/5748210_sa.jpg","url":"https://api.bestbuy.com/click/-/5748210/pdp"},{"sku":5774200,"manufacturer":"Samsung","name":"Samsung - 75\" Class (74.5\" Diag.) - LED - 2160p - Smart - 4K Ultra HD TV with High Dynamic Range","salesRankShortTerm":3484,"salesRankMediumTerm":2434,"salesRankLongTerm":2179,"bestSellingRank":2314,"customerReviewAverage":4.60,"customerReviewCount":123,"image":"https://img.bbystatic.com/BestBuy_US/images/products/5774/5774200_sa.jpg","url":"https://api.bestbuy.com/click/-/5774200/pdp"},{"sku":5901040,"manufacturer":"Samsung","name":"Samsung - 50\" Class (49.5\" Diag.) - LED - 1080p - Smart - HDTV","salesRankShortTerm":3659,"salesRankMediumTerm":3448,"salesRankLongTerm":2696,"bestSellingRank":2931,"customerReviewAverage":3.70,"customerReviewCount":3,"image":"https://img.bbystatic.com/BestBuy_US/images/products/5901/5901040_sa.jpg","url":"https://api.bestbuy.com/click/-/5901040/pdp"},{"sku":5524900,"manufacturer":"Hisense","name":"Hisense - 55\" Class (54.6\" Diag.) - LED - 2160p - Smart - 4K Ultra HD TV with High Dynamic Range","salesRankShortTerm":3679,"salesRankMediumTerm":3187,"salesRankLongTerm":2653,"bestSellingRank":2858,"customerReviewAverage":4.60,"customerReviewCount":652,"image":"https://img.bbystatic.com/BestBuy_US/images/products/5524/5524900_sa.jpg","url":"https://api.bestbuy.com/click/-/5524900/pdp"},{"sku":5758301,"manufacturer":"Samsung","name":"Samsung - 75\" Class (74.5\" Diag.) - LED - 2160p - Smart - 4K Ultra HD TV with High Dynamic Range","salesRankShortTerm":3693,"salesRankMediumTerm":2993,"salesRankLongTerm":3170,"bestSellingRank":3167,"customerReviewAverage":4.70,"customerReviewCount":46,"image":"https://img.bbystatic.com/BestBuy_US/images/products/5758/5758301_sa.jpg","url":"https://api.bestbuy.com/click/-/5758301/pdp"},{"sku":5712157,"manufacturer":"Sharp","name":"Sharp - 55\" Class (54.6\" Diag.) - LED - 2160p - Smart - 4K Ultra HD TV Roku TV","salesRankShortTerm":3776,"salesRankMediumTerm":3076,"salesRankLongTerm":1658,"bestSellingRank":1992,"customerReviewAverage":4.60,"customerReviewCount":5,"image":"https://img.bbystatic.com/BestBuy_US/images/products/5712/5712157_sa.jpg","url":"https://api.bestbuy.com/click/-/5712157/pdp"},{"sku":4982300,"manufacturer":"Hisense","name":"Hisense - 43\" Class (42.5\" Diag.) - LED - 2160p - Smart - 4K Ultra HD TV","salesRankShortTerm":3796,"salesRankMediumTerm":3603,"salesRankLongTerm":3385,"bestSellingRank":3508,"customerReviewAverage":4.40,"customerReviewCount":473,"image":"https://img.bbystatic.com/BestBuy_US/images/products/4982/4982300_sa.jpg","url":"https://api.bestbuy.com/click/-/4982300/pdp"},{"sku":5754302,"manufacturer":"Samsung","name":"Samsung - 55\" Class (54.6\" Diag.) - LED - 2160p - Smart - 4K Ultra HD TV with High Dynamic Range","salesRankShortTerm":3827,"salesRankMediumTerm":3085,"salesRankLongTerm":2652,"bestSellingRank":2830,"customerReviewAverage":4.70,"customerReviewCount":97,"image":"https://img.bbystatic.com/BestBuy_US/images/products/5754/5754302_sa.jpg","url":"https://api.bestbuy.com/click/-/5754302/pdp"},{"sku":5748201,"manufacturer":"Sony","name":"Sony - 75\" Class (74.5\" Diag.) - LED - 2160p - Smart - 4K Ultra HD TV with High Dynamic Range","salesRankShortTerm":3893,"salesRankMediumTerm":3204,"salesRankLongTerm":2929,"bestSellingRank":3091,"customerReviewAverage":4.80,"customerReviewCount":132,"image":"https://img.bbystatic.com/BestBuy_US/images/products/5748/5748201_sa.jpg","url":"https://api.bestbuy.com/click/-/5748201/pdp"},{"sku":5763359,"manufacturer":"LG","name":"LG - 65\" Class (64.5\" Diag.) - OLED - 2160p - Smart - 4K Ultra HD TV with High Dynamic Range","salesRankShortTerm":3956,"salesRankMediumTerm":3171,"salesRankLongTerm":2276,"bestSellingRank":2582,"customerReviewAverage":4.80,"customerReviewCount":172,"image":"https://img.bbystatic.com/BestBuy_US/images/products/5763/5763359_sa.jpg","url":"https://api.bestbuy.com/click/-/5763359/pdp"},{"sku":5935272,"manufacturer":"LG","name":"LG - 65\" Class (64.5\" Diag.) - OLED - 2160p - Smart - 4K Ultra HD TV with High Dynamic Range","salesRankShortTerm":4050,"salesRankMediumTerm":3015,"salesRankLongTerm":2861,"bestSellingRank":2977,"customerReviewAverage":4.70,"customerReviewCount":15,"image":"https://img.bbystatic.com/BestBuy_US/images/products/5935/5935272_sa.jpg","url":"https://api.bestbuy.com/click/-/5935272/pdp"},{"sku":9660184,"manufacturer":"Westinghouse","name":"Westinghouse - 50\" Class (49.5\" Diag.) - LED - 2160p - Smart - 4K Ultra HD TV","salesRankShortTerm":4088,"salesRankMediumTerm":3953,"salesRankLongTerm":4304,"bestSellingRank":4252,"customerReviewAverage":4.20,"customerReviewCount":876,"image":"https://img.bbystatic.com/BestBuy_US/images/products/9660/9660184_sa.jpg","url":"https://api.bestbuy.com/click/-/9660184/pdp"},{"sku":5962205,"manufacturer":"VIZIO","name":"VIZIO - 24\" Class (23.5\" Diag.) - LED - 720p - Smart - HDTV","salesRankShortTerm":4123,"salesRankMediumTerm":3788,"salesRankLongTerm":4345,"bestSellingRank":4206,"customerReviewAverage":null,"customerReviewCount":null,"image":"https://img.bbystatic.com/BestBuy_US/images/products/5962/5962205_sa.jpg","url":"https://api.bestbuy.com/click/-/5962205/pdp"},{"sku":7210005,"manufacturer":"Samsung","name":"Samsung - 28\" Class (27-1/2\" Diag.) - LED - 720p - Smart - HDTV","salesRankShortTerm":4154,"salesRankMediumTerm":4608,"salesRankLongTerm":4026,"bestSellingRank":4242,"customerReviewAverage":4.60,"customerReviewCount":2044,"image":"https://img.bbystatic.com/BestBuy_US/images/products/7210/7210005_sa.jpg","url":"https://api.bestbuy.com/click/-/7210005/pdp"},{"sku":5763433,"manufacturer":"LG","name":"LG - 65\" Class (64.5\" Diag.) - LED - 2160p - Smart - 4K Ultra HD TV with High Dynamic Range","salesRankShortTerm":4191,"salesRankMediumTerm":2286,"salesRankLongTerm":2004,"bestSellingRank":2155,"customerReviewAverage":4.70,"customerReviewCount":41,"image":"https://img.bbystatic.com/BestBuy_US/images/products/5763/5763433_sa.jpg","url":"https://api.bestbuy.com/click/-/5763433/pdp"},{"sku":5772800,"manufacturer":"LG","name":"LG - 65\" Class (64.5\" Diag.) - OLED - 2160p - Smart - 4K Ultra HD TV with High Dynamic Range","salesRankShortTerm":4281,"salesRankMediumTerm":3326,"salesRankLongTerm":4331,"bestSellingRank":4039,"customerReviewAverage":4.80,"customerReviewCount":19,"image":"https://img.bbystatic.com/BestBuy_US/images/products/5772/5772800_sa.jpg","url":"https://api.bestbuy.com/click/-/5772800/pdp"},{"sku":5886000,"manufacturer":"Samsung","name":"Samsung - 82\" Class (82\" Diag.) - LED - 2160p - Smart - 4K Ultra HD TV with High Dynamic Range","salesRankShortTerm":4294,"salesRankMediumTerm":4008,"salesRankLongTerm":3403,"bestSellingRank":3622,"customerReviewAverage":4.70,"customerReviewCount":14,"image":"https://img.bbystatic.com/BestBuy_US/images/products/5886/5886000_sa.jpg","url":"https://api.bestbuy.com/click/-/5886000/pdp"},{"sku":5897427,"manufacturer":"Hisense","name":"Hisense - 55\" Class (54.6\" Diag.) - LED - 2160p - Smart - 4K Ultra HD TV","salesRankShortTerm":4302,"salesRankMediumTerm":1890,"salesRankLongTerm":1066,"bestSellingRank":1311,"customerReviewAverage":4.60,"customerReviewCount":103,"image":"https://img.bbystatic.com/BestBuy_US/images/products/5897/5897427_sa.jpg","url":"https://api.bestbuy.com/click/-/5897427/pdp"},{"sku":5865905,"manufacturer":"Hisense","name":"Hisense - 39\" Class (38.5\" Diag.) - LED - 1080p - Smart - HDTV","salesRankShortTerm":4305,"salesRankMediumTerm":3394,"salesRankLongTerm":3447,"bestSellingRank":3507,"customerReviewAverage":4.80,"customerReviewCount":5,"image":"https://img.bbystatic.com/BestBuy_US/images/products/5865/5865905_sa.jpg","url":"https://api.bestbuy.com/click/-/5865905/pdp"},{"sku":4613600,"manufacturer":"Samsung","name":"Samsung - 32\" Class (31.5\" Diag.) - LED - 720p - Smart - HDTV","salesRankShortTerm":4329,"salesRankMediumTerm":3401,"salesRankLongTerm":2778,"bestSellingRank":3032,"customerReviewAverage":4.60,"customerReviewCount":3611,"image":"https://img.bbystatic.com/BestBuy_US/images/products/4613/4613600_sa.jpg","url":"https://api.bestbuy.com/click/-/4613600/pdp"},{"sku":5770946,"manufacturer":"Sony","name":"Sony - 65\" Class (64.5\" Diag.) - OLED - 2160p - Smart - 4K Ultra HD TV with High Dynamic Range","salesRankShortTerm":4484,"salesRankMediumTerm":3499,"salesRankLongTerm":3381,"bestSellingRank":3506,"customerReviewAverage":4.90,"customerReviewCount":81,"image":"https://img.bbystatic.com/BestBuy_US/images/products/5770/5770946_sa.jpg","url":"https://api.bestbuy.com/click/-/5770946/pdp"}],"facets":{"manufacturer":{"samsung":59,"lg":31,"sony":28,"vizio":9,"hisense":8,"insignia™":8,"sharp":8,"westinghouse":7,"tcl":6,"toshiba":6}}}