{"from":101,"to":150,"currentPage":3,"total":169,"totalPages":4,"queryTime":"0.058","totalTime":"0.207","partial":false,"canonicalUrl":"/v1/products((search=\"Smart\"&search=\"TV*\")&(categoryPath.id=abcat0101000)|(categoryPath.id=abcat0101000&manufacturer=\"Toshiba\"&smartCapable=true))?show=sku,manufacturer,name,salesRankShortTerm,salesRankMediumTerm,salesRankLongTerm,bestSellingRank,customerReviewAverage,customerReviewCount,image,url&sort=salesRankShortTerm,bestSellingRank&pageSize=50&page=3&format=json&facet=manufacturer,10&apiKey=AVMRk1IkGNUlScJLbvgQVFPX","products":[{"sku":9660184,"manufacturer":"Westinghouse","name":"Westinghouse - 50\" Class (49.5\" Diag.) - LED - 2160p - Smart - 4K Ultra HD TV","salesRankShortTerm":3816,"salesRankMediumTerm":4131,"salesRankLongTerm":4106,"bestSellingRank":4147,"customerReviewAverage":4.20,"customerReviewCount":870,"image":"https://img.bbystatic.com/BestBuy_US/images/products/9660/9660184_sa.jpg","url":"https://api.bestbuy.com/click/-/9660184/pdp"},{"sku":5886000,"manufacturer":"Samsung","name":"Samsung - 82\" Class (82\" Diag.) - LED - 2160p - Smart - 4K Ultra HD TV with High Dynamic Range","salesRankShortTerm":3994,"salesRankMediumTerm":3552,"salesRankLongTerm":3018,"bestSellingRank":3294,"customerReviewAverage":4.70,"customerReviewCount":14,"image":"https://img.bbystatic.com/BestBuy_US/images/products/5886/5886000_sa.jpg","url":"https://api.bestbuy.com/click/-/5886000/pdp"},{"sku":5754305,"manufacturer":"Samsung","name":"Samsung - 65\" Class (64.5\" Diag.) - LED - 2160p - Smart - 4K Ultra HD TV with High Dynamic Range","salesRankShortTerm":4180,"salesRankMediumTerm":2556,"salesRankLongTerm":2927,"bestSellingRank":2858,"customerReviewAverage":4.70,"customerReviewCount":137,"image":"https://img.bbystatic.com/BestBuy_US/images/products/5754/5754305_sa.jpg","url":"https://api.bestbuy.com/click/-/5754305/pdp"},{"sku":5773705,"manufacturer":"Samsung","name":"Samsung - 65\" Class (64.5\" Diag.) - LED - 2160p - Smart - 4K Ultra HD TV with High Dynamic Range","salesRankShortTerm":4185,"salesRankMediumTerm":2930,"salesRankLongTerm":3246,"bestSellingRank":3220,"customerReviewAverage":4.70,"customerReviewCount":110,"image":"https://img.bbystatic.com/BestBuy_US/images/products/5773/5773705_sa.jpg","url":"https://api.bestbuy.com/click/-/5773705/pdp"},{"sku":5962205,"manufacturer":"VIZIO","name":"VIZIO - 24\" Class (23.5\" Diag.) - LED - 720p - Smart - HDTV","salesRankShortTerm":4286,"salesRankMediumTerm":3715,"salesRankLongTerm":4422,"bestSellingRank":4164,"customerReviewAverage":null,"customerReviewCount":null,"image":"https://img.bbystatic.com/BestBuy_US/images/products/5962/5962205_sa.jpg","url":"https://api.bestbuy.com/click/-/5962205/pdp"},{"sku":5773836,"manufacturer":"Samsung","name":"Samsung - 65\" Class (64.5\" Diag.) - LED - 2160p - Smart - 4K Ultra HD TV with High Dynamic Range","salesRankShortTerm":4506,"salesRankMediumTerm":2793,"salesRankLongTerm":2903,"bestSellingRank":2959,"customerReviewAverage":4.70,"customerReviewCount":159,"image":"https://img.bbystatic.com/BestBuy_US/images/products/5773/5773836_sa.jpg","url":"https://api.bestbuy.com/click/-/5773836/pdp"},{"sku":5901040,"manufacturer":"Samsung","name":"Samsung - 50\" Class (49.5\" Diag.) - LED - 1080p - Smart - HDTV","salesRankShortTerm":4525,"salesRankMediumTerm":3428,"salesRankLongTerm":2517,"bestSellingRank":2915,"customerReviewAverage":3.70,"customerReviewCount":3,"image":"https://img.bbystatic.com/BestBuy_US/images/products/5901/5901040_sa.jpg","url":"https://api.bestbuy.com/click/-/5901040/pdp"},{"sku":5410021,"manufacturer":"Samsung","name":"Samsung - 40\" Class (40\" Diag.) - LED - 1080p - Smart - HDTV","salesRankShortTerm":4557,"salesRankMediumTerm":5146,"salesRankLongTerm":4096,"bestSellingRank":4493,"customerReviewAverage":4.60,"customerReviewCount":3502,"image":"https://img.bbystatic.com/BestBuy_US/images/products/5410/5410021_sa.jpg","url":"https://api.bestbuy.com/click/-/5410021/pdp"},{"sku":5368202,"manufacturer":"Westinghouse","name":"Westinghouse - 55\" Class (54.6\" Diag.) - LED - 2160p - Smart - 4K Ultra HD TV","salesRankShortTerm":4643,"salesRankMediumTerm":7513,"salesRankLongTerm":6099,"bestSellingRank":6464,"customerReviewAverage":4.10,"customerReviewCount":426,"image":"https://img.bbystatic.com/BestBuy_US/images/products/5368/5368202_sa.jpg","url":"https://api.bestbuy.com/click/-/5368202/pdp"},{"sku":5555039,"manufacturer":"Samsung","name":"Samsung - 32\" Class (31.5\" Diag.) - LED - 1080p - Smart - HDTV","salesRankShortTerm":4646,"salesRankMediumTerm":3635,"salesRankLongTerm":2918,"bestSellingRank":3292,"customerReviewAverage":4.60,"customerReviewCount":4572,"image":"https://img.bbystatic.com/BestBuy_US/images/products/5555/5555039_sa.jpg","url":"https://api.bestbuy.com/click/-/5555039/pdp"},{"sku":4807300,"manufacturer":"Toshiba","name":"Toshiba - 55\" Class (54.6\" Diag.) - LED - 1080p - with Chromecast Built-in - HDTV","salesRankShortTerm":5026,"salesRankMediumTerm":7378,"salesRankLongTerm":8731,"bestSellingRank":7890,"customerReviewAverage":4.40,"customerReviewCount":1256,"image":"https://img.bbystatic.com/BestBuy_US/images/products/4807/4807300_sa.jpg","url":"https://api.bestbuy.com/click/-/4807300/pdp"},{"sku":5712314,"manufacturer":"Hisense","name":"Hisense - 65\" Class (64.5\" Diag.) - LED - 2160p - Smart - 4K Ultra HD TV with High Dynamic Range","salesRankShortTerm":5090,"salesRankMediumTerm":3757,"salesRankLongTerm":3752,"bestSellingRank":3862,"customerReviewAverage":4.60,"customerReviewCount":249,"image":"https://img.bbystatic.com/BestBuy_US/images/products/5712/5712314_sa.jpg","url":"https://api.bestbuy.com/click/-/5712314/pdp"},{"sku":5777500,"manufacturer":"LG","name":"LG - 55\" Class (54.6\" Diag.) - OLED - 2160p - Smart - 4K Ultra HD TV with High Dynamic Range","salesRankShortTerm":5092,"salesRankMediumTerm":6232,"salesRankLongTerm":7487,"bestSellingRank":6840,"customerReviewAverage":5,"customerReviewCount":7,"image":"https://img.bbystatic.com/BestBuy_US/images/products/5777/5777500_sa.jpg","url":"https://api.bestbuy.com/click/-/5777500/pdp"},{"sku":5789803,"manufacturer":"Samsung","name":"Samsung - 40\" Class (39.5\" Diag.) - LED - 2160p - Smart - 4K Ultra HD TV with High Dynamic Range","salesRankShortTerm":5215,"salesRankMediumTerm":6338,"salesRankLongTerm":5593,"bestSellingRank":5866,"customerReviewAverage":4.80,"customerReviewCount":61,"image":"https://img.bbystatic.com/BestBuy_US/images/products/5789/5789803_sa.jpg","url":"https://api.bestbuy.com/click/-/5789803/pdp"},{"sku":4882400,"manufacturer":"Toshiba","name":"Toshiba - 55\" Class (54.6\" Diag.) - LED - 2160p - with Chromecast Built-in - 4K Ultra HD TV","salesRankShortTerm":5389,"salesRankMediumTerm":5034,"salesRankLongTerm":3066,"bestSellingRank":3752,"customerReviewAverage":4.30,"customerReviewCount":1134,"image":"https://img.bbystatic.com/BestBuy_US/images/products/4882/4882400_sa.jpg","url":"https://api.bestbuy.com/click/-/4882400/pdp"},{"sku":5770951,"manufacturer":"Sony","name":"Sony - 55\" Class (54.6\" Diag.) - OLED - 2160p - Smart - 4K Ultra HD TV with High Dynamic Range","salesRankShortTerm":5728,"salesRankMediumTerm":5666,"salesRankLongTerm":6369,"bestSellingRank":6089,"customerReviewAverage":4.80,"customerReviewCount":47,"image":"https://img.bbystatic.com/BestBuy_US/images/products/5770/5770951_sa.jpg","url":"https://api.bestbuy.com/click/-/5770951/pdp"},{"sku":7210005,"manufacturer":"Samsung","name":"Samsung - 28\" Class (27-1/2\" Diag.) - LED - 720p - Smart - HDTV","salesRankShortTerm":5958,"salesRankMediumTerm":4647,"salesRankLongTerm":3803,"bestSellingRank":4213,"customerReviewAverage":4.60,"customerReviewCount":2043,"image":"https://img.bbystatic.com/BestBuy_US/images/products/7210/7210005_sa.jpg","url":"https://api.bestbuy.com/click/-/7210005/pdp"},{"sku":5714425,"manufacturer":"Sony","name":"Sony - 75\" Class (74.5\" Diag.) - LED - 2160p - Smart - 4K Ultra HD TV with High Dynamic Range","salesRankShortTerm":5999,"salesRankMediumTerm":4341,"salesRankLongTerm":4940,"bestSellingRank":4812,"customerReviewAverage":4.40,"customerReviewCount":53,"image":"https://img.bbystatic.com/BestBuy_US/images/products/5714/5714425_sa.jpg","url":"https://api.bestbuy.com/click/-/5714425/pdp"},{"sku":5412152,"manufacturer":"Samsung","name":"Samsung - 60\" Class (60\" Diag.) - LED - 1080p - Smart - HDTV","salesRankShortTerm":6090,"salesRankMediumTerm":7886,"salesRankLongTerm":5717,"bestSellingRank":6446,"customerReviewAverage":4.60,"customerReviewCount":2533,"image":"https://img.bbystatic.com/BestBuy_US/images/products/5412/5412152_sa.jpg","url":"https://api.bestbuy.com/click/-/5412152/pdp"},{"sku":5183803,"manufacturer":"VIZIO","name":"VIZIO - 48\" Class (47.6\" Diag.) - LED - 1080p - Smart - HDTV","salesRankShortTerm":6199,"salesRankMediumTerm":4729,"salesRankLongTerm":4559,"bestSellingRank":4745,"customerReviewAverage":5,"customerReviewCount":1,"image":"https://img.bbystatic.com/BestBuy_US/images/products/5183/5183803_sa.jpg","url":"https://api.bestbuy.com/click/-/5183803/pdp"},{"sku":4858900,"manufacturer":"VIZIO","name":"VIZIO - 48\" Class (47.6\" Diag.) - LED - 1080p - Smart - HDTV","salesRankShortTerm":6230,"salesRankMediumTerm":6796,"salesRankLongTerm":4069,"bestSellingRank":4994,"customerReviewAverage":4.00,"customerReviewCount":404,"image":"https://img.bbystatic.com/BestBuy_US/images/products/4858/4858900_sa.jpg","url":"https://api.bestbuy.com/click/-/4858900/pdp"},{"sku":5714432,"manufacturer":"Sony","name":"Sony - 55\" Class (54.6\" Diag.) - LED - 2160p - Smart - 4K Ultra HD TV with High Dynamic Range","salesRankShortTerm":6474,"salesRankMediumTerm":4747,"salesRankLongTerm":4918,"bestSellingRank":4985,"customerReviewAverage":4.90,"customerReviewCount":73,"image":"https://img.bbystatic.com/BestBuy_US/images/products/5714/5714432_sa.jpg","url":"https://api.bestbuy.com/click/-/5714432/pdp"},{"sku":5714421,"manufacturer":"Sony","name":"Sony - 65\" Class (64.5\" Diag.) - LED - 2160p - Smart - 4K Ultra HD TV with High Dynamic Range","salesRankShortTerm":6856,"salesRankMediumTerm":4573,"salesRankLongTerm":5261,"bestSellingRank":5124,"customerReviewAverage":4.70,"customerReviewCount":130,"image":"https://img.bbystatic.com/BestBuy_US/images/products/5714/5714421_sa.jpg","url":"https://api.bestbuy.com/click/-/5714421/pdp"},{"sku":5758120,"manufacturer":"Samsung","name":"Samsung - 65\" Class (64.5\" Diag.) - LED - Curved - 2160p - Smart - 4K Ultra HD TV with High Dynamic Range","salesRankShortTerm":6862,"salesRankMediumTerm":6297,"salesRankLongTerm":6919,"bestSellingRank":6732,"customerReviewAverage":4.90,"customerReviewCount":35,"image":"https://img.bbystatic.com/BestBuy_US/images/products/5758/5758120_sa.jpg","url":"https://api.bestbuy.com/click/-/5758120/pdp"},{"sku":4801704,"manufacturer":"Sony","name":"Sony - 49\" Class (48.5\" Diag.) - LED - 2160p - Smart - 4K Ultra HD TV with High Dynamic Range","salesRankShortTerm":6957,"salesRankMediumTerm":7264,"salesRankLongTerm":7121,"bestSellingRank":7274,"customerReviewAverage":4.60,"customerReviewCount":923,"image":"https://img.bbystatic.com/BestBuy_US/images/products/4801/4801704_sa.jpg","url":"https://api.bestbuy.com/click/-/4801704/pdp"},{"sku":8040004,"manufacturer":"Samsung","name":"Samsung - 24\" Class (23-5/8\" Diag.) - LED - 720p - Smart - HDTV","salesRankShortTerm":7008,"salesRankMediumTerm":6941,"salesRankLongTerm":4139,"bestSellingRank":5129,"customerReviewAverage":4.50,"customerReviewCount":2695,"image":"https://img.bbystatic.com/BestBuy_US/images/products/8040/8040004_sa.jpg","url":"https://api.bestbuy.com/click/-/8040004/pdp"},{"sku":5758400,"manufacturer":"Samsung","name":"Samsung - 65\" Class (64.5\" Diag.) - LED - 2160p - Smart - 4K Ultra HD TV with High Dynamic Range","salesRankShortTerm":7315,"salesRankMediumTerm":6041,"salesRankLongTerm":6706,"bestSellingRank":6538,"customerReviewAverage":4.70,"customerReviewCount":22,"image":"https://img.bbystatic.com/BestBuy_US/images/products/5758/5758400_sa.jpg","url":"https://api.bestbuy.com/click/-/5758400/pdp"},{"sku":5792800,"manufacturer":"LG","name":"LG - 75\" Class (74.5\" Diag.) - LED - 2160p - Smart - 4K Ultra HD TV with High Dynamic Range","salesRankShortTerm":7317,"salesRankMediumTerm":5320,"salesRankLongTerm":5236,"bestSellingRank":5423,"customerReviewAverage":4.80,"customerReviewCount":49,"image":"https://img.bbystatic.com/BestBuy_US/images/products/5792/5792800_sa.jpg","url":"https://api.bestbuy.com/click/-/5792800/pdp"},{"sku":4673800,"manufacturer":"Insignia™","name":"Insignia™ - 24\" Class (23.6\" Diag.) - LED -720p - Smart - Roku TV","salesRankShortTerm":7405,"salesRankMediumTerm":7114,"salesRankLongTerm":5470,"bestSellingRank":6185,"customerReviewAverage":4.40,"customerReviewCount":1205,"image":"https://img.bbystatic.com/BestBuy_US/images/products/4673/4673800_sa.jpg","url":"https://api.bestbuy.com/click/-/4673800/pdp"},{"sku":4882800,"manufacturer":"Toshiba","name":"Toshiba - 49\" Class (48.5\" Diag.) - LED - 2160p - with Chromecast Built-in - 4K Ultra HD TV","salesRankShortTerm":7664,"salesRankMediumTerm":6622,"salesRankLongTerm":3249,"bestSellingRank":4268,"customerReviewAverage":4.40,"customerReviewCount":1852,"image":"https://img.bbystatic.com/BestBuy_US/images/products/4882/4882800_sa.jpg","url":"https://api.bestbuy.com/click/-/4882800/pdp"},{"sku":5751203,"manufacturer":"Westinghouse","name":"Westinghouse - 42\" Class (41.5\" Diag.) - LED - 1080p - Smart - HDTV","salesRankShortTerm":8408,"salesRankMediumTerm":6674,"salesRankLongTerm":4980,"bestSellingRank":5733,"customerReviewAverage":4.20,"customerReviewCount":116,"image":"https://img.bbystatic.com/BestBuy_US/images/products/5751/5751203_sa.jpg","url":"https://api.bestbuy.com/click/-/5751203/pdp"},{"sku":5217300,"manufacturer":"Samsung","name":"Samsung - 55\" Class (54.6\" Diag.) - LED - 2160p - Smart - 4K Ultra HD TV","salesRankShortTerm":8558,"salesRankMediumTerm":10854,"salesRankLongTerm":8569,"bestSellingRank":9390,"customerReviewAverage":4.70,"customerReviewCount":3447,"image":"https://img.bbystatic.com/BestBuy_US/images/products/5217/5217300_sa.jpg","url":"https://api.bestbuy.com/click/-/5217300/pdp"},{"sku":5762005,"manufacturer":"Samsung","name":"Samsung - 75\" Class (74.5\" Diag.) - LED - 2160p - Smart - 4K Ultra HD TV with High Dynamic Range","salesRankShortTerm":8773,"salesRankMediumTerm":9114,"salesRankLongTerm":8478,"bestSellingRank":8810,"customerReviewAverage":4.90,"customerReviewCount":9,"image":"https://img.bbystatic.com/BestBuy_US/images/products/5762/5762005_sa.jpg","url":"https://api.bestbuy.com/click/-/5762005/pdp"},{"sku":4204506,"manufacturer":"Insignia™","name":"Insignia™ - 55\" Class (54.5\" Diag.) - LED - 2160p - Smart - 4K Ultra HD TV - Roku TV","salesRankShortTerm":9220,"salesRankMediumTerm":9620,"salesRankLongTerm":8861,"bestSellingRank":9279,"customerReviewAverage":4.50,"customerReviewCount":1127,"image":"https://img.bbystatic.com/BestBuy_US/images/products/4204/4204506_sa.jpg","url":"https://api.bestbuy.com/click/-/4204506/pdp"},{"sku":5758118,"manufacturer":"Samsung","name":"Samsung - 55\" Class (54.6\" Diag.) - LED - Curved - 2160p - Smart - 4K Ultra HD TV with High Dynamic Range","salesRankShortTerm":9467,"salesRankMediumTerm":6567,"salesRankLongTerm":7510,"bestSellingRank":7306,"customerReviewAverage":4.80,"customerReviewCount":24,"image":"https://img.bbystatic.com/BestBuy_US/images/products/5758/5758118_sa.jpg","url":"https://api.bestbuy.com/click/-/5758118/pdp"},{"sku":5773907,"manufacturer":"LG","name":"LG - 65\" Class (64.5\" Diag.) - OLED - 2160p - Smart - 4K Ultra HD TV with High Dynamic Range","salesRankShortTerm":9471,"salesRankMediumTerm":11645,"salesRankLongTerm":12734,"bestSellingRank":12138,"customerReviewAverage":4.80,"customerReviewCount":8,"image":"https://img.bbystatic.com/BestBuy_US/images/products/5773/5773907_sa.jpg","url":"https://api.bestbuy.com/click/-/5773907/pdp"},{"sku":5853620,"manufacturer":"LG","name":"LG - 65\" Class (64.5\" Diag.) - LED - 2160p - Smart - 4K Ultra HD TV with High Dynamic Range","salesRankShortTerm":9973,"salesRankMediumTerm":8495,"salesRankLongTerm":9592,"bestSellingRank":9245,"customerReviewAverage":4.60,"customerReviewCount":18,"image":"https://img.bbystatic.com/BestBuy_US/images/products/5853/5853620_sa.jpg","url":"https://api.bestbuy.com/click/-/5853620/pdp"},{"sku":5029400,"manufacturer":"LG","name":"LG - 55\" Class (54.6\" Diag.) - LED - 2160p - Smart - 4K Ultra HD TV","salesRankShortTerm":11376,"salesRankMediumTerm":12754,"salesRankLongTerm":14120,"bestSellingRank":13601,"customerReviewAverage":4.60,"customerReviewCount":1568,"image":"https://img.bbystatic.com/BestBuy_US/images/products/5029/5029400_sa.jpg","url":"https://api.bestbuy.com/click/-/5029400/pdp"},{"sku":5758300,"manufacturer":"Samsung","name":"Samsung - 75\" Class (74.5\" Diag.) - LED - Curved - 2160p - Smart - 4K Ultra HD TV with High Dynamic Range","salesRankShortTerm":11739,"salesRankMediumTerm":11369,"salesRankLongTerm":11160,"bestSellingRank":11347,"customerReviewAverage":4.20,"customerReviewCount":13,"image":"https://img.bbystatic.com/BestBuy_US/images/products/5758/5758300_sa.jpg","url":"https://api.bestbuy.com/click/-/5758300/pdp"},{"sku":5846700,"manufacturer":"TCL","name":"TCL - 32\" Class (31.5\" Diag.) - LED - 720p - Smart - HDTV Roku TV","salesRankShortTerm":11866,"salesRankMediumTerm":16282,"salesRankLongTerm":12053,"bestSellingRank":13201,"customerReviewAverage":4,"customerReviewCount":1,"image":"https://img.bbystatic.com/BestBuy_US/images/products/5846/5846700_sa.jpg","url":"https://api.bestbuy.com/click/-/5846700/pdp"},{"sku":5481000,"manufacturer":"Sony","name":"Sony - 75\" Class (74.5\" Diag.) - LED - 2160p - Smart - 4K Ultra HD TV with High Dynamic Range","salesRankShortTerm":12232,"salesRankMediumTerm":14825,"salesRankLongTerm":18137,"bestSellingRank":16532,"customerReviewAverage":4.80,"customerReviewCount":45,"image":"https://img.bbystatic.com/BestBuy_US/images/products/5481/5481000_sa.jpg","url":"https://api.bestbuy.com/click/-/5481000/pdp"},{"sku":5897520,"manufacturer":"Samsung","name":"Samsung - 55\" Class (54.6\" Diag.) - LED - 2160p - Smart - 4K Ultra HD Frame TV with High Dynamic Range","salesRankShortTerm":12866,"salesRankMediumTerm":13695,"salesRankLongTerm":13827,"bestSellingRank":13788,"customerReviewAverage":4.40,"customerReviewCount":7,"image":"https://img.bbystatic.com/BestBuy_US/images/products/5897/5897520_sa.jpg","url":"https://api.bestbuy.com/click/-/5897520/pdp"},{"sku":5480900,"manufacturer":"Sony","name":"Sony - 65\" Class (64.5\" Diag.) - LED - 2160p - Smart - 4K Ultra HD TV with High Dynamic Range","salesRankShortTerm":13242,"salesRankMediumTerm":12427,"salesRankLongTerm":13744,"bestSellingRank":13386,"customerReviewAverage":4.90,"customerReviewCount":49,"image":"https://img.bbystatic.com/BestBuy_US/images/products/5480/5480900_sa.jpg","url":"https://api.bestbuy.com/click/-/5480900/pdp"},{"sku":5786402,"manufacturer":"Samsung","name":"Samsung - 65\" Class (64.5\" Diag.) - LED - Curved - 2160p - Smart - 4K Ultra HD TV with High Dynamic Range","salesRankShortTerm":13764,"salesRankMediumTerm":15880,"salesRankLongTerm":18605,"bestSellingRank":17281,"customerReviewAverage":4.60,"customerReviewCount":10,"image":"https://img.bbystatic.com/BestBuy_US/images/products/5786/5786402_sa.jpg","url":"https://api.bestbuy.com/click/-/5786402/pdp"},{"sku":5295720,"manufacturer":"VIZIO","name":"VIZIO - 40\" Class (40\" Diag.) - LED - 1080p - Smart - HDTV","salesRankShortTerm":14122,"salesRankMediumTerm":21669,"salesRankLongTerm":20696,"bestSellingRank":20206,"customerReviewAverage":null,"customerReviewCount":null,"image":"https://img.bbystatic.com/BestBuy_US/images/products/5295/5295720_sa.jpg","url":"https://api.bestbuy.com/click/-/5295720/pdp"},{"sku":5034500,"manufacturer":"Samsung","name":"Samsung - 65\" Class (64.5\" Diag.) - LED - Curved - 2160p - Smart - 4K Ultra HD TV - with High Dynamic Range","salesRankShortTerm":14249,"salesRankMediumTerm":20682,"salesRankLongTerm":28405,"bestSellingRank":22832,"customerReviewAverage":4.80,"customerReviewCount":523,"image":"https://img.bbystatic.com/BestBuy_US/images/products/5034/5034500_sa.jpg","url":"https://api.bestbuy.com/click/-/5034500/pdp"},{"sku":5897521,"manufacturer":"Samsung","name":"Samsung - 65\" Class (64.5\" Diag.) - LED - 2160p - Smart - 4K Ultra HD Frame TV with High Dynamic Range","salesRankShortTerm":15531,"salesRankMediumTerm":16309,"salesRankLongTerm":15971,"bestSellingRank":16203,"customerReviewAverage":3,"customerReviewCount":2,"image":"https://img.bbystatic.com/BestBuy_US/images/products/5897/5897521_sa.jpg","url":"https://api.bestbuy.com/click/-/5897521/pdp"},{"sku":4801802,"manufacturer":"Sony","name":"Sony - 49\" Class (48.5\" Diag.) - LED - 2160p - Smart - 4K Ultra HD TV with High Dynamic Range","salesRankShortTerm":16139,"salesRankMediumTerm":16457,"salesRankLongTerm":17002,"bestSellingRank":17077,"customerReviewAverage":4.70,"customerReviewCount":1183,"image":"https://img.bbystatic.com/BestBuy_US/images/products/4801/4801802_sa.jpg","url":"https://api.bestbuy.com/click/-/4801802/pdp"},{"sku":4804000,"manufacturer":"Sony","name":"Sony - 85\" Class (84.5\" diag) - LED - 2160p - Smart - 4K Ultra HDTV with High Dynamic Range","salesRankShortTerm":16140,"salesRankMediumTerm":15113,"salesRankLongTerm":12570,"bestSellingRank":13675,"customerReviewAverage":4.40,"customerReviewCount":48,"image":"https://img.bbystatic.com/BestBuy_US/images/products/4804/4804000_sa.jpg","url":"https://api.bestbuy.com/click/-/4804000/pdp"},{"sku":4954002,"manufacturer":"LG","name":"LG - 60\" Class (59.5\" Diag.) - LED - 2160p - Smart - 4K Ultra HD TV with High Dynamic Range","salesRankShortTerm":16166,"salesRankMediumTerm":16867,"salesRankLongTerm":18115,"bestSellingRank":17863,"customerReviewAverage":4.60,"customerReviewCount":704,"image":"https://img.bbystatic.com/BestBuy_US/images/products/4954/4954002_sa.jpg","url":"https://api.bestbuy.com/click/-/4954002/pdp"}],"facets":{"manufacturer":{"samsung":59,"lg":30,"sony":28,"vizio":9,"hisense":8,"insignia™":8,"sharp":8,"westinghouse":7,"tcl":6,"toshiba":6}}}