{"from":101,"to":150,"currentPage":3,"total":170,"totalPages":4,"queryTime":"0.023","totalTime":"0.155","partial":false,"canonicalUrl":"/v1/products((search=\"Smart\"&search=\"TV*\")&(categoryPath.id=abcat0101000)|(categoryPath.id=abcat0101000&manufacturer=\"Toshiba\"&smartCapable=true))?show=sku,manufacturer,name,salesRankShortTerm,salesRankMediumTerm,salesRankLongTerm,bestSellingRank,customerReviewAverage,customerReviewCount,image,url&sort=salesRankShortTerm,bestSellingRank&pageSize=50&page=3&format=json&facet=manufacturer,10&apiKey=AVMRk1IkGNUlScJLbvgQVFPX","products":[{"sku":5773705,"manufacturer":"Samsung","name":"Samsung - 65\" Class (64.5\" Diag.) - LED - 2160p - Smart - 4K Ultra HD TV with High Dynamic Range","salesRankShortTerm":4565,"salesRankMediumTerm":3701,"salesRankLongTerm":3497,"bestSellingRank":3627,"customerReviewAverage":4.70,"customerReviewCount":110,"image":"https://img.bbystatic.com/BestBuy_US/images/products/5773/5773705_sa.jpg","url":"https://api.bestbuy.com/click/-/5773705/pdp"},{"sku":5773836,"manufacturer":"Samsung","name":"Samsung - 65\" Class (64.5\" Diag.) - LED - 2160p - Smart - 4K Ultra HD TV with High Dynamic Range","salesRankShortTerm":4566,"salesRankMediumTerm":3655,"salesRankLongTerm":3235,"bestSellingRank":3442,"customerReviewAverage":4.70,"customerReviewCount":159,"image":"https://img.bbystatic.com/BestBuy_US/images/products/5773/5773836_sa.jpg","url":"https://api.bestbuy.com/click/-/5773836/pdp"},{"sku":5792905,"manufacturer":"LG","name":"LG - 60\" Class (59.9\" Diag.) - LED - 2160p - Smart - 4K Ultra HD TV with High Dynamic Range","salesRankShortTerm":4578,"salesRankMediumTerm":2581,"salesRankLongTerm":1909,"bestSellingRank":2158,"customerReviewAverage":4.70,"customerReviewCount":23,"image":"https://img.bbystatic.com/BestBuy_US/images/products/5792/5792905_sa.jpg","url":"https://api.bestbuy.com/click/-/5792905/pdp"},{"sku":5792908,"manufacturer":"LG","name":"LG - 55\" Class (54.6\" Diag.) - LED - 2160p - Smart - 4K Ultra HD TV with High Dynamic Range","salesRankShortTerm":4915,"salesRankMediumTerm":3231,"salesRankLongTerm":2891,"bestSellingRank":3092,"customerReviewAverage":4.60,"customerReviewCount":21,"image":"https://img.bbystatic.com/BestBuy_US/images/products/5792/5792908_sa.jpg","url":"https://api.bestbuy.com/click/-/5792908/pdp"},{"sku":5935300,"manufacturer":"LG","name":"LG - 55\" Class (54.6\" Diag.) - OLED - 2160p - Smart - 4K Ultra HD TV with High Dynamic Range","salesRankShortTerm":4928,"salesRankMediumTerm":3223,"salesRankLongTerm":3063,"bestSellingRank":3234,"customerReviewAverage":4.60,"customerReviewCount":24,"image":"https://img.bbystatic.com/BestBuy_US/images/products/5935/5935300_sa.jpg","url":"https://api.bestbuy.com/click/-/5935300/pdp"},{"sku":4882400,"manufacturer":"Toshiba","name":"Toshiba - 55\" Class (54.6\" Diag.) - LED - 2160p - with Chromecast Built-in - 4K Ultra HD TV","salesRankShortTerm":5081,"salesRankMediumTerm":3721,"salesRankLongTerm":3255,"bestSellingRank":3493,"customerReviewAverage":4.30,"customerReviewCount":1135,"image":"https://img.bbystatic.com/BestBuy_US/images/products/4882/4882400_sa.jpg","url":"https://api.bestbuy.com/click/-/4882400/pdp"},{"sku":5712314,"manufacturer":"Hisense","name":"Hisense - 65\" Class (64.5\" Diag.) - LED - 2160p - Smart - 4K Ultra HD TV with High Dynamic Range","salesRankShortTerm":5265,"salesRankMediumTerm":4944,"salesRankLongTerm":4028,"bestSellingRank":4365,"customerReviewAverage":4.60,"customerReviewCount":250,"image":"https://img.bbystatic.com/BestBuy_US/images/products/5712/5712314_sa.jpg","url":"https://api.bestbuy.com/click/-/5712314/pdp"},{"sku":5878700,"manufacturer":"LG","name":"LG - 75\" Class (74.5\" Diag.) - LED - 2160p - Smart - 4K Ultra HD TV","salesRankShortTerm":5288,"salesRankMediumTerm":3531,"salesRankLongTerm":3628,"bestSellingRank":3691,"customerReviewAverage":4.40,"customerReviewCount":17,"image":"https://img.bbystatic.com/BestBuy_US/images/products/5878/5878700_sa.jpg","url":"https://api.bestbuy.com/click/-/5878700/pdp"},{"sku":5844904,"manufacturer":"Samsung","name":"Samsung - 75\" Class (74.5\" Diag.) - LED - 2160p - Smart - 4K Ultra HD TV","salesRankShortTerm":5393,"salesRankMediumTerm":2194,"salesRankLongTerm":1813,"bestSellingRank":2001,"customerReviewAverage":4.70,"customerReviewCount":29,"image":"https://img.bbystatic.com/BestBuy_US/images/products/5844/5844904_sa.jpg","url":"https://api.bestbuy.com/click/-/5844904/pdp"},{"sku":4803800,"manufacturer":"Sony","name":"Sony - 65\" Class (64.5\" Diag.) - LED - 2160p - Smart - 4K Ultra HD TV with High Dynamic Range","salesRankShortTerm":5561,"salesRankMediumTerm":4185,"salesRankLongTerm":4440,"bestSellingRank":4490,"customerReviewAverage":4.70,"customerReviewCount":1467,"image":"https://img.bbystatic.com/BestBuy_US/images/products/4803/4803800_sa.jpg","url":"https://api.bestbuy.com/click/-/4803800/pdp"},{"sku":5410021,"manufacturer":"Samsung","name":"Samsung - 40\" Class (40\" Diag.) - LED - 1080p - Smart - HDTV","salesRankShortTerm":5704,"salesRankMediumTerm":4636,"salesRankLongTerm":4413,"bestSellingRank":4595,"customerReviewAverage":4.60,"customerReviewCount":3502,"image":"https://img.bbystatic.com/BestBuy_US/images/products/5410/5410021_sa.jpg","url":"https://api.bestbuy.com/click/-/5410021/pdp"},{"sku":5754305,"manufacturer":"Samsung","name":"Samsung - 65\" Class (64.5\" Diag.) - LED - 2160p - Smart - 4K Ultra HD TV with High Dynamic Range","salesRankShortTerm":5766,"salesRankMediumTerm":3432,"salesRankLongTerm":3233,"bestSellingRank":3421,"customerReviewAverage":4.70,"customerReviewCount":137,"image":"https://img.bbystatic.com/BestBuy_US/images/products/5754/5754305_sa.jpg","url":"https://api.bestbuy.com/click/-/5754305/pdp"},{"sku":5183803,"manufacturer":"VIZIO","name":"VIZIO - 48\" Class (47.6\" Diag.) - LED - 1080p - Smart - HDTV","salesRankShortTerm":5805,"salesRankMediumTerm":5286,"salesRankLongTerm":4777,"bestSellingRank":5004,"customerReviewAverage":5,"customerReviewCount":1,"image":"https://img.bbystatic.com/BestBuy_US/images/products/5183/5183803_sa.jpg","url":"https://api.bestbuy.com/click/-/5183803/pdp"},{"sku":5714425,"manufacturer":"Sony","name":"Sony - 75\" Class (74.5\" Diag.) - LED - 2160p - Smart - 4K Ultra HD TV with High Dynamic Range","salesRankShortTerm":5938,"salesRankMediumTerm":4908,"salesRankLongTerm":5109,"bestSellingRank":5141,"customerReviewAverage":4.40,"customerReviewCount":54,"image":"https://img.bbystatic.com/BestBuy_US/images/products/5714/5714425_sa.jpg","url":"https://api.bestbuy.com/click/-/5714425/pdp"},{"sku":5714421,"manufacturer":"Sony","name":"Sony - 65\" Class (64.5\" Diag.) - LED - 2160p - Smart - 4K Ultra HD TV with High Dynamic Range","salesRankShortTerm":6112,"salesRankMediumTerm":5411,"salesRankLongTerm":5430,"bestSellingRank":5491,"customerReviewAverage":4.70,"customerReviewCount":131,"image":"https://img.bbystatic.com/BestBuy_US/images/products/5714/5714421_sa.jpg","url":"https://api.bestbuy.com/click/-/5714421/pdp"},{"sku":4807300,"manufacturer":"Toshiba","name":"Toshiba - 55\" Class (54.6\" Diag.) - LED - 1080p - with Chromecast Built-in - HDTV","salesRankShortTerm":6188,"salesRankMediumTerm":6408,"salesRankLongTerm":8265,"bestSellingRank":7603,"customerReviewAverage":4.40,"customerReviewCount":1256,"image":"https://img.bbystatic.com/BestBuy_US/images/products/4807/4807300_sa.jpg","url":"https://api.bestbuy.com/click/-/4807300/pdp"},{"sku":5714432,"manufacturer":"Sony","name":"Sony - 55\" Class (54.6\" Diag.) - LED - 2160p - Smart - 4K Ultra HD TV with High Dynamic Range","salesRankShortTerm":6446,"salesRankMediumTerm":5357,"salesRankLongTerm":5204,"bestSellingRank":5369,"customerReviewAverage":4.90,"customerReviewCount":75,"image":"https://img.bbystatic.com/BestBuy_US/images/products/5714/5714432_sa.jpg","url":"https://api.bestbuy.com/click/-/5714432/pdp"},{"sku":5770951,"manufacturer":"Sony","name":"Sony - 55\" Class (54.6\" Diag.) - OLED - 2160p - Smart - 4K Ultra HD TV with High Dynamic Range","salesRankShortTerm":6450,"salesRankMediumTerm":5645,"salesRankLongTerm":6369,"bestSellingRank":6197,"customerReviewAverage":4.80,"customerReviewCount":47,"image":"https://img.bbystatic.com/BestBuy_US/images/products/5770/5770951_sa.jpg","url":"https://api.bestbuy.com/click/-/5770951/pdp"},{"sku":5758400,"manufacturer":"Samsung","name":"Samsung - 65\" Class (64.5\" Diag.) - LED - 2160p - Smart - 4K Ultra HD TV with High Dynamic Range","salesRankShortTerm":6636,"salesRankMediumTerm":6925,"salesRankLongTerm":6976,"bestSellingRank":6985,"customerReviewAverage":4.70,"customerReviewCount":22,"image":"https://img.bbystatic.com/BestBuy_US/images/products/5758/5758400_sa.jpg","url":"https://api.bestbuy.com/click/-/5758400/pdp"},{"sku":5773804,"manufacturer":"Samsung","name":"Samsung - 65\" Class (64.5\" Diag.) - LED - Curved - 2160p - Smart - 4K Ultra HD TV with High Dynamic Range","salesRankShortTerm":6850,"salesRankMediumTerm":3381,"salesRankLongTerm":3015,"bestSellingRank":3277,"customerReviewAverage":4.90,"customerReviewCount":68,"image":"https://img.bbystatic.com/BestBuy_US/images/products/5773/5773804_sa.jpg","url":"https://api.bestbuy.com/click/-/5773804/pdp"},{"sku":5751203,"manufacturer":"Westinghouse","name":"Westinghouse - 42\" Class (41.5\" Diag.) - LED - 1080p - Smart - HDTV","salesRankShortTerm":6851,"salesRankMediumTerm":6926,"salesRankLongTerm":5295,"bestSellingRank":5794,"customerReviewAverage":4.20,"customerReviewCount":116,"image":"https://img.bbystatic.com/BestBuy_US/images/products/5751/5751203_sa.jpg","url":"https://api.bestbuy.com/click/-/5751203/pdp"},{"sku":4858900,"manufacturer":"VIZIO","name":"VIZIO - 48\" Class (47.6\" Diag.) - LED - 1080p - Smart - HDTV","salesRankShortTerm":7404,"salesRankMediumTerm":6910,"salesRankLongTerm":4817,"bestSellingRank":5444,"customerReviewAverage":4.00,"customerReviewCount":404,"image":"https://img.bbystatic.com/BestBuy_US/images/products/4858/4858900_sa.jpg","url":"https://api.bestbuy.com/click/-/4858900/pdp"},{"sku":4801704,"manufacturer":"Sony","name":"Sony - 49\" Class (48.5\" Diag.) - LED - 2160p - Smart - 4K Ultra HD TV with High Dynamic Range","salesRankShortTerm":7699,"salesRankMediumTerm":6948,"salesRankLongTerm":7386,"bestSellingRank":7358,"customerReviewAverage":4.60,"customerReviewCount":923,"image":"https://img.bbystatic.com/BestBuy_US/images/products/4801/4801704_sa.jpg","url":"https://api.bestbuy.com/click/-/4801704/pdp"},{"sku":5789803,"manufacturer":"Samsung","name":"Samsung - 40\" Class (39.5\" Diag.) - LED - 2160p - Smart - 4K Ultra HD TV with High Dynamic Range","salesRankShortTerm":7867,"salesRankMediumTerm":6321,"salesRankLongTerm":5918,"bestSellingRank":6163,"customerReviewAverage":4.80,"customerReviewCount":61,"image":"https://img.bbystatic.com/BestBuy_US/images/products/5789/5789803_sa.jpg","url":"https://api.bestbuy.com/click/-/5789803/pdp"},{"sku":5777500,"manufacturer":"LG","name":"LG - 55\" Class (54.6\" Diag.) - OLED - 2160p - Smart - 4K Ultra HD TV with High Dynamic Range","salesRankShortTerm":8142,"salesRankMediumTerm":5893,"salesRankLongTerm":7436,"bestSellingRank":7007,"customerReviewAverage":5,"customerReviewCount":7,"image":"https://img.bbystatic.com/BestBuy_US/images/products/5777/5777500_sa.jpg","url":"https://api.bestbuy.com/click/-/5777500/pdp"},{"sku":5773700,"manufacturer":"Samsung","name":"Samsung - 55\" Class (54.6\" Diag.) - LED - 2160p - Smart - 4K Ultra HD TV with High Dynamic Range","salesRankShortTerm":8147,"salesRankMediumTerm":4545,"salesRankLongTerm":4695,"bestSellingRank":4799,"customerReviewAverage":4.80,"customerReviewCount":58,"image":"https://img.bbystatic.com/BestBuy_US/images/products/5773/5773700_sa.jpg","url":"https://api.bestbuy.com/click/-/5773700/pdp"},{"sku":5792800,"manufacturer":"LG","name":"LG - 75\" Class (74.5\" Diag.) - LED - 2160p - Smart - 4K Ultra HD TV with High Dynamic Range","salesRankShortTerm":8151,"salesRankMediumTerm":6979,"salesRankLongTerm":5671,"bestSellingRank":6142,"customerReviewAverage":4.80,"customerReviewCount":49,"image":"https://img.bbystatic.com/BestBuy_US/images/products/5792/5792800_sa.jpg","url":"https://api.bestbuy.com/click/-/5792800/pdp"},{"sku":4673800,"manufacturer":"Insignia™","name":"Insignia™ - 24\" Class (23.6\" Diag.) - LED -720p - Smart - Roku TV","salesRankShortTerm":8285,"salesRankMediumTerm":7475,"salesRankLongTerm":5981,"bestSellingRank":6520,"customerReviewAverage":4.40,"customerReviewCount":1205,"image":"https://img.bbystatic.com/BestBuy_US/images/products/4673/4673800_sa.jpg","url":"https://api.bestbuy.com/click/-/4673800/pdp"},{"sku":4882800,"manufacturer":"Toshiba","name":"Toshiba - 49\" Class (48.5\" Diag.) - LED - 2160p - with Chromecast Built-in - 4K Ultra HD TV","salesRankShortTerm":8609,"salesRankMediumTerm":7148,"salesRankLongTerm":3852,"bestSellingRank":4690,"customerReviewAverage":4.40,"customerReviewCount":1852,"image":"https://img.bbystatic.com/BestBuy_US/images/products/4882/4882800_sa.jpg","url":"https://api.bestbuy.com/click/-/4882800/pdp"},{"sku":5758120,"manufacturer":"Samsung","name":"Samsung - 65\" Class (64.5\" Diag.) - LED - Curved - 2160p - Smart - 4K Ultra HD TV with High Dynamic Range","salesRankShortTerm":8799,"salesRankMediumTerm":6845,"salesRankLongTerm":7099,"bestSellingRank":7159,"customerReviewAverage":4.90,"customerReviewCount":35,"image":"https://img.bbystatic.com/BestBuy_US/images/products/5758/5758120_sa.jpg","url":"https://api.bestbuy.com/click/-/5758120/pdp"},{"sku":5758118,"manufacturer":"Samsung","name":"Samsung - 55\" Class (54.6\" Diag.) - LED - Curved - 2160p - Smart - 4K Ultra HD TV with High Dynamic Range","salesRankShortTerm":9678,"salesRankMediumTerm":8038,"salesRankLongTerm":7879,"bestSellingRank":8069,"customerReviewAverage":4.80,"customerReviewCount":24,"image":"https://img.bbystatic.com/BestBuy_US/images/products/5758/5758118_sa.jpg","url":"https://api.bestbuy.com/click/-/5758118/pdp"},{"sku":5853620,"manufacturer":"LG","name":"LG - 65\" Class (64.5\" Diag.) - LED - 2160p - Smart - 4K Ultra HD TV with High Dynamic Range","salesRankShortTerm":9755,"salesRankMediumTerm":9060,"salesRankLongTerm":9801,"bestSellingRank":9640,"customerReviewAverage":4.60,"customerReviewCount":18,"image":"https://img.bbystatic.com/BestBuy_US/images/products/5853/5853620_sa.jpg","url":"https://api.bestbuy.com/click/-/5853620/pdp"},{"sku":5872100,"manufacturer":"TCL","name":"TCL - 40\" Class (40\" Diag.) - LED - 1080p - Smart - HDTV Roku TV","salesRankShortTerm":9832,"salesRankMediumTerm":13841,"salesRankLongTerm":11754,"bestSellingRank":12082,"customerReviewAverage":null,"customerReviewCount":null,"image":"https://img.bbystatic.com/BestBuy_US/images/products/5872/5872100_sa.jpg","url":"https://api.bestbuy.com/click/-/5872100/pdp"},{"sku":4204506,"manufacturer":"Insignia™","name":"Insignia™ - 55\" Class (54.5\" Diag.) - LED - 2160p - Smart - 4K Ultra HD TV - Roku TV","salesRankShortTerm":9880,"salesRankMediumTerm":9444,"salesRankLongTerm":9458,"bestSellingRank":9567,"customerReviewAverage":4.50,"customerReviewCount":1127,"image":"https://img.bbystatic.com/BestBuy_US/images/products/4204/4204506_sa.jpg","url":"https://api.bestbuy.com/click/-/4204506/pdp"},{"sku":5368202,"manufacturer":"Westinghouse","name":"Westinghouse - 55\" Class (54.6\" Diag.) - LED - 2160p - Smart - 4K Ultra HD TV","salesRankShortTerm":9960,"salesRankMediumTerm":8012,"salesRankLongTerm":7023,"bestSellingRank":7508,"customerReviewAverage":4.10,"customerReviewCount":427,"image":"https://img.bbystatic.com/BestBuy_US/images/products/5368/5368202_sa.jpg","url":"https://api.bestbuy.com/click/-/5368202/pdp"},{"sku":5412152,"manufacturer":"Samsung","name":"Samsung - 60\" Class (60\" Diag.) - LED - 1080p - Smart - HDTV","salesRankShortTerm":9965,"salesRankMediumTerm":7700,"salesRankLongTerm":6572,"bestSellingRank":7027,"customerReviewAverage":4.60,"customerReviewCount":2533,"image":"https://img.bbystatic.com/BestBuy_US/images/products/5412/5412152_sa.jpg","url":"https://api.bestbuy.com/click/-/5412152/pdp"},{"sku":5897520,"manufacturer":"Samsung","name":"Samsung - 55\" Class (54.6\" Diag.) - LED - 2160p - Smart - 4K Ultra HD Frame TV with High Dynamic Range","salesRankShortTerm":10982,"salesRankMediumTerm":11757,"salesRankLongTerm":13329,"bestSellingRank":12743,"customerReviewAverage":4.40,"customerReviewCount":7,"image":"https://img.bbystatic.com/BestBuy_US/images/products/5897/5897520_sa.jpg","url":"https://api.bestbuy.com/click/-/5897520/pdp"},{"sku":4954002,"manufacturer":"LG","name":"LG - 60\" Class (59.5\" Diag.) - LED - 2160p - Smart - 4K Ultra HD TV with High Dynamic Range","salesRankShortTerm":12017,"salesRankMediumTerm":15306,"salesRankLongTerm":17501,"bestSellingRank":16560,"customerReviewAverage":4.60,"customerReviewCount":705,"image":"https://img.bbystatic.com/BestBuy_US/images/products/4954/4954002_sa.jpg","url":"https://api.bestbuy.com/click/-/4954002/pdp"},{"sku":5217300,"manufacturer":"Samsung","name":"Samsung - 55\" Class (54.6\" Diag.) - LED - 2160p - Smart - 4K Ultra HD TV","salesRankShortTerm":12052,"salesRankMediumTerm":10268,"salesRankLongTerm":9464,"bestSellingRank":9852,"customerReviewAverage":4.70,"customerReviewCount":3449,"image":"https://img.bbystatic.com/BestBuy_US/images/products/5217/5217300_sa.jpg","url":"https://api.bestbuy.com/click/-/5217300/pdp"},{"sku":5480900,"manufacturer":"Sony","name":"Sony - 65\" Class (64.5\" Diag.) - LED - 2160p - Smart - 4K Ultra HD TV with High Dynamic Range","salesRankShortTerm":12083,"salesRankMediumTerm":12393,"salesRankLongTerm":13366,"bestSellingRank":13154,"customerReviewAverage":4.90,"customerReviewCount":49,"image":"https://img.bbystatic.com/BestBuy_US/images/products/5480/5480900_sa.jpg","url":"https://api.bestbuy.com/click/-/5480900/pdp"},{"sku":5758300,"manufacturer":"Samsung","name":"Samsung - 75\" Class (74.5\" Diag.) - LED - Curved - 2160p - Smart - 4K Ultra HD TV with High Dynamic Range","salesRankShortTerm":12478,"salesRankMediumTerm":11898,"salesRankLongTerm":11453,"bestSellingRank":11678,"customerReviewAverage":4.20,"customerReviewCount":13,"image":"https://img.bbystatic.com/BestBuy_US/images/products/5758/5758300_sa.jpg","url":"https://api.bestbuy.com/click/-/5758300/pdp"},{"sku":5872101,"manufacturer":"TCL","name":"TCL - 43\" Class (43\" Diag.) - LED - 1080p - Smart - HDTV Roku TV","salesRankShortTerm":13763,"salesRankMediumTerm":16556,"salesRankLongTerm":15806,"bestSellingRank":15892,"customerReviewAverage":5,"customerReviewCount":1,"image":"https://img.bbystatic.com/BestBuy_US/images/products/5872/5872101_sa.jpg","url":"https://api.bestbuy.com/click/-/5872101/pdp"},{"sku":4804000,"manufacturer":"Sony","name":"Sony - 85\" Class (84.5\" diag) - LED - 2160p - Smart - 4K Ultra HDTV with High Dynamic Range","salesRankShortTerm":14161,"salesRankMediumTerm":13579,"salesRankLongTerm":13063,"bestSellingRank":13416,"customerReviewAverage":4.40,"customerReviewCount":48,"image":"https://img.bbystatic.com/BestBuy_US/images/products/4804/4804000_sa.jpg","url":"https://api.bestbuy.com/click/-/4804000/pdp"},{"sku":5481000,"manufacturer":"Sony","name":"Sony - 75\" Class (74.5\" Diag.) - LED - 2160p - Smart - 4K Ultra HD TV with High Dynamic Range","salesRankShortTerm":14273,"salesRankMediumTerm":13919,"salesRankLongTerm":17516,"bestSellingRank":16316,"customerReviewAverage":4.80,"customerReviewCount":45,"image":"https://img.bbystatic.com/BestBuy_US/images/products/5481/5481000_sa.jpg","url":"https://api.bestbuy.com/click/-/5481000/pdp"},{"sku":5774700,"manufacturer":"Samsung","name":"Samsung - 75\" Class (74.5\" Diag.) - LED - 2160p - Smart - 4K Ultra HD TV with High Dynamic Range","salesRankShortTerm":15321,"salesRankMediumTerm":19564,"salesRankLongTerm":19037,"bestSellingRank":18833,"customerReviewAverage":5,"customerReviewCount":2,"image":"https://img.bbystatic.com/BestBuy_US/images/products/5774/5774700_sa.jpg","url":"https://api.bestbuy.com/click/-/5774700/pdp"},{"sku":5773907,"manufacturer":"LG","name":"LG - 65\" Class (64.5\" Diag.) - OLED - 2160p - Smart - 4K Ultra HD TV with High Dynamic Range","salesRankShortTerm":16867,"salesRankMediumTerm":12502,"salesRankLongTerm":13306,"bestSellingRank":13317,"customerReviewAverage":4.80,"customerReviewCount":8,"image":"https://img.bbystatic.com/BestBuy_US/images/products/5773/5773907_sa.jpg","url":"https://api.bestbuy.com/click/-/5773907/pdp"},{"sku":5762005,"manufacturer":"Samsung","name":"Samsung - 75\" Class (74.5\" Diag.) - LED - 2160p - Smart - 4K Ultra HD TV with High Dynamic Range","salesRankShortTerm":17052,"salesRankMediumTerm":10720,"salesRankLongTerm":8952,"bestSellingRank":9638,"customerReviewAverage":4.90,"customerReviewCount":9,"image":"https://img.bbystatic.com/BestBuy_US/images/products/5762/5762005_sa.jpg","url":"https://api.bestbuy.com/click/-/5762005/pdp"},{"sku":5859436,"manufacturer":"LG","name":"LG - 55\" Class (54.6\" Diag.) - LED - 2160p - Smart - 4K Ultra HD TV","salesRankShortTerm":17251,"salesRankMediumTerm":20636,"salesRankLongTerm":20391,"bestSellingRank":20280,"customerReviewAverage":4.80,"customerReviewCount":23,"image":"https://img.bbystatic.com/BestBuy_US/images/products/5859/5859436_sa.jpg","url":"https://api.bestbuy.com/click/-/5859436/pdp"},{"sku":5897521,"manufacturer":"Samsung","name":"Samsung - 65\" Class (64.5\" Diag.) - LED - 2160p - Smart - 4K Ultra HD Frame TV with High Dynamic Range","salesRankShortTerm":17404,"salesRankMediumTerm":16558,"salesRankLongTerm":16164,"bestSellingRank":16379,"customerReviewAverage":3,"customerReviewCount":2,"image":"https://img.bbystatic.com/BestBuy_US/images/products/5897/5897521_sa.jpg","url":"https://api.bestbuy.com/click/-/5897521/pdp"},{"sku":5170201,"manufacturer":"VIZIO","name":"VIZIO - 43\" Class (43\" Diag.) - LED - 1080p - Smart - HDTV","salesRankShortTerm":17467,"salesRankMediumTerm":16079,"salesRankLongTerm":13432,"bestSellingRank":14217,"customerReviewAverage":4.60,"customerReviewCount":96,"image":"https://img.bbystatic.com/BestBuy_US/images/products/5170/5170201_sa.jpg","url":"https://api.bestbuy.com/click/-/5170201/pdp"}],"facets":{"manufacturer":{"samsung":59,"lg":31,"sony":28,"vizio":9,"hisense":8,"insignia™":8,"sharp":8,"westinghouse":7,"tcl":6,"toshiba":6}}}