{"from":151,"to":170,"currentPage":4,"total":170,"totalPages":4,"queryTime":"0.026","totalTime":"0.126","partial":false,"canonicalUrl":"/v1/products((search=\"Smart\"&search=\"TV*\")&(categoryPath.id=abcat0101000)|(categoryPath.id=abcat0101000&manufacturer=\"Toshiba\"&smartCapable=true))?show=sku,manufacturer,name,salesRankShortTerm,salesRankMediumTerm,salesRankLongTerm,bestSellingRank,customerReviewAverage,customerReviewCount,image,url&sort=salesRankShortTerm,bestSellingRank&pageSize=50&page=4&format=json&facet=manufacturer,10&apiKey=AVMRk1IkGNUlScJLbvgQVFPX","products":[{"sku":5295720,"manufacturer":"VIZIO","name":"VIZIO - 40\" Class (40\" Diag.) - LED - 1080p - Smart - HDTV","salesRankShortTerm":17606,"salesRankMediumTerm":14821,"salesRankLongTerm":18193,"bestSellingRank":17097,"customerReviewAverage":null,"customerReviewCount":null,"image":"https://img.bbystatic.com/BestBuy_US/images/products/5295/5295720_sa.jpg","url":"https://api.bestbuy.com/click/-/5295720/pdp"},{"sku":4801802,"manufacturer":"Sony","name":"Sony - 49\" Class (48.5\" Diag.) - LED - 2160p - Smart - 4K Ultra HD TV with High Dynamic Range","salesRankShortTerm":18699,"salesRankMediumTerm":17399,"salesRankLongTerm":17497,"bestSellingRank":17747,"customerReviewAverage":4.70,"customerReviewCount":1183,"image":"https://img.bbystatic.com/BestBuy_US/images/products/4801/4801802_sa.jpg","url":"https://api.bestbuy.com/click/-/4801802/pdp"},{"sku":5029400,"manufacturer":"LG","name":"LG - 55\" Class (54.6\" Diag.) - LED - 2160p - Smart - 4K Ultra HD TV","salesRankShortTerm":18792,"salesRankMediumTerm":13900,"salesRankLongTerm":14616,"bestSellingRank":14765,"customerReviewAverage":4.60,"customerReviewCount":1570,"image":"https://img.bbystatic.com/BestBuy_US/images/products/5029/5029400_sa.jpg","url":"https://api.bestbuy.com/click/-/5029400/pdp"},{"sku":5146801,"manufacturer":"Samsung","name":"Samsung - 55\" Class (54.6\" Diag.) - LED - 2160p - Smart - 4K Ultra HD TV with High Dynamic Range","salesRankShortTerm":18829,"salesRankMediumTerm":18989,"salesRankLongTerm":20181,"bestSellingRank":20137,"customerReviewAverage":4.60,"customerReviewCount":774,"image":"https://img.bbystatic.com/BestBuy_US/images/products/5146/5146801_sa.jpg","url":"https://api.bestbuy.com/click/-/5146801/pdp"},{"sku":5846700,"manufacturer":"TCL","name":"TCL - 32\" Class (31.5\" Diag.) - LED - 720p - Smart - HDTV Roku TV","salesRankShortTerm":21730,"salesRankMediumTerm":17114,"salesRankLongTerm":13521,"bestSellingRank":14547,"customerReviewAverage":4,"customerReviewCount":1,"image":"https://img.bbystatic.com/BestBuy_US/images/products/5846/5846700_sa.jpg","url":"https://api.bestbuy.com/click/-/5846700/pdp"},{"sku":5786407,"manufacturer":"Samsung","name":"Samsung - 55\" Class (54.5\" Diag.) - LED - Curved - 2160p - Smart - 4K Ultra HD TV with High Dynamic Range","salesRankShortTerm":22588,"salesRankMediumTerm":18662,"salesRankLongTerm":18190,"bestSellingRank":18438,"customerReviewAverage":4.70,"customerReviewCount":7,"image":"https://img.bbystatic.com/BestBuy_US/images/products/5786/5786407_sa.jpg","url":"https://api.bestbuy.com/click/-/5786407/pdp"},{"sku":5102704,"manufacturer":"VIZIO","name":"VIZIO - 50\" Class (49.5\" Diag.) - LED - 1080p - Smart - HDTV","salesRankShortTerm":22724,"salesRankMediumTerm":18675,"salesRankLongTerm":18198,"bestSellingRank":18446,"customerReviewAverage":null,"customerReviewCount":null,"image":"https://img.bbystatic.com/BestBuy_US/images/products/5102/5102704_sa.jpg","url":"https://api.bestbuy.com/click/-/5102704/pdp"},{"sku":5145600,"manufacturer":"Samsung","name":"Samsung - 75\" Class - (74.5\" Diag.) - LED - 2160p - Smart - 4K Ultra HD TV with High Dynamic Range","salesRankShortTerm":23828,"salesRankMediumTerm":36008,"salesRankLongTerm":31220,"bestSellingRank":29785,"customerReviewAverage":4.60,"customerReviewCount":40,"image":"https://img.bbystatic.com/BestBuy_US/images/products/5145/5145600_sa.jpg","url":"https://api.bestbuy.com/click/-/5145600/pdp"},{"sku":5997253,"manufacturer":"Hisense","name":"Hisense - 50\" Class (50\" Diag.) - LED - 1080p - Smart - HDTV Roku TV","salesRankShortTerm":24682,"salesRankMediumTerm":17325,"salesRankLongTerm":20980,"bestSellingRank":19848,"customerReviewAverage":null,"customerReviewCount":null,"image":"https://img.bbystatic.com/BestBuy_US/images/products/5997/5997253_sa.jpg","url":"https://api.bestbuy.com/click/-/5997253/pdp"},{"sku":5871013,"manufacturer":"Samsung","name":"Samsung - 40\" Class (39.5\" Diag.) - LED - 1080p - Smart - HDTV","salesRankShortTerm":24921,"salesRankMediumTerm":27009,"salesRankLongTerm":54990,"bestSellingRank":34753,"customerReviewAverage":null,"customerReviewCount":null,"image":"https://img.bbystatic.com/BestBuy_US/images/products/5871/5871013_sa.jpg","url":"https://api.bestbuy.com/click/-/5871013/pdp"},{"sku":5786402,"manufacturer":"Samsung","name":"Samsung - 65\" Class (64.5\" Diag.) - LED - Curved - 2160p - Smart - 4K Ultra HD TV with High Dynamic Range","salesRankShortTerm":null,"salesRankMediumTerm":17025,"salesRankLongTerm":18626,"bestSellingRank":18593,"customerReviewAverage":4.60,"customerReviewCount":10,"image":"https://img.bbystatic.com/BestBuy_US/images/products/5786/5786402_sa.jpg","url":"https://api.bestbuy.com/click/-/5786402/pdp"},{"sku":9502297,"manufacturer":"Westinghouse","name":"Westinghouse - 55\" Class (54.6\" Diag.) - LED - 2160p - Smart - 4K Ultra HD TV","salesRankShortTerm":null,"salesRankMediumTerm":24459,"salesRankLongTerm":19913,"bestSellingRank":21119,"customerReviewAverage":3.80,"customerReviewCount":127,"image":"https://img.bbystatic.com/BestBuy_US/images/products/9502/9502297_sa.jpg","url":"https://api.bestbuy.com/click/-/9502297/pdp"},{"sku":5034500,"manufacturer":"Samsung","name":"Samsung - 65\" Class (64.5\" Diag.) - LED - Curved - 2160p - Smart - 4K Ultra HD TV - with High Dynamic Range","salesRankShortTerm":null,"salesRankMediumTerm":19778,"salesRankLongTerm":29027,"bestSellingRank":25364,"customerReviewAverage":4.80,"customerReviewCount":523,"image":"https://img.bbystatic.com/BestBuy_US/images/products/5034/5034500_sa.jpg","url":"https://api.bestbuy.com/click/-/5034500/pdp"},{"sku":5913702,"manufacturer":"LG","name":"LG - 77\" Class (76.7\" Diag.) - OLED - 2160p - Smart - 4K Ultra HD TV with High Dynamic Range","salesRankShortTerm":null,"salesRankMediumTerm":26593,"salesRankLongTerm":40502,"bestSellingRank":34514,"customerReviewAverage":1,"customerReviewCount":1,"image":"https://img.bbystatic.com/BestBuy_US/images/products/5913/5913702_sa.jpg","url":"https://api.bestbuy.com/click/-/5913702/pdp"},{"sku":5770942,"manufacturer":"Sony","name":"Sony - 77\" Class (76.7\" Diag.) - OLED - 2160p - Smart - 4K Ultra HD TV with High Dynamic Range","salesRankShortTerm":null,"salesRankMediumTerm":36323,"salesRankLongTerm":39877,"bestSellingRank":38017,"customerReviewAverage":5,"customerReviewCount":1,"image":"https://img.bbystatic.com/BestBuy_US/images/products/5770/5770942_sa.jpg","url":"https://api.bestbuy.com/click/-/5770942/pdp"},{"sku":5336000,"manufacturer":"Samsung","name":"Samsung - 88\" Class (88\" Diag.) - Curved -  2160p - Smart - 4K Ultra HD TV with High Dynamic Range","salesRankShortTerm":null,"salesRankMediumTerm":33261,"salesRankLongTerm":48438,"bestSellingRank":42101,"customerReviewAverage":5,"customerReviewCount":1,"image":"https://img.bbystatic.com/BestBuy_US/images/products/5336/5336000_sa.jpg","url":"https://api.bestbuy.com/click/-/5336000/pdp"},{"sku":5762018,"manufacturer":"Samsung","name":"Samsung - 88\" Class (88\" Diag.) - LED - 2160p Smart - 4K Ultra HD TV with High Dynamic Range","salesRankShortTerm":null,"salesRankMediumTerm":36093,"salesRankLongTerm":51911,"bestSellingRank":43846,"customerReviewAverage":null,"customerReviewCount":null,"image":"https://img.bbystatic.com/BestBuy_US/images/products/5762/5762018_sa.jpg","url":"https://api.bestbuy.com/click/-/5762018/pdp"},{"sku":5710461,"manufacturer":"LG","name":"LG - 65\" Class (64.5 Diag.) - Wallpaper OLED - 2160p - Smart - 4K Ultra HD TV - with High Dynamic Range","salesRankShortTerm":null,"salesRankMediumTerm":38211,"salesRankLongTerm":117654,"bestSellingRank":59312,"customerReviewAverage":3.20,"customerReviewCount":5,"image":"https://img.bbystatic.com/BestBuy_US/images/products/5710/5710461_sa.jpg","url":"https://api.bestbuy.com/click/-/5710461/pdp"},{"sku":5833900,"manufacturer":"LG","name":"LG - 77\" Class (76.7 Diag.) - Wallpaper OLED - 2160p - Smart - 4K Ultra HD TV - with High Dynamic Range","salesRankShortTerm":null,"salesRankMediumTerm":38260,"salesRankLongTerm":117703,"bestSellingRank":59360,"customerReviewAverage":3,"customerReviewCount":2,"image":"https://img.bbystatic.com/BestBuy_US/images/products/5833/5833900_sa.jpg","url":"https://api.bestbuy.com/click/-/5833900/pdp"},{"sku":5481100,"manufacturer":"Sony","name":"Sony - 100\" Class (99.5\" Diag.) - LED - 2160p - Smart - 3D - 4K Ultra HD TV with High Dynamic Range","salesRankShortTerm":null,"salesRankMediumTerm":null,"salesRankLongTerm":58340,"bestSellingRank":64128,"customerReviewAverage":4.30,"customerReviewCount":3,"image":"https://img.bbystatic.com/BestBuy_US/images/products/5481/5481100_sa.jpg","url":"https://api.bestbuy.com/click/-/5481100/pdp"}],"facets":{"manufacturer":{"samsung":59,"lg":31,"sony":28,"vizio":9,"hisense":8,"insignia™":8,"sharp":8,"westinghouse":7,"tcl":6,"toshiba":6}}}