{"from":1,"to":50,"currentPage":1,"total":169,"totalPages":4,"queryTime":"0.653","totalTime":"0.795","partial":false,"canonicalUrl":"/v1/products((search=\"Smart\"&search=\"TV*\")&(categoryPath.id=abcat0101000)|(categoryPath.id=abcat0101000&manufacturer=\"Toshiba\"&smartCapable=true))?show=sku,manufacturer,name,salesRankShortTerm,salesRankMediumTerm,salesRankLongTerm,bestSellingRank,customerReviewAverage,customerReviewCount,image,url&sort=salesRankShortTerm,bestSellingRank&pageSize=50&format=json&facet=manufacturer,10&apiKey=AVMRk1IkGNUlScJLbvgQVFPX","products":[{"sku":4822001,"manufacturer":"Insignia™","name":"Insignia™ - 32\" Class (31.5\" Diag.) - LED - 720p - Smart - Roku TV","salesRankShortTerm":85,"salesRankMediumTerm":90,"salesRankLongTerm":116,"bestSellingRank":104,"customerReviewAverage":4.50,"customerReviewCount":4787,"image":"https://img.bbystatic.com/BestBuy_US/images/products/4822/4822001_sa.jpg","url":"https://api.bestbuy.com/click/-/4822001/pdp"},{"sku":4863301,"manufacturer":"Sharp","name":"Sharp - 43\" Class (42.5\" Diag.) - LED - 1080p - Smart - HDTV - Roku TV","salesRankShortTerm":87,"salesRankMediumTerm":111,"salesRankLongTerm":173,"bestSellingRank":142,"customerReviewAverage":4.50,"customerReviewCount":2536,"image":"https://img.bbystatic.com/BestBuy_US/images/products/4863/4863301_sa.jpg","url":"https://api.bestbuy.com/click/-/4863301/pdp"},{"sku":5733203,"manufacturer":"Toshiba","name":"Toshiba - 55\" Class (54.6\" Diag.) - LED - 2160p - with Chromecast Built-in - 4K Ultra HD TV","salesRankShortTerm":170,"salesRankMediumTerm":232,"salesRankLongTerm":319,"bestSellingRank":271,"customerReviewAverage":4.40,"customerReviewCount":14,"image":"https://img.bbystatic.com/BestBuy_US/images/products/5733/5733203_sa.jpg","url":"https://api.bestbuy.com/click/-/5733203/pdp"},{"sku":5803100,"manufacturer":"LG","name":"LG - 49\" Class (48.5\" Diag.) - LED - 1080p - Smart - HDTV","salesRankShortTerm":221,"salesRankMediumTerm":182,"salesRankLongTerm":233,"bestSellingRank":210,"customerReviewAverage":4.60,"customerReviewCount":171,"image":"https://img.bbystatic.com/BestBuy_US/images/products/5803/5803100_sa.jpg","url":"https://api.bestbuy.com/click/-/5803100/pdp"},{"sku":5878703,"manufacturer":"TCL","name":"TCL - 55\" Class (54.6\" Diag.) - LED - 2160p - Smart - 4K Ultra HD TV Roku TV","salesRankShortTerm":237,"salesRankMediumTerm":333,"salesRankLongTerm":315,"bestSellingRank":313,"customerReviewAverage":4.50,"customerReviewCount":36,"image":"https://img.bbystatic.com/BestBuy_US/images/products/5878/5878703_sa.jpg","url":"https://api.bestbuy.com/click/-/5878703/pdp"},{"sku":5762002,"manufacturer":"Samsung","name":"Samsung - 50\" Class (49.5\" Diag.) - LED - 2160p - Smart - 4K Ultra HD TV","salesRankShortTerm":249,"salesRankMediumTerm":285,"salesRankLongTerm":342,"bestSellingRank":314,"customerReviewAverage":4.70,"customerReviewCount":324,"image":"https://img.bbystatic.com/BestBuy_US/images/products/5762/5762002_sa.jpg","url":"https://api.bestbuy.com/click/-/5762002/pdp"},{"sku":4863802,"manufacturer":"Insignia™","name":"Insignia™ - 39\" Class (38.5\" Diag.) - LED - 1080p - Smart - HDTV Roku TV","salesRankShortTerm":289,"salesRankMediumTerm":179,"salesRankLongTerm":171,"bestSellingRank":185,"customerReviewAverage":4.50,"customerReviewCount":4430,"image":"https://img.bbystatic.com/BestBuy_US/images/products/4863/4863802_sa.jpg","url":"https://api.bestbuy.com/click/-/4863802/pdp"},{"sku":5754304,"manufacturer":"Samsung","name":"Samsung - 55\" Class (54.6\" Diag.) - LED - 2160p - Smart - 4K Ultra HD TV","salesRankShortTerm":297,"salesRankMediumTerm":185,"salesRankLongTerm":227,"bestSellingRank":216,"customerReviewAverage":4.70,"customerReviewCount":312,"image":"https://img.bbystatic.com/BestBuy_US/images/products/5754/5754304_sa.jpg","url":"https://api.bestbuy.com/click/-/5754304/pdp"},{"sku":5894900,"manufacturer":"Samsung","name":"Samsung - 58\" Class (57.5\" Diag.) - LED - 2160p - Smart - 4K Ultra HD TV","salesRankShortTerm":301,"salesRankMediumTerm":243,"salesRankLongTerm":223,"bestSellingRank":247,"customerReviewAverage":4.40,"customerReviewCount":77,"image":"https://img.bbystatic.com/BestBuy_US/images/products/5894/5894900_sa.jpg","url":"https://api.bestbuy.com/click/-/5894900/pdp"},{"sku":5803102,"manufacturer":"LG","name":"LG - 43\" Class (42.5\" Diag.) - LED - 1080p - Smart - HDTV","salesRankShortTerm":316,"salesRankMediumTerm":213,"salesRankLongTerm":243,"bestSellingRank":243,"customerReviewAverage":4.60,"customerReviewCount":258,"image":"https://img.bbystatic.com/BestBuy_US/images/products/5803/5803102_sa.jpg","url":"https://api.bestbuy.com/click/-/5803102/pdp"},{"sku":5768501,"manufacturer":"Samsung","name":"Samsung - 43\" Class (42.5\" Diag.) - LED - 2160p - Smart - 4K Ultra HD TV","salesRankShortTerm":373,"salesRankMediumTerm":312,"salesRankLongTerm":369,"bestSellingRank":348,"customerReviewAverage":4.70,"customerReviewCount":194,"image":"https://img.bbystatic.com/BestBuy_US/images/products/5768/5768501_sa.jpg","url":"https://api.bestbuy.com/click/-/5768501/pdp"},{"sku":4380083,"manufacturer":"Samsung","name":"Samsung - 32\" Class (31.5\" Diag.) - LED - 1080p - Smart - HDTV","salesRankShortTerm":406,"salesRankMediumTerm":337,"salesRankLongTerm":412,"bestSellingRank":378,"customerReviewAverage":4.70,"customerReviewCount":5408,"image":"https://img.bbystatic.com/BestBuy_US/images/products/4380/4380083_sa.jpg","url":"https://api.bestbuy.com/click/-/4380083/pdp"},{"sku":5792910,"manufacturer":"LG","name":"LG - 55\" Class (54.6\" Diag.) - LED - 2160p - Smart - 4K Ultra HD TV","salesRankShortTerm":420,"salesRankMediumTerm":272,"salesRankLongTerm":324,"bestSellingRank":304,"customerReviewAverage":4.50,"customerReviewCount":107,"image":"https://img.bbystatic.com/BestBuy_US/images/products/5792/5792910_sa.jpg","url":"https://api.bestbuy.com/click/-/5792910/pdp"},{"sku":5866700,"manufacturer":"Hisense","name":"Hisense - 50\" Class (49.5\" Diag.) - LED - 2160p - Smart - 4K Ultra HD TV","salesRankShortTerm":467,"salesRankMediumTerm":479,"salesRankLongTerm":580,"bestSellingRank":534,"customerReviewAverage":4.40,"customerReviewCount":71,"image":"https://img.bbystatic.com/BestBuy_US/images/products/5866/5866700_sa.jpg","url":"https://api.bestbuy.com/click/-/5866700/pdp"},{"sku":5865001,"manufacturer":"LG","name":"LG - 49\" Class (48.5\" Diag.) - LED - 2160p - Smart - 4K Ultra HD TV","salesRankShortTerm":486,"salesRankMediumTerm":310,"salesRankLongTerm":401,"bestSellingRank":361,"customerReviewAverage":4.50,"customerReviewCount":52,"image":"https://img.bbystatic.com/BestBuy_US/images/products/5865/5865001_sa.jpg","url":"https://api.bestbuy.com/click/-/5865001/pdp"},{"sku":4904501,"manufacturer":"VIZIO","name":"VIZIO - 32\" Class - (31.51\" Diag.) - LED - 1080p - Smart - HDTV","salesRankShortTerm":492,"salesRankMediumTerm":345,"salesRankLongTerm":310,"bestSellingRank":325,"customerReviewAverage":4.60,"customerReviewCount":667,"image":"https://img.bbystatic.com/BestBuy_US/images/products/4904/4904501_sa.jpg","url":"https://api.bestbuy.com/click/-/4904501/pdp"},{"sku":5763401,"manufacturer":"LG","name":"LG - 43\" Class (43\" Diag.) - LED - 2160p - Smart - 4K Ultra HD TV","salesRankShortTerm":495,"salesRankMediumTerm":331,"salesRankLongTerm":410,"bestSellingRank":381,"customerReviewAverage":4.50,"customerReviewCount":398,"image":"https://img.bbystatic.com/BestBuy_US/images/products/5763/5763401_sa.jpg","url":"https://api.bestbuy.com/click/-/5763401/pdp"},{"sku":5773800,"manufacturer":"Samsung","name":"Samsung - 65\" Class (64.5\" Diag.) - LED - 2160p - Smart - 4K Ultra HD TV with High Dynamic Range","salesRankShortTerm":505,"salesRankMediumTerm":298,"salesRankLongTerm":344,"bestSellingRank":333,"customerReviewAverage":4.70,"customerReviewCount":626,"image":"https://img.bbystatic.com/BestBuy_US/images/products/5773/5773800_sa.jpg","url":"https://api.bestbuy.com/click/-/5773800/pdp"},{"sku":5634400,"manufacturer":"Westinghouse","name":"Westinghouse - 24\" Class (23.6\" Diag.) - LED - 720p - Smart - HDTV","salesRankShortTerm":523,"salesRankMediumTerm":422,"salesRankLongTerm":446,"bestSellingRank":434,"customerReviewAverage":4.20,"customerReviewCount":294,"image":"https://img.bbystatic.com/BestBuy_US/images/products/5634/5634400_sa.jpg","url":"https://api.bestbuy.com/click/-/5634400/pdp"},{"sku":5748207,"manufacturer":"Sony","name":"Sony - 65\" Class (64.5\" Diag.) - LED - 2160p - Smart - 4K Ultra HD TV with High Dynamic Range","salesRankShortTerm":529,"salesRankMediumTerm":263,"salesRankLongTerm":318,"bestSellingRank":301,"customerReviewAverage":4.80,"customerReviewCount":813,"image":"https://img.bbystatic.com/BestBuy_US/images/products/5748/5748207_sa.jpg","url":"https://api.bestbuy.com/click/-/5748207/pdp"},{"sku":5748209,"manufacturer":"Sony","name":"Sony - 55\" Class (54.6\" Diag.) - LED - 2160p - Smart - 4K Ultra HD TV with High Dynamic Range","salesRankShortTerm":548,"salesRankMediumTerm":379,"salesRankLongTerm":506,"bestSellingRank":452,"customerReviewAverage":4.70,"customerReviewCount":513,"image":"https://img.bbystatic.com/BestBuy_US/images/products/5748/5748209_sa.jpg","url":"https://api.bestbuy.com/click/-/5748209/pdp"},{"sku":5930900,"manufacturer":"LG","name":"LG - 60\" Class (59.9\" Diag.) - LED - 2160p - Smart - 4K Ultra HD TV","salesRankShortTerm":582,"salesRankMediumTerm":948,"salesRankLongTerm":1316,"bestSellingRank":1095,"customerReviewAverage":4.50,"customerReviewCount":57,"image":"https://img.bbystatic.com/BestBuy_US/images/products/5930/5930900_sa.jpg","url":"https://api.bestbuy.com/click/-/5930900/pdp"},{"sku":4863102,"manufacturer":"Sharp","name":"Sharp - 50\" Class (49.5\" Diag.) - LED - 1080p - Smart - HDTV Roku TV","salesRankShortTerm":611,"salesRankMediumTerm":578,"salesRankLongTerm":415,"bestSellingRank":478,"customerReviewAverage":4.60,"customerReviewCount":2980,"image":"https://img.bbystatic.com/BestBuy_US/images/products/4863/4863102_sa.jpg","url":"https://api.bestbuy.com/click/-/4863102/pdp"},{"sku":5748208,"manufacturer":"Sony","name":"Sony - 55\" Class (54.6\" Diag.) - LED - 2160p - Smart - 4K Ultra HD TV with High Dynamic Range","salesRankShortTerm":655,"salesRankMediumTerm":327,"salesRankLongTerm":419,"bestSellingRank":385,"customerReviewAverage":4.80,"customerReviewCount":241,"image":"https://img.bbystatic.com/BestBuy_US/images/products/5748/5748208_sa.jpg","url":"https://api.bestbuy.com/click/-/5748208/pdp"},{"sku":5768401,"manufacturer":"Samsung","name":"Samsung - 40\" Class (39.5\" Diag.) - LED - 2160p - Smart - 4K Ultra HD TV","salesRankShortTerm":664,"salesRankMediumTerm":553,"salesRankLongTerm":560,"bestSellingRank":562,"customerReviewAverage":4.70,"customerReviewCount":549,"image":"https://img.bbystatic.com/BestBuy_US/images/products/5768/5768401_sa.jpg","url":"https://api.bestbuy.com/click/-/5768401/pdp"},{"sku":5746700,"manufacturer":"Sharp","name":"Sharp - 32\" Class (31.5\" Diag.) - LED - 720p - Smart - HDTV Roku TV","salesRankShortTerm":682,"salesRankMediumTerm":461,"salesRankLongTerm":418,"bestSellingRank":439,"customerReviewAverage":4.30,"customerReviewCount":58,"image":"https://img.bbystatic.com/BestBuy_US/images/products/5746/5746700_sa.jpg","url":"https://api.bestbuy.com/click/-/5746700/pdp"},{"sku":5733205,"manufacturer":"Toshiba","name":"Toshiba - 43\" Class (42.5\" Diag.) - LED - 1080p - with Chromecast Built-in - HDTV","salesRankShortTerm":700,"salesRankMediumTerm":292,"salesRankLongTerm":185,"bestSellingRank":242,"customerReviewAverage":4.70,"customerReviewCount":23,"image":"https://img.bbystatic.com/BestBuy_US/images/products/5733/5733205_sa.jpg","url":"https://api.bestbuy.com/click/-/5733205/pdp"},{"sku":5679628,"manufacturer":"Insignia™","name":"Insignia™ - 55\" Class (54.5\" Diag.) - LED - 2160p - Smart - 4K Ultra HD TV Roku TV","salesRankShortTerm":750,"salesRankMediumTerm":509,"salesRankLongTerm":546,"bestSellingRank":547,"customerReviewAverage":4.70,"customerReviewCount":82,"image":"https://img.bbystatic.com/BestBuy_US/images/products/5679/5679628_sa.jpg","url":"https://api.bestbuy.com/click/-/5679628/pdp"},{"sku":5684501,"manufacturer":"Insignia™","name":"Insignia™ - 50\" Class (49.5\" Diag.) - LED - 2160p - Smart - 4K Ultra HD TV Roku TV","salesRankShortTerm":761,"salesRankMediumTerm":266,"salesRankLongTerm":267,"bestSellingRank":277,"customerReviewAverage":4.40,"customerReviewCount":188,"image":"https://img.bbystatic.com/BestBuy_US/images/products/5684/5684501_sa.jpg","url":"https://api.bestbuy.com/click/-/5684501/pdp"},{"sku":5754805,"manufacturer":"Samsung","name":"Samsung - 55\" Class (54.6\" Diag.) - LED - 2160p - Smart - 4K Ultra HD TV with High Dynamic Range","salesRankShortTerm":784,"salesRankMediumTerm":498,"salesRankLongTerm":564,"bestSellingRank":551,"customerReviewAverage":4.70,"customerReviewCount":283,"image":"https://img.bbystatic.com/BestBuy_US/images/products/5754/5754805_sa.jpg","url":"https://api.bestbuy.com/click/-/5754805/pdp"},{"sku":5768700,"manufacturer":"Samsung","name":"Samsung - 49\" Class (48.5\" Diag.) - LED - 2160p - Smart - 4K Ultra HD TV with High Dynamic Range","salesRankShortTerm":835,"salesRankMediumTerm":539,"salesRankLongTerm":604,"bestSellingRank":593,"customerReviewAverage":4.60,"customerReviewCount":119,"image":"https://img.bbystatic.com/BestBuy_US/images/products/5768/5768700_sa.jpg","url":"https://api.bestbuy.com/click/-/5768700/pdp"},{"sku":5746801,"manufacturer":"Sharp","name":"Sharp - 43\" Class (42.5\" Diag.) - LED - 2160p - Smart - 4K Ultra HD TV Roku TV","salesRankShortTerm":842,"salesRankMediumTerm":567,"salesRankLongTerm":688,"bestSellingRank":643,"customerReviewAverage":4.70,"customerReviewCount":7,"image":"https://img.bbystatic.com/BestBuy_US/images/products/5746/5746801_sa.jpg","url":"https://api.bestbuy.com/click/-/5746801/pdp"},{"sku":5746805,"manufacturer":"Sharp","name":"Sharp - 50\" Class (49.5\" Diag.) - LED - 2160p - Smart - 4K Ultra HD TV Roku TV","salesRankShortTerm":914,"salesRankMediumTerm":647,"salesRankLongTerm":762,"bestSellingRank":722,"customerReviewAverage":5,"customerReviewCount":3,"image":"https://img.bbystatic.com/BestBuy_US/images/products/5746/5746805_sa.jpg","url":"https://api.bestbuy.com/click/-/5746805/pdp"},{"sku":5748203,"manufacturer":"Sony","name":"Sony - 75\" Class (74.5\" Diag.) - LED - 2160p - Smart - 4K Ultra HD TV with High Dynamic Range","salesRankShortTerm":919,"salesRankMediumTerm":677,"salesRankLongTerm":784,"bestSellingRank":745,"customerReviewAverage":4.70,"customerReviewCount":299,"image":"https://img.bbystatic.com/BestBuy_US/images/products/5748/5748203_sa.jpg","url":"https://api.bestbuy.com/click/-/5748203/pdp"},{"sku":5678701,"manufacturer":"Insignia™","name":"Insignia™ - 43\" Class (42.5\" Diag.) - LED - 2160p - Smart - 4K Ultra HD TV Roku TV","salesRankShortTerm":1005,"salesRankMediumTerm":423,"salesRankLongTerm":286,"bestSellingRank":339,"customerReviewAverage":4.50,"customerReviewCount":229,"image":"https://img.bbystatic.com/BestBuy_US/images/products/5678/5678701_sa.jpg","url":"https://api.bestbuy.com/click/-/5678701/pdp"},{"sku":5878705,"manufacturer":"TCL","name":"TCL - 55\" Class (54.6\" Diag.) - LED - 2160p - Smart - 4K Ultra HD TV with High Dynamic Range Roku TV","salesRankShortTerm":1013,"salesRankMediumTerm":1009,"salesRankLongTerm":701,"bestSellingRank":813,"customerReviewAverage":4.60,"customerReviewCount":125,"image":"https://img.bbystatic.com/BestBuy_US/images/products/5878/5878705_sa.jpg","url":"https://api.bestbuy.com/click/-/5878705/pdp"},{"sku":5748206,"manufacturer":"Sony","name":"Sony - 65\" Class (64.5\" Diag.) - LED - 2160p - Smart - 4K Ultra HD TV with High Dynamic Range","salesRankShortTerm":1019,"salesRankMediumTerm":648,"salesRankLongTerm":725,"bestSellingRank":703,"customerReviewAverage":4.70,"customerReviewCount":421,"image":"https://img.bbystatic.com/BestBuy_US/images/products/5748/5748206_sa.jpg","url":"https://api.bestbuy.com/click/-/5748206/pdp"},{"sku":5878701,"manufacturer":"TCL","name":"TCL - 49\" Class (48.5\" Diag.) - LED - 2160p - Smart - 4K Ultra HD TV Roku TV","salesRankShortTerm":1059,"salesRankMediumTerm":737,"salesRankLongTerm":618,"bestSellingRank":681,"customerReviewAverage":4.70,"customerReviewCount":75,"image":"https://img.bbystatic.com/BestBuy_US/images/products/5878/5878701_sa.jpg","url":"https://api.bestbuy.com/click/-/5878701/pdp"},{"sku":5400401,"manufacturer":"Samsung","name":"Samsung - 65\" Class (64.5\" Diag.) - LED - 2160p - Smart - 4K Ultra HD TV","salesRankShortTerm":1096,"salesRankMediumTerm":810,"salesRankLongTerm":606,"bestSellingRank":695,"customerReviewAverage":4.70,"customerReviewCount":979,"image":"https://img.bbystatic.com/BestBuy_US/images/products/5400/5400401_sa.jpg","url":"https://api.bestbuy.com/click/-/5400401/pdp"},{"sku":4982500,"manufacturer":"Hisense","name":"Hisense - 50\" Class (49.5\" Diag.) - LED - 2160p - Smart - 4K Ultra HD TV with High Dynamic Range","salesRankShortTerm":1104,"salesRankMediumTerm":689,"salesRankLongTerm":963,"bestSellingRank":849,"customerReviewAverage":4.60,"customerReviewCount":1109,"image":"https://img.bbystatic.com/BestBuy_US/images/products/4982/4982500_sa.jpg","url":"https://api.bestbuy.com/click/-/4982500/pdp"},{"sku":5762810,"manufacturer":"VIZIO","name":"VIZIO - 39\" Class (38.5\" Diag.) - LED - 1080p - Smart - HDTV","salesRankShortTerm":1165,"salesRankMediumTerm":886,"salesRankLongTerm":901,"bestSellingRank":917,"customerReviewAverage":4.60,"customerReviewCount":60,"image":"https://img.bbystatic.com/BestBuy_US/images/products/5762/5762810_sa.jpg","url":"https://api.bestbuy.com/click/-/5762810/pdp"},{"sku":5871004,"manufacturer":"Samsung","name":"Samsung - 28\" Class (27.5\" Diag.) - LED - 720p - Smart - HDTV","salesRankShortTerm":1182,"salesRankMediumTerm":890,"salesRankLongTerm":1006,"bestSellingRank":979,"customerReviewAverage":5,"customerReviewCount":2,"image":"https://img.bbystatic.com/BestBuy_US/images/products/5871/5871004_sa.jpg","url":"https://api.bestbuy.com/click/-/5871004/pdp"},{"sku":5754306,"manufacturer":"Samsung","name":"Samsung - 65\" Class (64.5\" Diag.) - LED - 2160p - Smart - 4K Ultra HD TV","salesRankShortTerm":1232,"salesRankMediumTerm":776,"salesRankLongTerm":950,"bestSellingRank":901,"customerReviewAverage":4.70,"customerReviewCount":215,"image":"https://img.bbystatic.com/BestBuy_US/images/products/5754/5754306_sa.jpg","url":"https://api.bestbuy.com/click/-/5754306/pdp"},{"sku":5897427,"manufacturer":"Hisense","name":"Hisense - 55\" Class (54.6\" Diag.) - LED - 2160p - Smart - 4K Ultra HD TV","salesRankShortTerm":1250,"salesRankMediumTerm":1120,"salesRankLongTerm":853,"bestSellingRank":977,"customerReviewAverage":4.60,"customerReviewCount":103,"image":"https://img.bbystatic.com/BestBuy_US/images/products/5897/5897427_sa.jpg","url":"https://api.bestbuy.com/click/-/5897427/pdp"},{"sku":5754303,"manufacturer":"Samsung","name":"Samsung - 55\" Class (54.6\" Diag.) - LED Curved - 2160p - Smart - 4K Ultra HD TV with High Dynamic Range","salesRankShortTerm":1314,"salesRankMediumTerm":1038,"salesRankLongTerm":1206,"bestSellingRank":1156,"customerReviewAverage":4.70,"customerReviewCount":161,"image":"https://img.bbystatic.com/BestBuy_US/images/products/5754/5754303_sa.jpg","url":"https://api.bestbuy.com/click/-/5754303/pdp"},{"sku":5871011,"manufacturer":"Samsung","name":"Samsung - 32\" Class (31.5\" Diag.) - LED - 1080p - Smart - HDTV","salesRankShortTerm":1317,"salesRankMediumTerm":873,"salesRankLongTerm":863,"bestSellingRank":899,"customerReviewAverage":4,"customerReviewCount":6,"image":"https://img.bbystatic.com/BestBuy_US/images/products/5871/5871011_sa.jpg","url":"https://api.bestbuy.com/click/-/5871011/pdp"},{"sku":5792903,"manufacturer":"LG","name":"LG - 65\" Class (64.5\" Diag.) - LED - 2160p - Smart - 4K Ultra HD TV","salesRankShortTerm":1329,"salesRankMediumTerm":1171,"salesRankLongTerm":1111,"bestSellingRank":1158,"customerReviewAverage":4.80,"customerReviewCount":26,"image":"https://img.bbystatic.com/BestBuy_US/images/products/5792/5792903_sa.jpg","url":"https://api.bestbuy.com/click/-/5792903/pdp"},{"sku":5871001,"manufacturer":"Samsung","name":"Samsung - 24\" Class (23.5\" Diag.) - LED - 720p - Smart - HDTV","salesRankShortTerm":1342,"salesRankMediumTerm":1032,"salesRankLongTerm":1151,"bestSellingRank":1124,"customerReviewAverage":null,"customerReviewCount":null,"image":"https://img.bbystatic.com/BestBuy_US/images/products/5871/5871001_sa.jpg","url":"https://api.bestbuy.com/click/-/5871001/pdp"},{"sku":7068146,"manufacturer":"Samsung","name":"Samsung - 55\" Class (54.6\" Diag.) - LED - 1080p - Smart - HDTV","salesRankShortTerm":1353,"salesRankMediumTerm":797,"salesRankLongTerm":630,"bestSellingRank":720,"customerReviewAverage":4.60,"customerReviewCount":3295,"image":"https://img.bbystatic.com/BestBuy_US/images/products/7068/7068146_sa.jpg","url":"https://api.bestbuy.com/click/-/7068146/pdp"},{"sku":5712448,"manufacturer":"Insignia™","name":"Insignia™ - 24\" Class (23.6\" Diag.) - LED - 720p - Smart - HDTV Roku TV","salesRankShortTerm":1406,"salesRankMediumTerm":901,"salesRankLongTerm":859,"bestSellingRank":911,"customerReviewAverage":4.20,"customerReviewCount":34,"image":"https://img.bbystatic.com/BestBuy_US/images/products/5712/5712448_sa.jpg","url":"https://api.bestbuy.com/click/-/5712448/pdp"}],"facets":{"manufacturer":{"samsung":59,"lg":30,"sony":28,"vizio":9,"hisense":8,"insignia™":8,"sharp":8,"westinghouse":7,"tcl":6,"toshiba":6}}}