{"from":51,"to":100,"currentPage":2,"total":169,"totalPages":4,"queryTime":"0.047","totalTime":"0.187","partial":false,"canonicalUrl":"/v1/products((search=\"Smart\"&search=\"TV*\")&(categoryPath.id=abcat0101000)|(categoryPath.id=abcat0101000&manufacturer=\"Toshiba\"&smartCapable=true))?show=sku,manufacturer,name,salesRankShortTerm,salesRankMediumTerm,salesRankLongTerm,bestSellingRank,customerReviewAverage,customerReviewCount,image,url&sort=salesRankShortTerm,bestSellingRank&pageSize=50&page=2&format=json&facet=manufacturer,10&apiKey=AVMRk1IkGNUlScJLbvgQVFPX","products":[{"sku":5871001,"manufacturer":"Samsung","name":"Samsung - 24\" Class (23.5\" Diag.) - LED - 720p - Smart - HDTV","salesRankShortTerm":943,"salesRankMediumTerm":960,"salesRankLongTerm":1131,"bestSellingRank":1047,"customerReviewAverage":null,"customerReviewCount":null,"image":"https://img.bbystatic.com/BestBuy_US/images/products/5871/5871001_sa.jpg","url":"https://api.bestbuy.com/click/-/5871001/pdp"},{"sku":5773708,"manufacturer":"Samsung","name":"Samsung - 65\" Class (64.5\" Diag.) - LED - Curved - 2160p - Smart - 4K Ultra HD TV with High Dynamic Range","salesRankShortTerm":964,"salesRankMediumTerm":1159,"salesRankLongTerm":1285,"bestSellingRank":1198,"customerReviewAverage":4.70,"customerReviewCount":216,"image":"https://img.bbystatic.com/BestBuy_US/images/products/5773/5773708_sa.jpg","url":"https://api.bestbuy.com/click/-/5773708/pdp"},{"sku":5900138,"manufacturer":"Sony","name":"Sony - 60\" Class (60\" Diag.) - LED - 2160p - Smart - 4K Ultra HD TV","salesRankShortTerm":1001,"salesRankMediumTerm":1300,"salesRankLongTerm":1529,"bestSellingRank":1362,"customerReviewAverage":4,"customerReviewCount":1,"image":"https://img.bbystatic.com/BestBuy_US/images/products/5900/5900138_sa.jpg","url":"https://api.bestbuy.com/click/-/5900138/pdp"},{"sku":7068146,"manufacturer":"Samsung","name":"Samsung - 55\" Class (54.6\" Diag.) - LED - 1080p - Smart - HDTV","salesRankShortTerm":1031,"salesRankMediumTerm":745,"salesRankLongTerm":576,"bestSellingRank":675,"customerReviewAverage":4.60,"customerReviewCount":3291,"image":"https://img.bbystatic.com/BestBuy_US/images/products/7068/7068146_sa.jpg","url":"https://api.bestbuy.com/click/-/7068146/pdp"},{"sku":5773704,"manufacturer":"Samsung","name":"Samsung - 55\" Class (54.6\" Diag.) - LED - Curved - 2160p - Smart - 4K Ultra HD TV","salesRankShortTerm":1050,"salesRankMediumTerm":1505,"salesRankLongTerm":1474,"bestSellingRank":1420,"customerReviewAverage":4.70,"customerReviewCount":202,"image":"https://img.bbystatic.com/BestBuy_US/images/products/5773/5773704_sa.jpg","url":"https://api.bestbuy.com/click/-/5773704/pdp"},{"sku":5768720,"manufacturer":"Samsung","name":"Samsung - 49\" Class (48.5\" Diag.) - LED - 1080p - Smart - HDTV","salesRankShortTerm":1097,"salesRankMediumTerm":1252,"salesRankLongTerm":859,"bestSellingRank":1017,"customerReviewAverage":4.80,"customerReviewCount":69,"image":"https://img.bbystatic.com/BestBuy_US/images/products/5768/5768720_sa.jpg","url":"https://api.bestbuy.com/click/-/5768720/pdp"},{"sku":5746201,"manufacturer":"Sharp","name":"Sharp - 65\" Class (64.5\" Diag.) - LED - 2160p - Smart - 4K Ultra HD TV Roku TV","salesRankShortTerm":1112,"salesRankMediumTerm":1462,"salesRankLongTerm":1713,"bestSellingRank":1543,"customerReviewAverage":3.30,"customerReviewCount":7,"image":"https://img.bbystatic.com/BestBuy_US/images/products/5746/5746201_sa.jpg","url":"https://api.bestbuy.com/click/-/5746201/pdp"},{"sku":5844904,"manufacturer":"Samsung","name":"Samsung - 75\" Class (74.5\" Diag.) - LED - 2160p - Smart - 4K Ultra HD TV","salesRankShortTerm":1122,"salesRankMediumTerm":1377,"salesRankLongTerm":1601,"bestSellingRank":1446,"customerReviewAverage":4.70,"customerReviewCount":29,"image":"https://img.bbystatic.com/BestBuy_US/images/products/5844/5844904_sa.jpg","url":"https://api.bestbuy.com/click/-/5844904/pdp"},{"sku":5763433,"manufacturer":"LG","name":"LG - 65\" Class (64.5\" Diag.) - LED - 2160p - Smart - 4K Ultra HD TV with High Dynamic Range","salesRankShortTerm":1201,"salesRankMediumTerm":1529,"salesRankLongTerm":1750,"bestSellingRank":1621,"customerReviewAverage":4.70,"customerReviewCount":41,"image":"https://img.bbystatic.com/BestBuy_US/images/products/5763/5763433_sa.jpg","url":"https://api.bestbuy.com/click/-/5763433/pdp"},{"sku":5773701,"manufacturer":"Samsung","name":"Samsung - 55\" Class (54.6\" Diag.) - LED - 2160p - Smart - 4K Ultra HD TV with High Dynamic Range","salesRankShortTerm":1208,"salesRankMediumTerm":1758,"salesRankLongTerm":1674,"bestSellingRank":1674,"customerReviewAverage":4.70,"customerReviewCount":239,"image":"https://img.bbystatic.com/BestBuy_US/images/products/5773/5773701_sa.jpg","url":"https://api.bestbuy.com/click/-/5773701/pdp"},{"sku":5803109,"manufacturer":"LG","name":"LG - 32\" Class (31.5\" Diag.) - LED - 720p - Smart - HDTV","salesRankShortTerm":1245,"salesRankMediumTerm":980,"salesRankLongTerm":897,"bestSellingRank":966,"customerReviewAverage":4.80,"customerReviewCount":48,"image":"https://img.bbystatic.com/BestBuy_US/images/products/5803/5803109_sa.jpg","url":"https://api.bestbuy.com/click/-/5803109/pdp"},{"sku":5875644,"manufacturer":"Sony","name":"Sony - 43\" Class (42.5\" Diag.) - LED - 2160p - Smart - 4K Ultra HD TV","salesRankShortTerm":1275,"salesRankMediumTerm":1445,"salesRankLongTerm":1679,"bestSellingRank":1547,"customerReviewAverage":4.60,"customerReviewCount":27,"image":"https://img.bbystatic.com/BestBuy_US/images/products/5875/5875644_sa.jpg","url":"https://api.bestbuy.com/click/-/5875644/pdp"},{"sku":5792902,"manufacturer":"LG","name":"LG - 65\" Class (64.5\" Diag.) - LED - 2160p - Smart - 4K Ultra HD TV with High Dynamic Range","salesRankShortTerm":1309,"salesRankMediumTerm":1506,"salesRankLongTerm":1776,"bestSellingRank":1636,"customerReviewAverage":4.60,"customerReviewCount":16,"image":"https://img.bbystatic.com/BestBuy_US/images/products/5792/5792902_sa.jpg","url":"https://api.bestbuy.com/click/-/5792902/pdp"},{"sku":5748204,"manufacturer":"Sony","name":"Sony - 49\" Class (48.5\" Diag.) - LED - 2160p - Smart - 4K Ultra HD TV with High Dynamic Range","salesRankShortTerm":1334,"salesRankMediumTerm":1405,"salesRankLongTerm":1681,"bestSellingRank":1536,"customerReviewAverage":4.60,"customerReviewCount":219,"image":"https://img.bbystatic.com/BestBuy_US/images/products/5748/5748204_sa.jpg","url":"https://api.bestbuy.com/click/-/5748204/pdp"},{"sku":4801501,"manufacturer":"Sony","name":"Sony - 48\" Class (47.6\" Diag.) - LED - 1080p - Smart - HDTV","salesRankShortTerm":1362,"salesRankMediumTerm":1542,"salesRankLongTerm":1645,"bestSellingRank":1589,"customerReviewAverage":4.40,"customerReviewCount":1029,"image":"https://img.bbystatic.com/BestBuy_US/images/products/4801/4801501_sa.jpg","url":"https://api.bestbuy.com/click/-/4801501/pdp"},{"sku":5871010,"manufacturer":"Samsung","name":"Samsung - 32\" Class (31.5\" Diag.) - LED - 720p - Smart - HDTV","salesRankShortTerm":1392,"salesRankMediumTerm":1820,"salesRankLongTerm":2163,"bestSellingRank":1928,"customerReviewAverage":5,"customerReviewCount":1,"image":"https://img.bbystatic.com/BestBuy_US/images/products/5871/5871010_sa.jpg","url":"https://api.bestbuy.com/click/-/5871010/pdp"},{"sku":5748205,"manufacturer":"Sony","name":"Sony - 49\" Class (48.5\" Diag.) - LED - 2160p - Smart - 4K Ultra HD TV with High Dynamic Range","salesRankShortTerm":1440,"salesRankMediumTerm":1428,"salesRankLongTerm":1367,"bestSellingRank":1395,"customerReviewAverage":4.70,"customerReviewCount":153,"image":"https://img.bbystatic.com/BestBuy_US/images/products/5748/5748205_sa.jpg","url":"https://api.bestbuy.com/click/-/5748205/pdp"},{"sku":5792905,"manufacturer":"LG","name":"LG - 60\" Class (59.9\" Diag.) - LED - 2160p - Smart - 4K Ultra HD TV with High Dynamic Range","salesRankShortTerm":1534,"salesRankMediumTerm":1573,"salesRankLongTerm":1605,"bestSellingRank":1604,"customerReviewAverage":4.70,"customerReviewCount":22,"image":"https://img.bbystatic.com/BestBuy_US/images/products/5792/5792905_sa.jpg","url":"https://api.bestbuy.com/click/-/5792905/pdp"},{"sku":5723390,"manufacturer":"LG","name":"LG - 24\" Class (23.8\" Diag.) - LED - 720p - Smart - HDTV","salesRankShortTerm":1549,"salesRankMediumTerm":1955,"salesRankLongTerm":2161,"bestSellingRank":2013,"customerReviewAverage":4.60,"customerReviewCount":212,"image":"https://img.bbystatic.com/BestBuy_US/images/products/5723/5723390_sa.jpg","url":"https://api.bestbuy.com/click/-/5723390/pdp"},{"sku":5774200,"manufacturer":"Samsung","name":"Samsung - 75\" Class (74.5\" Diag.) - LED - 2160p - Smart - 4K Ultra HD TV with High Dynamic Range","salesRankShortTerm":1587,"salesRankMediumTerm":1851,"salesRankLongTerm":1934,"bestSellingRank":1874,"customerReviewAverage":4.60,"customerReviewCount":122,"image":"https://img.bbystatic.com/BestBuy_US/images/products/5774/5774200_sa.jpg","url":"https://api.bestbuy.com/click/-/5774200/pdp"},{"sku":5763400,"manufacturer":"LG","name":"LG - 55\" Class (54.6\" Diag.) - OLED - 2160p - Smart - 4K Ultra HD TV with High Dynamic Range","salesRankShortTerm":1668,"salesRankMediumTerm":1779,"salesRankLongTerm":1756,"bestSellingRank":1783,"customerReviewAverage":4.90,"customerReviewCount":130,"image":"https://img.bbystatic.com/BestBuy_US/images/products/5763/5763400_sa.jpg","url":"https://api.bestbuy.com/click/-/5763400/pdp"},{"sku":5773804,"manufacturer":"Samsung","name":"Samsung - 65\" Class (64.5\" Diag.) - LED - Curved - 2160p - Smart - 4K Ultra HD TV with High Dynamic Range","salesRankShortTerm":1692,"salesRankMediumTerm":2357,"salesRankLongTerm":2458,"bestSellingRank":2301,"customerReviewAverage":4.90,"customerReviewCount":68,"image":"https://img.bbystatic.com/BestBuy_US/images/products/5773/5773804_sa.jpg","url":"https://api.bestbuy.com/click/-/5773804/pdp"},{"sku":5875626,"manufacturer":"Sony","name":"Sony - 49\" Class (48.5\" Diag.) - LED - 2160p - Smart - 4K Ultra HD TV","salesRankShortTerm":1715,"salesRankMediumTerm":1818,"salesRankLongTerm":2234,"bestSellingRank":2010,"customerReviewAverage":4.30,"customerReviewCount":12,"image":"https://img.bbystatic.com/BestBuy_US/images/products/5875/5875626_sa.jpg","url":"https://api.bestbuy.com/click/-/5875626/pdp"},{"sku":5607100,"manufacturer":"Westinghouse","name":"Westinghouse - 50\" Class (49.5\" Diag.) - LED - 1080p - Smart - HDTV","salesRankShortTerm":1760,"salesRankMediumTerm":1802,"salesRankLongTerm":1489,"bestSellingRank":1643,"customerReviewAverage":4.20,"customerReviewCount":637,"image":"https://img.bbystatic.com/BestBuy_US/images/products/5607/5607100_sa.jpg","url":"https://api.bestbuy.com/click/-/5607100/pdp"},{"sku":5875600,"manufacturer":"Sony","name":"Sony - 55\" Class (54.6\" Diag.) - LED - 2160p - Smart - 4K Ultra HD TV","salesRankShortTerm":1792,"salesRankMediumTerm":2324,"salesRankLongTerm":2652,"bestSellingRank":2409,"customerReviewAverage":4.90,"customerReviewCount":23,"image":"https://img.bbystatic.com/BestBuy_US/images/products/5875/5875600_sa.jpg","url":"https://api.bestbuy.com/click/-/5875600/pdp"},{"sku":5733300,"manufacturer":"Toshiba","name":"Toshiba - 50\" Class (49.5\" Diag.) - LED - 2160p - with Chromecast Built-in - 4K Ultra HD TV","salesRankShortTerm":1803,"salesRankMediumTerm":2935,"salesRankLongTerm":1908,"bestSellingRank":2177,"customerReviewAverage":4.70,"customerReviewCount":13,"image":"https://img.bbystatic.com/BestBuy_US/images/products/5733/5733300_sa.jpg","url":"https://api.bestbuy.com/click/-/5733300/pdp"},{"sku":4904601,"manufacturer":"VIZIO","name":"VIZIO - 24\" Class (23.54\" Diag.) - LED - 1080p - Smart - HDTV","salesRankShortTerm":1909,"salesRankMediumTerm":2038,"salesRankLongTerm":1031,"bestSellingRank":1367,"customerReviewAverage":4.50,"customerReviewCount":1318,"image":"https://img.bbystatic.com/BestBuy_US/images/products/4904/4904601_sa.jpg","url":"https://api.bestbuy.com/click/-/4904601/pdp"},{"sku":5247402,"manufacturer":"Westinghouse","name":"Westinghouse - 43\" Class (42.5\" Diag.) - LED - 2160p - Smart - 4K Ultra HD TV","salesRankShortTerm":1987,"salesRankMediumTerm":2815,"salesRankLongTerm":2421,"bestSellingRank":2504,"customerReviewAverage":4.20,"customerReviewCount":212,"image":"https://img.bbystatic.com/BestBuy_US/images/products/5247/5247402_sa.jpg","url":"https://api.bestbuy.com/click/-/5247402/pdp"},{"sku":5935272,"manufacturer":"LG","name":"LG - 65\" Class (64.5\" Diag.) - OLED - 2160p - Smart - 4K Ultra HD TV with High Dynamic Range","salesRankShortTerm":2056,"salesRankMediumTerm":2272,"salesRankLongTerm":2586,"bestSellingRank":2397,"customerReviewAverage":4.70,"customerReviewCount":13,"image":"https://img.bbystatic.com/BestBuy_US/images/products/5935/5935272_sa.jpg","url":"https://api.bestbuy.com/click/-/5935272/pdp"},{"sku":5754305,"manufacturer":"Samsung","name":"Samsung - 65\" Class (64.5\" Diag.) - LED - 2160p - Smart - 4K Ultra HD TV with High Dynamic Range","salesRankShortTerm":2092,"salesRankMediumTerm":2373,"salesRankLongTerm":2801,"bestSellingRank":2557,"customerReviewAverage":4.70,"customerReviewCount":136,"image":"https://img.bbystatic.com/BestBuy_US/images/products/5754/5754305_sa.jpg","url":"https://api.bestbuy.com/click/-/5754305/pdp"},{"sku":5754302,"manufacturer":"Samsung","name":"Samsung - 55\" Class (54.6\" Diag.) - LED - 2160p - Smart - 4K Ultra HD TV with High Dynamic Range","salesRankShortTerm":2093,"salesRankMediumTerm":2061,"salesRankLongTerm":2390,"bestSellingRank":2223,"customerReviewAverage":4.70,"customerReviewCount":94,"image":"https://img.bbystatic.com/BestBuy_US/images/products/5754/5754302_sa.jpg","url":"https://api.bestbuy.com/click/-/5754302/pdp"},{"sku":5773847,"manufacturer":"Samsung","name":"Samsung - 65\" Class (64.5\" Diag.) - LED - Curved - 2160p - Smart - 4K Ultra HD TV","salesRankShortTerm":2094,"salesRankMediumTerm":2949,"salesRankLongTerm":2935,"bestSellingRank":2857,"customerReviewAverage":4.70,"customerReviewCount":122,"image":"https://img.bbystatic.com/BestBuy_US/images/products/5773/5773847_sa.jpg","url":"https://api.bestbuy.com/click/-/5773847/pdp"},{"sku":5772800,"manufacturer":"LG","name":"LG - 65\" Class (64.5\" Diag.) - OLED - 2160p - Smart - 4K Ultra HD TV with High Dynamic Range","salesRankShortTerm":2127,"salesRankMediumTerm":3740,"salesRankLongTerm":4390,"bestSellingRank":3789,"customerReviewAverage":4.80,"customerReviewCount":19,"image":"https://img.bbystatic.com/BestBuy_US/images/products/5772/5772800_sa.jpg","url":"https://api.bestbuy.com/click/-/5772800/pdp"},{"sku":5792908,"manufacturer":"LG","name":"LG - 55\" Class (54.6\" Diag.) - LED - 2160p - Smart - 4K Ultra HD TV with High Dynamic Range","salesRankShortTerm":2130,"salesRankMediumTerm":2354,"salesRankLongTerm":2635,"bestSellingRank":2472,"customerReviewAverage":4.60,"customerReviewCount":20,"image":"https://img.bbystatic.com/BestBuy_US/images/products/5792/5792908_sa.jpg","url":"https://api.bestbuy.com/click/-/5792908/pdp"},{"sku":5758301,"manufacturer":"Samsung","name":"Samsung - 75\" Class (74.5\" Diag.) - LED - 2160p - Smart - 4K Ultra HD TV with High Dynamic Range","salesRankShortTerm":2146,"salesRankMediumTerm":2661,"salesRankLongTerm":3024,"bestSellingRank":2787,"customerReviewAverage":4.70,"customerReviewCount":46,"image":"https://img.bbystatic.com/BestBuy_US/images/products/5758/5758301_sa.jpg","url":"https://api.bestbuy.com/click/-/5758301/pdp"},{"sku":5748201,"manufacturer":"Sony","name":"Sony - 75\" Class (74.5\" Diag.) - LED - 2160p - Smart - 4K Ultra HD TV with High Dynamic Range","salesRankShortTerm":2147,"salesRankMediumTerm":2387,"salesRankLongTerm":2634,"bestSellingRank":2490,"customerReviewAverage":4.80,"customerReviewCount":132,"image":"https://img.bbystatic.com/BestBuy_US/images/products/5748/5748201_sa.jpg","url":"https://api.bestbuy.com/click/-/5748201/pdp"},{"sku":5763359,"manufacturer":"LG","name":"LG - 65\" Class (64.5\" Diag.) - OLED - 2160p - Smart - 4K Ultra HD TV with High Dynamic Range","salesRankShortTerm":2148,"salesRankMediumTerm":2062,"salesRankLongTerm":1992,"bestSellingRank":2042,"customerReviewAverage":4.80,"customerReviewCount":171,"image":"https://img.bbystatic.com/BestBuy_US/images/products/5763/5763359_sa.jpg","url":"https://api.bestbuy.com/click/-/5763359/pdp"},{"sku":5712157,"manufacturer":"Sharp","name":"Sharp - 55\" Class (54.6\" Diag.) - LED - 2160p - Smart - 4K Ultra HD TV Roku TV","salesRankShortTerm":2169,"salesRankMediumTerm":1156,"salesRankLongTerm":1335,"bestSellingRank":1321,"customerReviewAverage":4.60,"customerReviewCount":5,"image":"https://img.bbystatic.com/BestBuy_US/images/products/5712/5712157_sa.jpg","url":"https://api.bestbuy.com/click/-/5712157/pdp"},{"sku":5524900,"manufacturer":"Hisense","name":"Hisense - 55\" Class (54.6\" Diag.) - LED - 2160p - Smart - 4K Ultra HD TV with High Dynamic Range","salesRankShortTerm":2173,"salesRankMediumTerm":1959,"salesRankLongTerm":2351,"bestSellingRank":2161,"customerReviewAverage":4.60,"customerReviewCount":648,"image":"https://img.bbystatic.com/BestBuy_US/images/products/5524/5524900_sa.jpg","url":"https://api.bestbuy.com/click/-/5524900/pdp"},{"sku":5792901,"manufacturer":"LG","name":"LG - 55\" Class (54.6\" Diag.) - LED - 1080p - Smart - HDTV","salesRankShortTerm":2184,"salesRankMediumTerm":2329,"salesRankLongTerm":2151,"bestSellingRank":2198,"customerReviewAverage":4.60,"customerReviewCount":212,"image":"https://img.bbystatic.com/BestBuy_US/images/products/5792/5792901_sa.jpg","url":"https://api.bestbuy.com/click/-/5792901/pdp"},{"sku":5900135,"manufacturer":"Sony","name":"Sony - 70\" Class (69.5\" Diag.) - LED - 2160p - Smart - 4K Ultra HD TV","salesRankShortTerm":2388,"salesRankMediumTerm":3073,"salesRankLongTerm":2908,"bestSellingRank":2927,"customerReviewAverage":4,"customerReviewCount":2,"image":"https://img.bbystatic.com/BestBuy_US/images/products/5900/5900135_sa.jpg","url":"https://api.bestbuy.com/click/-/5900135/pdp"},{"sku":5770946,"manufacturer":"Sony","name":"Sony - 65\" Class (64.5\" Diag.) - OLED - 2160p - Smart - 4K Ultra HD TV with High Dynamic Range","salesRankShortTerm":2423,"salesRankMediumTerm":2536,"salesRankLongTerm":3070,"bestSellingRank":2788,"customerReviewAverage":4.90,"customerReviewCount":80,"image":"https://img.bbystatic.com/BestBuy_US/images/products/5770/5770946_sa.jpg","url":"https://api.bestbuy.com/click/-/5770946/pdp"},{"sku":5878700,"manufacturer":"LG","name":"LG - 75\" Class (74.5\" Diag.) - LED - 2160p - Smart - 4K Ultra HD TV","salesRankShortTerm":2450,"salesRankMediumTerm":3370,"salesRankLongTerm":3257,"bestSellingRank":3236,"customerReviewAverage":4.40,"customerReviewCount":17,"image":"https://img.bbystatic.com/BestBuy_US/images/products/5878/5878700_sa.jpg","url":"https://api.bestbuy.com/click/-/5878700/pdp"},{"sku":5773836,"manufacturer":"Samsung","name":"Samsung - 65\" Class (64.5\" Diag.) - LED - 2160p - Smart - 4K Ultra HD TV with High Dynamic Range","salesRankShortTerm":2526,"salesRankMediumTerm":2691,"salesRankLongTerm":2765,"bestSellingRank":2727,"customerReviewAverage":4.70,"customerReviewCount":159,"image":"https://img.bbystatic.com/BestBuy_US/images/products/5773/5773836_sa.jpg","url":"https://api.bestbuy.com/click/-/5773836/pdp"},{"sku":5935300,"manufacturer":"LG","name":"LG - 55\" Class (54.6\" Diag.) - OLED - 2160p - Smart - 4K Ultra HD TV with High Dynamic Range","salesRankShortTerm":2529,"salesRankMediumTerm":2728,"salesRankLongTerm":2870,"bestSellingRank":2791,"customerReviewAverage":4.80,"customerReviewCount":22,"image":"https://img.bbystatic.com/BestBuy_US/images/products/5935/5935300_sa.jpg","url":"https://api.bestbuy.com/click/-/5935300/pdp"},{"sku":4613600,"manufacturer":"Samsung","name":"Samsung - 32\" Class (31.5\" Diag.) - LED - 720p - Smart - HDTV","salesRankShortTerm":2540,"salesRankMediumTerm":2500,"salesRankLongTerm":2339,"bestSellingRank":2405,"customerReviewAverage":4.60,"customerReviewCount":3606,"image":"https://img.bbystatic.com/BestBuy_US/images/products/4613/4613600_sa.jpg","url":"https://api.bestbuy.com/click/-/4613600/pdp"},{"sku":5865905,"manufacturer":"Hisense","name":"Hisense - 39\" Class (38.5\" Diag.) - LED - 1080p - Smart - HDTV","salesRankShortTerm":2677,"salesRankMediumTerm":3475,"salesRankLongTerm":3191,"bestSellingRank":3274,"customerReviewAverage":4.80,"customerReviewCount":4,"image":"https://img.bbystatic.com/BestBuy_US/images/products/5865/5865905_sa.jpg","url":"https://api.bestbuy.com/click/-/5865905/pdp"},{"sku":5773705,"manufacturer":"Samsung","name":"Samsung - 65\" Class (64.5\" Diag.) - LED - 2160p - Smart - 4K Ultra HD TV with High Dynamic Range","salesRankShortTerm":2701,"salesRankMediumTerm":2957,"salesRankLongTerm":3110,"bestSellingRank":3023,"customerReviewAverage":4.70,"customerReviewCount":110,"image":"https://img.bbystatic.com/BestBuy_US/images/products/5773/5773705_sa.jpg","url":"https://api.bestbuy.com/click/-/5773705/pdp"},{"sku":5773700,"manufacturer":"Samsung","name":"Samsung - 55\" Class (54.6\" Diag.) - LED - 2160p - Smart - 4K Ultra HD TV with High Dynamic Range","salesRankShortTerm":2982,"salesRankMediumTerm":3820,"salesRankLongTerm":4274,"bestSellingRank":3960,"customerReviewAverage":4.80,"customerReviewCount":57,"image":"https://img.bbystatic.com/BestBuy_US/images/products/5773/5773700_sa.jpg","url":"https://api.bestbuy.com/click/-/5773700/pdp"},{"sku":5901040,"manufacturer":"Samsung","name":"Samsung - 50\" Class (49.5\" Diag.) - LED - 1080p - Smart - HDTV","salesRankShortTerm":3057,"salesRankMediumTerm":3197,"salesRankLongTerm":2348,"bestSellingRank":2676,"customerReviewAverage":3.70,"customerReviewCount":3,"image":"https://img.bbystatic.com/BestBuy_US/images/products/5901/5901040_sa.jpg","url":"https://api.bestbuy.com/click/-/5901040/pdp"}],"facets":{"manufacturer":{"samsung":59,"lg":30,"sony":28,"vizio":9,"hisense":8,"insignia™":8,"sharp":8,"westinghouse":7,"tcl":6,"toshiba":6}}}