{"from":1,"to":50,"currentPage":1,"total":170,"totalPages":4,"queryTime":"0.030","totalTime":"0.172","partial":false,"canonicalUrl":"/v1/products((search=\"Smart\"&search=\"TV*\")&(categoryPath.id=abcat0101000)|(categoryPath.id=abcat0101000&manufacturer=\"Toshiba\"&smartCapable=true))?show=sku,manufacturer,name,salesRankShortTerm,salesRankMediumTerm,salesRankLongTerm,bestSellingRank,customerReviewAverage,customerReviewCount,image,url&sort=salesRankShortTerm,bestSellingRank&pageSize=50&format=json&facet=manufacturer,10&apiKey=AVMRk1IkGNUlScJLbvgQVFPX","products":[{"sku":4822001,"manufacturer":"Insignia™","name":"Insignia™ - 32\" Class (31.5\" Diag.) - LED - 720p - Smart - Roku TV","salesRankShortTerm":98,"salesRankMediumTerm":82,"salesRankLongTerm":116,"bestSellingRank":103,"customerReviewAverage":4.50,"customerReviewCount":4793,"image":"https://img.bbystatic.com/BestBuy_US/images/products/4822/4822001_sa.jpg","url":"https://api.bestbuy.com/click/-/4822001/pdp"},{"sku":4863301,"manufacturer":"Sharp","name":"Sharp - 43\" Class (42.5\" Diag.) - LED - 1080p - Smart - HDTV - Roku TV","salesRankShortTerm":121,"salesRankMediumTerm":83,"salesRankLongTerm":174,"bestSellingRank":141,"customerReviewAverage":4.50,"customerReviewCount":2537,"image":"https://img.bbystatic.com/BestBuy_US/images/products/4863/4863301_sa.jpg","url":"https://api.bestbuy.com/click/-/4863301/pdp"},{"sku":5803100,"manufacturer":"LG","name":"LG - 49\" Class (48.5\" Diag.) - LED - 1080p - Smart - HDTV","salesRankShortTerm":263,"salesRankMediumTerm":189,"salesRankLongTerm":237,"bestSellingRank":223,"customerReviewAverage":4.60,"customerReviewCount":174,"image":"https://img.bbystatic.com/BestBuy_US/images/products/5803/5803100_sa.jpg","url":"https://api.bestbuy.com/click/-/5803100/pdp"},{"sku":5878703,"manufacturer":"TCL","name":"TCL - 55\" Class (54.6\" Diag.) - LED - 2160p - Smart - 4K Ultra HD TV Roku TV","salesRankShortTerm":269,"salesRankMediumTerm":241,"salesRankLongTerm":303,"bestSellingRank":281,"customerReviewAverage":4.50,"customerReviewCount":37,"image":"https://img.bbystatic.com/BestBuy_US/images/products/5878/5878703_sa.jpg","url":"https://api.bestbuy.com/click/-/5878703/pdp"},{"sku":4863802,"manufacturer":"Insignia™","name":"Insignia™ - 39\" Class (38.5\" Diag.) - LED - 1080p - Smart - HDTV Roku TV","salesRankShortTerm":327,"salesRankMediumTerm":250,"salesRankLongTerm":194,"bestSellingRank":205,"customerReviewAverage":4.50,"customerReviewCount":4435,"image":"https://img.bbystatic.com/BestBuy_US/images/products/4863/4863802_sa.jpg","url":"https://api.bestbuy.com/click/-/4863802/pdp"},{"sku":5894900,"manufacturer":"Samsung","name":"Samsung - 58\" Class (57.5\" Diag.) - LED - 2160p - Smart - 4K Ultra HD TV","salesRankShortTerm":371,"salesRankMediumTerm":277,"salesRankLongTerm":240,"bestSellingRank":254,"customerReviewAverage":4.50,"customerReviewCount":80,"image":"https://img.bbystatic.com/BestBuy_US/images/products/5894/5894900_sa.jpg","url":"https://api.bestbuy.com/click/-/5894900/pdp"},{"sku":5803102,"manufacturer":"LG","name":"LG - 43\" Class (42.5\" Diag.) - LED - 1080p - Smart - HDTV","salesRankShortTerm":403,"salesRankMediumTerm":276,"salesRankLongTerm":250,"bestSellingRank":269,"customerReviewAverage":4.60,"customerReviewCount":260,"image":"https://img.bbystatic.com/BestBuy_US/images/products/5803/5803102_sa.jpg","url":"https://api.bestbuy.com/click/-/5803102/pdp"},{"sku":5762002,"manufacturer":"Samsung","name":"Samsung - 50\" Class (49.5\" Diag.) - LED - 2160p - Smart - 4K Ultra HD TV","salesRankShortTerm":441,"salesRankMediumTerm":265,"salesRankLongTerm":349,"bestSellingRank":327,"customerReviewAverage":4.70,"customerReviewCount":328,"image":"https://img.bbystatic.com/BestBuy_US/images/products/5762/5762002_sa.jpg","url":"https://api.bestbuy.com/click/-/5762002/pdp"},{"sku":4380083,"manufacturer":"Samsung","name":"Samsung - 32\" Class (31.5\" Diag.) - LED - 1080p - Smart - HDTV","salesRankShortTerm":446,"salesRankMediumTerm":360,"salesRankLongTerm":424,"bestSellingRank":400,"customerReviewAverage":4.70,"customerReviewCount":5410,"image":"https://img.bbystatic.com/BestBuy_US/images/products/4380/4380083_sa.jpg","url":"https://api.bestbuy.com/click/-/4380083/pdp"},{"sku":4904501,"manufacturer":"VIZIO","name":"VIZIO - 32\" Class - (31.51\" Diag.) - LED - 1080p - Smart - HDTV","salesRankShortTerm":503,"salesRankMediumTerm":425,"salesRankLongTerm":335,"bestSellingRank":360,"customerReviewAverage":4.60,"customerReviewCount":670,"image":"https://img.bbystatic.com/BestBuy_US/images/products/4904/4904501_sa.jpg","url":"https://api.bestbuy.com/click/-/4904501/pdp"},{"sku":5768501,"manufacturer":"Samsung","name":"Samsung - 43\" Class (42.5\" Diag.) - LED - 2160p - Smart - 4K Ultra HD TV","salesRankShortTerm":515,"salesRankMediumTerm":407,"salesRankLongTerm":388,"bestSellingRank":396,"customerReviewAverage":4.70,"customerReviewCount":195,"image":"https://img.bbystatic.com/BestBuy_US/images/products/5768/5768501_sa.jpg","url":"https://api.bestbuy.com/click/-/5768501/pdp"},{"sku":6422016,"manufacturer":"Samsung","name":"Samsung - 40\" Class (40\" Diag.) - LED - 1080p - Smart - HDTV","salesRankShortTerm":570,"salesRankMediumTerm":874,"salesRankLongTerm":581,"bestSellingRank":633,"customerReviewAverage":4.60,"customerReviewCount":5859,"image":"https://img.bbystatic.com/BestBuy_US/images/products/6422/6422016_sa.jpg","url":"https://api.bestbuy.com/click/-/6422016/pdp"},{"sku":5792910,"manufacturer":"LG","name":"LG - 55\" Class (54.6\" Diag.) - LED - 2160p - Smart - 4K Ultra HD TV","salesRankShortTerm":601,"salesRankMediumTerm":357,"salesRankLongTerm":345,"bestSellingRank":354,"customerReviewAverage":4.50,"customerReviewCount":108,"image":"https://img.bbystatic.com/BestBuy_US/images/products/5792/5792910_sa.jpg","url":"https://api.bestbuy.com/click/-/5792910/pdp"},{"sku":5763401,"manufacturer":"LG","name":"LG - 43\" Class (43\" Diag.) - LED - 2160p - Smart - 4K Ultra HD TV","salesRankShortTerm":629,"salesRankMediumTerm":429,"salesRankLongTerm":441,"bestSellingRank":444,"customerReviewAverage":4.50,"customerReviewCount":401,"image":"https://img.bbystatic.com/BestBuy_US/images/products/5763/5763401_sa.jpg","url":"https://api.bestbuy.com/click/-/5763401/pdp"},{"sku":4863102,"manufacturer":"Sharp","name":"Sharp - 50\" Class (49.5\" Diag.) - LED - 1080p - Smart - HDTV Roku TV","salesRankShortTerm":658,"salesRankMediumTerm":581,"salesRankLongTerm":471,"bestSellingRank":509,"customerReviewAverage":4.60,"customerReviewCount":2981,"image":"https://img.bbystatic.com/BestBuy_US/images/products/4863/4863102_sa.jpg","url":"https://api.bestbuy.com/click/-/4863102/pdp"},{"sku":5748207,"manufacturer":"Sony","name":"Sony - 65\" Class (64.5\" Diag.) - LED - 2160p - Smart - 4K Ultra HD TV with High Dynamic Range","salesRankShortTerm":669,"salesRankMediumTerm":403,"salesRankLongTerm":346,"bestSellingRank":371,"customerReviewAverage":4.80,"customerReviewCount":815,"image":"https://img.bbystatic.com/BestBuy_US/images/products/5748/5748207_sa.jpg","url":"https://api.bestbuy.com/click/-/5748207/pdp"},{"sku":5773800,"manufacturer":"Samsung","name":"Samsung - 65\" Class (64.5\" Diag.) - LED - 2160p - Smart - 4K Ultra HD TV with High Dynamic Range","salesRankShortTerm":727,"salesRankMediumTerm":427,"salesRankLongTerm":378,"bestSellingRank":403,"customerReviewAverage":4.70,"customerReviewCount":634,"image":"https://img.bbystatic.com/BestBuy_US/images/products/5773/5773800_sa.jpg","url":"https://api.bestbuy.com/click/-/5773800/pdp"},{"sku":5754304,"manufacturer":"Samsung","name":"Samsung - 55\" Class (54.6\" Diag.) - LED - 2160p - Smart - 4K Ultra HD TV","salesRankShortTerm":728,"salesRankMediumTerm":281,"salesRankLongTerm":263,"bestSellingRank":287,"customerReviewAverage":4.70,"customerReviewCount":313,"image":"https://img.bbystatic.com/BestBuy_US/images/products/5754/5754304_sa.jpg","url":"https://api.bestbuy.com/click/-/5754304/pdp"},{"sku":5748209,"manufacturer":"Sony","name":"Sony - 55\" Class (54.6\" Diag.) - LED - 2160p - Smart - 4K Ultra HD TV with High Dynamic Range","salesRankShortTerm":741,"salesRankMediumTerm":466,"salesRankLongTerm":537,"bestSellingRank":520,"customerReviewAverage":4.70,"customerReviewCount":517,"image":"https://img.bbystatic.com/BestBuy_US/images/products/5748/5748209_sa.jpg","url":"https://api.bestbuy.com/click/-/5748209/pdp"},{"sku":5748208,"manufacturer":"Sony","name":"Sony - 55\" Class (54.6\" Diag.) - LED - 2160p - Smart - 4K Ultra HD TV with High Dynamic Range","salesRankShortTerm":750,"salesRankMediumTerm":513,"salesRankLongTerm":457,"bestSellingRank":479,"customerReviewAverage":4.80,"customerReviewCount":243,"image":"https://img.bbystatic.com/BestBuy_US/images/products/5748/5748208_sa.jpg","url":"https://api.bestbuy.com/click/-/5748208/pdp"},{"sku":5865001,"manufacturer":"LG","name":"LG - 49\" Class (48.5\" Diag.) - LED - 2160p - Smart - 4K Ultra HD TV","salesRankShortTerm":754,"salesRankMediumTerm":455,"salesRankLongTerm":425,"bestSellingRank":441,"customerReviewAverage":4.50,"customerReviewCount":53,"image":"https://img.bbystatic.com/BestBuy_US/images/products/5865/5865001_sa.jpg","url":"https://api.bestbuy.com/click/-/5865001/pdp"},{"sku":5684501,"manufacturer":"Insignia™","name":"Insignia™ - 50\" Class (49.5\" Diag.) - LED - 2160p - Smart - 4K Ultra HD TV Roku TV","salesRankShortTerm":764,"salesRankMediumTerm":592,"salesRankLongTerm":301,"bestSellingRank":357,"customerReviewAverage":4.40,"customerReviewCount":188,"image":"https://img.bbystatic.com/BestBuy_US/images/products/5684/5684501_sa.jpg","url":"https://api.bestbuy.com/click/-/5684501/pdp"},{"sku":5746700,"manufacturer":"Sharp","name":"Sharp - 32\" Class (31.5\" Diag.) - LED - 720p - Smart - HDTV Roku TV","salesRankShortTerm":796,"salesRankMediumTerm":606,"salesRankLongTerm":503,"bestSellingRank":548,"customerReviewAverage":4.30,"customerReviewCount":58,"image":"https://img.bbystatic.com/BestBuy_US/images/products/5746/5746700_sa.jpg","url":"https://api.bestbuy.com/click/-/5746700/pdp"},{"sku":5733205,"manufacturer":"Toshiba","name":"Toshiba - 43\" Class (42.5\" Diag.) - LED - 1080p - with Chromecast Built-in - HDTV","salesRankShortTerm":842,"salesRankMediumTerm":673,"salesRankLongTerm":216,"bestSellingRank":294,"customerReviewAverage":4.70,"customerReviewCount":23,"image":"https://img.bbystatic.com/BestBuy_US/images/products/5733/5733205_sa.jpg","url":"https://api.bestbuy.com/click/-/5733205/pdp"},{"sku":5871004,"manufacturer":"Samsung","name":"Samsung - 28\" Class (27.5\" Diag.) - LED - 720p - Smart - HDTV","salesRankShortTerm":933,"salesRankMediumTerm":1009,"salesRankLongTerm":1012,"bestSellingRank":1016,"customerReviewAverage":5,"customerReviewCount":2,"image":"https://img.bbystatic.com/BestBuy_US/images/products/5871/5871004_sa.jpg","url":"https://api.bestbuy.com/click/-/5871004/pdp"},{"sku":5768401,"manufacturer":"Samsung","name":"Samsung - 40\" Class (39.5\" Diag.) - LED - 2160p - Smart - 4K Ultra HD TV","salesRankShortTerm":952,"salesRankMediumTerm":641,"salesRankLongTerm":601,"bestSellingRank":622,"customerReviewAverage":4.70,"customerReviewCount":554,"image":"https://img.bbystatic.com/BestBuy_US/images/products/5768/5768401_sa.jpg","url":"https://api.bestbuy.com/click/-/5768401/pdp"},{"sku":5679628,"manufacturer":"Insignia™","name":"Insignia™ - 55\" Class (54.5\" Diag.) - LED - 2160p - Smart - 4K Ultra HD TV Roku TV","salesRankShortTerm":956,"salesRankMediumTerm":685,"salesRankLongTerm":604,"bestSellingRank":634,"customerReviewAverage":4.70,"customerReviewCount":82,"image":"https://img.bbystatic.com/BestBuy_US/images/products/5679/5679628_sa.jpg","url":"https://api.bestbuy.com/click/-/5679628/pdp"},{"sku":5678701,"manufacturer":"Insignia™","name":"Insignia™ - 43\" Class (42.5\" Diag.) - LED - 2160p - Smart - 4K Ultra HD TV Roku TV","salesRankShortTerm":963,"salesRankMediumTerm":885,"salesRankLongTerm":325,"bestSellingRank":418,"customerReviewAverage":4.50,"customerReviewCount":229,"image":"https://img.bbystatic.com/BestBuy_US/images/products/5678/5678701_sa.jpg","url":"https://api.bestbuy.com/click/-/5678701/pdp"},{"sku":5754805,"manufacturer":"Samsung","name":"Samsung - 55\" Class (54.6\" Diag.) - LED - 2160p - Smart - 4K Ultra HD TV with High Dynamic Range","salesRankShortTerm":1029,"salesRankMediumTerm":706,"salesRankLongTerm":629,"bestSellingRank":656,"customerReviewAverage":4.70,"customerReviewCount":284,"image":"https://img.bbystatic.com/BestBuy_US/images/products/5754/5754805_sa.jpg","url":"https://api.bestbuy.com/click/-/5754805/pdp"},{"sku":7068146,"manufacturer":"Samsung","name":"Samsung - 55\" Class (54.6\" Diag.) - LED - 1080p - Smart - HDTV","salesRankShortTerm":1041,"salesRankMediumTerm":1146,"salesRankLongTerm":715,"bestSellingRank":843,"customerReviewAverage":4.60,"customerReviewCount":3295,"image":"https://img.bbystatic.com/BestBuy_US/images/products/7068/7068146_sa.jpg","url":"https://api.bestbuy.com/click/-/7068146/pdp"},{"sku":5768700,"manufacturer":"Samsung","name":"Samsung - 49\" Class (48.5\" Diag.) - LED - 2160p - Smart - 4K Ultra HD TV with High Dynamic Range","salesRankShortTerm":1044,"salesRankMediumTerm":764,"salesRankLongTerm":670,"bestSellingRank":701,"customerReviewAverage":4.60,"customerReviewCount":119,"image":"https://img.bbystatic.com/BestBuy_US/images/products/5768/5768700_sa.jpg","url":"https://api.bestbuy.com/click/-/5768700/pdp"},{"sku":5746805,"manufacturer":"Sharp","name":"Sharp - 50\" Class (49.5\" Diag.) - LED - 2160p - Smart - 4K Ultra HD TV Roku TV","salesRankShortTerm":1102,"salesRankMediumTerm":794,"salesRankLongTerm":784,"bestSellingRank":812,"customerReviewAverage":5,"customerReviewCount":3,"image":"https://img.bbystatic.com/BestBuy_US/images/products/5746/5746805_sa.jpg","url":"https://api.bestbuy.com/click/-/5746805/pdp"},{"sku":5878705,"manufacturer":"TCL","name":"TCL - 55\" Class (54.6\" Diag.) - LED - 2160p - Smart - 4K Ultra HD TV with High Dynamic Range Roku TV","salesRankShortTerm":1139,"salesRankMediumTerm":1186,"salesRankLongTerm":781,"bestSellingRank":920,"customerReviewAverage":4.60,"customerReviewCount":128,"image":"https://img.bbystatic.com/BestBuy_US/images/products/5878/5878705_sa.jpg","url":"https://api.bestbuy.com/click/-/5878705/pdp"},{"sku":5878701,"manufacturer":"TCL","name":"TCL - 49\" Class (48.5\" Diag.) - LED - 2160p - Smart - 4K Ultra HD TV Roku TV","salesRankShortTerm":1148,"salesRankMediumTerm":914,"salesRankLongTerm":710,"bestSellingRank":779,"customerReviewAverage":4.70,"customerReviewCount":76,"image":"https://img.bbystatic.com/BestBuy_US/images/products/5878/5878701_sa.jpg","url":"https://api.bestbuy.com/click/-/5878701/pdp"},{"sku":5871011,"manufacturer":"Samsung","name":"Samsung - 32\" Class (31.5\" Diag.) - LED - 1080p - Smart - HDTV","salesRankShortTerm":1264,"salesRankMediumTerm":1091,"salesRankLongTerm":922,"bestSellingRank":1014,"customerReviewAverage":4.10,"customerReviewCount":7,"image":"https://img.bbystatic.com/BestBuy_US/images/products/5871/5871011_sa.jpg","url":"https://api.bestbuy.com/click/-/5871011/pdp"},{"sku":5871001,"manufacturer":"Samsung","name":"Samsung - 24\" Class (23.5\" Diag.) - LED - 720p - Smart - HDTV","salesRankShortTerm":1275,"salesRankMediumTerm":1163,"salesRankLongTerm":1173,"bestSellingRank":1173,"customerReviewAverage":null,"customerReviewCount":null,"image":"https://img.bbystatic.com/BestBuy_US/images/products/5871/5871001_sa.jpg","url":"https://api.bestbuy.com/click/-/5871001/pdp"},{"sku":5754306,"manufacturer":"Samsung","name":"Samsung - 65\" Class (64.5\" Diag.) - LED - 2160p - Smart - 4K Ultra HD TV","salesRankShortTerm":1313,"salesRankMediumTerm":994,"salesRankLongTerm":1031,"bestSellingRank":1036,"customerReviewAverage":4.70,"customerReviewCount":217,"image":"https://img.bbystatic.com/BestBuy_US/images/products/5754/5754306_sa.jpg","url":"https://api.bestbuy.com/click/-/5754306/pdp"},{"sku":5762810,"manufacturer":"VIZIO","name":"VIZIO - 39\" Class (38.5\" Diag.) - LED - 1080p - Smart - HDTV","salesRankShortTerm":1316,"salesRankMediumTerm":1142,"salesRankLongTerm":994,"bestSellingRank":1059,"customerReviewAverage":4.60,"customerReviewCount":60,"image":"https://img.bbystatic.com/BestBuy_US/images/products/5762/5762810_sa.jpg","url":"https://api.bestbuy.com/click/-/5762810/pdp"},{"sku":5748203,"manufacturer":"Sony","name":"Sony - 75\" Class (74.5\" Diag.) - LED - 2160p - Smart - 4K Ultra HD TV with High Dynamic Range","salesRankShortTerm":1340,"salesRankMediumTerm":851,"salesRankLongTerm":857,"bestSellingRank":886,"customerReviewAverage":4.70,"customerReviewCount":300,"image":"https://img.bbystatic.com/BestBuy_US/images/products/5748/5748203_sa.jpg","url":"https://api.bestbuy.com/click/-/5748203/pdp"},{"sku":5712448,"manufacturer":"Insignia™","name":"Insignia™ - 24\" Class (23.6\" Diag.) - LED - 720p - Smart - HDTV Roku TV","salesRankShortTerm":1349,"salesRankMediumTerm":1081,"salesRankLongTerm":916,"bestSellingRank":1011,"customerReviewAverage":4.20,"customerReviewCount":34,"image":"https://img.bbystatic.com/BestBuy_US/images/products/5712/5712448_sa.jpg","url":"https://api.bestbuy.com/click/-/5712448/pdp"},{"sku":5748206,"manufacturer":"Sony","name":"Sony - 65\" Class (64.5\" Diag.) - LED - 2160p - Smart - 4K Ultra HD TV with High Dynamic Range","salesRankShortTerm":1394,"salesRankMediumTerm":912,"salesRankLongTerm":799,"bestSellingRank":871,"customerReviewAverage":4.70,"customerReviewCount":423,"image":"https://img.bbystatic.com/BestBuy_US/images/products/5748/5748206_sa.jpg","url":"https://api.bestbuy.com/click/-/5748206/pdp"},{"sku":5866700,"manufacturer":"Hisense","name":"Hisense - 50\" Class (49.5\" Diag.) - LED - 2160p - Smart - 4K Ultra HD TV","salesRankShortTerm":1421,"salesRankMediumTerm":731,"salesRankLongTerm":662,"bestSellingRank":698,"customerReviewAverage":4.40,"customerReviewCount":72,"image":"https://img.bbystatic.com/BestBuy_US/images/products/5866/5866700_sa.jpg","url":"https://api.bestbuy.com/click/-/5866700/pdp"},{"sku":5400401,"manufacturer":"Samsung","name":"Samsung - 65\" Class (64.5\" Diag.) - LED - 2160p - Smart - 4K Ultra HD TV","salesRankShortTerm":1441,"salesRankMediumTerm":1162,"salesRankLongTerm":699,"bestSellingRank":844,"customerReviewAverage":4.70,"customerReviewCount":983,"image":"https://img.bbystatic.com/BestBuy_US/images/products/5400/5400401_sa.jpg","url":"https://api.bestbuy.com/click/-/5400401/pdp"},{"sku":5746801,"manufacturer":"Sharp","name":"Sharp - 43\" Class (42.5\" Diag.) - LED - 2160p - Smart - 4K Ultra HD TV Roku TV","salesRankShortTerm":1492,"salesRankMediumTerm":798,"salesRankLongTerm":744,"bestSellingRank":790,"customerReviewAverage":4.70,"customerReviewCount":7,"image":"https://img.bbystatic.com/BestBuy_US/images/products/5746/5746801_sa.jpg","url":"https://api.bestbuy.com/click/-/5746801/pdp"},{"sku":5768720,"manufacturer":"Samsung","name":"Samsung - 49\" Class (48.5\" Diag.) - LED - 1080p - Smart - HDTV","salesRankShortTerm":1628,"salesRankMediumTerm":1427,"salesRankLongTerm":1132,"bestSellingRank":1218,"customerReviewAverage":4.80,"customerReviewCount":69,"image":"https://img.bbystatic.com/BestBuy_US/images/products/5768/5768720_sa.jpg","url":"https://api.bestbuy.com/click/-/5768720/pdp"},{"sku":5754303,"manufacturer":"Samsung","name":"Samsung - 55\" Class (54.6\" Diag.) - LED Curved - 2160p - Smart - 4K Ultra HD TV with High Dynamic Range","salesRankShortTerm":1693,"salesRankMediumTerm":1278,"salesRankLongTerm":1312,"bestSellingRank":1334,"customerReviewAverage":4.70,"customerReviewCount":163,"image":"https://img.bbystatic.com/BestBuy_US/images/products/5754/5754303_sa.jpg","url":"https://api.bestbuy.com/click/-/5754303/pdp"},{"sku":5792903,"manufacturer":"LG","name":"LG - 65\" Class (64.5\" Diag.) - LED - 2160p - Smart - 4K Ultra HD TV","salesRankShortTerm":1804,"salesRankMediumTerm":1319,"salesRankLongTerm":1234,"bestSellingRank":1287,"customerReviewAverage":4.80,"customerReviewCount":29,"image":"https://img.bbystatic.com/BestBuy_US/images/products/5792/5792903_sa.jpg","url":"https://api.bestbuy.com/click/-/5792903/pdp"},{"sku":5900138,"manufacturer":"Sony","name":"Sony - 60\" Class (60\" Diag.) - LED - 2160p - Smart - 4K Ultra HD TV","salesRankShortTerm":1854,"salesRankMediumTerm":1506,"salesRankLongTerm":1612,"bestSellingRank":1589,"customerReviewAverage":4,"customerReviewCount":1,"image":"https://img.bbystatic.com/BestBuy_US/images/products/5900/5900138_sa.jpg","url":"https://api.bestbuy.com/click/-/5900138/pdp"},{"sku":5803109,"manufacturer":"LG","name":"LG - 32\" Class (31.5\" Diag.) - LED - 720p - Smart - HDTV","salesRankShortTerm":1884,"salesRankMediumTerm":1700,"salesRankLongTerm":1104,"bestSellingRank":1267,"customerReviewAverage":4.80,"customerReviewCount":49,"image":"https://img.bbystatic.com/BestBuy_US/images/products/5803/5803109_sa.jpg","url":"https://api.bestbuy.com/click/-/5803109/pdp"},{"sku":5773704,"manufacturer":"Samsung","name":"Samsung - 55\" Class (54.6\" Diag.) - LED - Curved - 2160p - Smart - 4K Ultra HD TV","salesRankShortTerm":2116,"salesRankMediumTerm":1551,"salesRankLongTerm":1586,"bestSellingRank":1608,"customerReviewAverage":4.70,"customerReviewCount":203,"image":"https://img.bbystatic.com/BestBuy_US/images/products/5773/5773704_sa.jpg","url":"https://api.bestbuy.com/click/-/5773704/pdp"}],"facets":{"manufacturer":{"samsung":59,"lg":31,"sony":28,"vizio":9,"hisense":8,"insignia™":8,"sharp":8,"westinghouse":7,"tcl":6,"toshiba":6}}}