{"from":151,"to":169,"currentPage":4,"total":169,"totalPages":4,"queryTime":"0.992","totalTime":"1.048","partial":false,"canonicalUrl":"/v1/products((search=\"Smart\"&search=\"TV*\")&(categoryPath.id=abcat0101000)|(categoryPath.id=abcat0101000&manufacturer=\"Toshiba\"&smartCapable=true))?show=sku,manufacturer,name,salesRankShortTerm,salesRankMediumTerm,salesRankLongTerm,bestSellingRank,customerReviewAverage,customerReviewCount,image,url&sort=salesRankShortTerm,bestSellingRank&pageSize=50&page=4&format=json&facet=manufacturer,10&apiKey=AVMRk1IkGNUlScJLbvgQVFPX","products":[{"sku":5786402,"manufacturer":"Samsung","name":"Samsung - 65\" Class (64.5\" Diag.) - LED - Curved - 2160p - Smart - 4K Ultra HD TV with High Dynamic Range","salesRankShortTerm":18307,"salesRankMediumTerm":16686,"salesRankLongTerm":19709,"bestSellingRank":18660,"customerReviewAverage":4.60,"customerReviewCount":10,"image":"https://img.bbystatic.com/BestBuy_US/images/products/5786/5786402_sa.jpg","url":"https://api.bestbuy.com/click/-/5786402/pdp"},{"sku":5846700,"manufacturer":"TCL","name":"TCL - 32\" Class (31.5\" Diag.) - LED - 720p - Smart - HDTV Roku TV","salesRankShortTerm":18566,"salesRankMediumTerm":19502,"salesRankLongTerm":12106,"bestSellingRank":14316,"customerReviewAverage":4,"customerReviewCount":1,"image":"https://img.bbystatic.com/BestBuy_US/images/products/5846/5846700_sa.jpg","url":"https://api.bestbuy.com/click/-/5846700/pdp"},{"sku":5897521,"manufacturer":"Samsung","name":"Samsung - 65\" Class (64.5\" Diag.) - LED - 2160p - Smart - 4K Ultra HD Frame TV with High Dynamic Range","salesRankShortTerm":18752,"salesRankMediumTerm":15717,"salesRankLongTerm":15880,"bestSellingRank":16173,"customerReviewAverage":3,"customerReviewCount":2,"image":"https://img.bbystatic.com/BestBuy_US/images/products/5897/5897521_sa.jpg","url":"https://api.bestbuy.com/click/-/5897521/pdp"},{"sku":5774700,"manufacturer":"Samsung","name":"Samsung - 75\" Class (74.5\" Diag.) - LED - 2160p - Smart - 4K Ultra HD TV with High Dynamic Range","salesRankShortTerm":18923,"salesRankMediumTerm":18266,"salesRankLongTerm":18592,"bestSellingRank":18704,"customerReviewAverage":5,"customerReviewCount":2,"image":"https://img.bbystatic.com/BestBuy_US/images/products/5774/5774700_sa.jpg","url":"https://api.bestbuy.com/click/-/5774700/pdp"},{"sku":5872101,"manufacturer":"TCL","name":"TCL - 43\" Class (43\" Diag.) - LED - 1080p - Smart - HDTV Roku TV","salesRankShortTerm":23400,"salesRankMediumTerm":18798,"salesRankLongTerm":15254,"bestSellingRank":16931,"customerReviewAverage":5,"customerReviewCount":1,"image":"https://img.bbystatic.com/BestBuy_US/images/products/5872/5872101_sa.jpg","url":"https://api.bestbuy.com/click/-/5872101/pdp"},{"sku":5102704,"manufacturer":"VIZIO","name":"VIZIO - 50\" Class (49.5\" Diag.) - LED - 1080p - Smart - HDTV","salesRankShortTerm":24006,"salesRankMediumTerm":23490,"salesRankLongTerm":18235,"bestSellingRank":19846,"customerReviewAverage":null,"customerReviewCount":null,"image":"https://img.bbystatic.com/BestBuy_US/images/products/5102/5102704_sa.jpg","url":"https://api.bestbuy.com/click/-/5102704/pdp"},{"sku":5034500,"manufacturer":"Samsung","name":"Samsung - 65\" Class (64.5\" Diag.) - LED - Curved - 2160p - Smart - 4K Ultra HD TV - with High Dynamic Range","salesRankShortTerm":25666,"salesRankMediumTerm":37934,"salesRankLongTerm":52414,"bestSellingRank":38177,"customerReviewAverage":4.80,"customerReviewCount":523,"image":"https://img.bbystatic.com/BestBuy_US/images/products/5034/5034500_sa.jpg","url":"https://api.bestbuy.com/click/-/5034500/pdp"},{"sku":5871013,"manufacturer":"Samsung","name":"Samsung - 40\" Class (39.5\" Diag.) - LED - 1080p - Smart - HDTV","salesRankShortTerm":26648,"salesRankMediumTerm":41524,"salesRankLongTerm":118902,"bestSellingRank":44916,"customerReviewAverage":null,"customerReviewCount":null,"image":"https://img.bbystatic.com/BestBuy_US/images/products/5871/5871013_sa.jpg","url":"https://api.bestbuy.com/click/-/5871013/pdp"},{"sku":5710461,"manufacturer":"LG","name":"LG - 65\" Class (64.5 Diag.) - Wallpaper OLED - 2160p - Smart - 4K Ultra HD TV - with High Dynamic Range","salesRankShortTerm":26808,"salesRankMediumTerm":41689,"salesRankLongTerm":119067,"bestSellingRank":45076,"customerReviewAverage":3.20,"customerReviewCount":5,"image":"https://img.bbystatic.com/BestBuy_US/images/products/5710/5710461_sa.jpg","url":"https://api.bestbuy.com/click/-/5710461/pdp"},{"sku":5833900,"manufacturer":"LG","name":"LG - 77\" Class (76.7 Diag.) - Wallpaper OLED - 2160p - Smart - 4K Ultra HD TV - with High Dynamic Range","salesRankShortTerm":26870,"salesRankMediumTerm":41753,"salesRankLongTerm":119131,"bestSellingRank":45138,"customerReviewAverage":3,"customerReviewCount":2,"image":"https://img.bbystatic.com/BestBuy_US/images/products/5833/5833900_sa.jpg","url":"https://api.bestbuy.com/click/-/5833900/pdp"},{"sku":5859436,"manufacturer":"LG","name":"LG - 55\" Class (54.6\" Diag.) - LED - 2160p - Smart - 4K Ultra HD TV","salesRankShortTerm":null,"salesRankMediumTerm":23193,"salesRankLongTerm":16641,"bestSellingRank":18878,"customerReviewAverage":4.80,"customerReviewCount":23,"image":"https://img.bbystatic.com/BestBuy_US/images/products/5859/5859436_sa.jpg","url":"https://api.bestbuy.com/click/-/5859436/pdp"},{"sku":9502297,"manufacturer":"Westinghouse","name":"Westinghouse - 55\" Class (54.6\" Diag.) - LED - 2160p - Smart - 4K Ultra HD TV","salesRankShortTerm":null,"salesRankMediumTerm":20238,"salesRankLongTerm":19267,"bestSellingRank":20297,"customerReviewAverage":3.80,"customerReviewCount":127,"image":"https://img.bbystatic.com/BestBuy_US/images/products/9502/9502297_sa.jpg","url":"https://api.bestbuy.com/click/-/9502297/pdp"},{"sku":5295720,"manufacturer":"VIZIO","name":"VIZIO - 40\" Class (40\" Diag.) - LED - 1080p - Smart - HDTV","salesRankShortTerm":null,"salesRankMediumTerm":null,"salesRankLongTerm":22824,"bestSellingRank":25876,"customerReviewAverage":null,"customerReviewCount":null,"image":"https://img.bbystatic.com/BestBuy_US/images/products/5295/5295720_sa.jpg","url":"https://api.bestbuy.com/click/-/5295720/pdp"},{"sku":5145600,"manufacturer":"Samsung","name":"Samsung - 75\" Class - (74.5\" Diag.) - LED - 2160p - Smart - 4K Ultra HD TV with High Dynamic Range","salesRankShortTerm":null,"salesRankMediumTerm":23916,"salesRankLongTerm":33470,"bestSellingRank":29586,"customerReviewAverage":4.60,"customerReviewCount":40,"image":"https://img.bbystatic.com/BestBuy_US/images/products/5145/5145600_sa.jpg","url":"https://api.bestbuy.com/click/-/5145600/pdp"},{"sku":5770942,"manufacturer":"Sony","name":"Sony - 77\" Class (76.7\" Diag.) - OLED - 2160p - Smart - 4K Ultra HD TV with High Dynamic Range","salesRankShortTerm":null,"salesRankMediumTerm":37594,"salesRankLongTerm":39036,"bestSellingRank":37990,"customerReviewAverage":5,"customerReviewCount":1,"image":"https://img.bbystatic.com/BestBuy_US/images/products/5770/5770942_sa.jpg","url":"https://api.bestbuy.com/click/-/5770942/pdp"},{"sku":5762018,"manufacturer":"Samsung","name":"Samsung - 88\" Class (88\" Diag.) - LED - 2160p Smart - 4K Ultra HD TV with High Dynamic Range","salesRankShortTerm":null,"salesRankMediumTerm":null,"salesRankLongTerm":51175,"bestSellingRank":56984,"customerReviewAverage":null,"customerReviewCount":null,"image":"https://img.bbystatic.com/BestBuy_US/images/products/5762/5762018_sa.jpg","url":"https://api.bestbuy.com/click/-/5762018/pdp"},{"sku":5481100,"manufacturer":"Sony","name":"Sony - 100\" Class (99.5\" Diag.) - LED - 2160p - Smart - 3D - 4K Ultra HD TV with High Dynamic Range","salesRankShortTerm":null,"salesRankMediumTerm":null,"salesRankLongTerm":57227,"bestSellingRank":64214,"customerReviewAverage":4.30,"customerReviewCount":3,"image":"https://img.bbystatic.com/BestBuy_US/images/products/5481/5481100_sa.jpg","url":"https://api.bestbuy.com/click/-/5481100/pdp"},{"sku":5336000,"manufacturer":"Samsung","name":"Samsung - 88\" Class (88\" Diag.) - Curved -  2160p - Smart - 4K Ultra HD TV with High Dynamic Range","salesRankShortTerm":null,"salesRankMediumTerm":null,"salesRankLongTerm":91936,"bestSellingRank":96770,"customerReviewAverage":5,"customerReviewCount":1,"image":"https://img.bbystatic.com/BestBuy_US/images/products/5336/5336000_sa.jpg","url":"https://api.bestbuy.com/click/-/5336000/pdp"},{"sku":5913702,"manufacturer":"LG","name":"LG - 77\" Class (76.7\" Diag.) - OLED - 2160p - Smart - 4K Ultra HD TV with High Dynamic Range","salesRankShortTerm":null,"salesRankMediumTerm":null,"salesRankLongTerm":113928,"bestSellingRank":117890,"customerReviewAverage":1,"customerReviewCount":1,"image":"https://img.bbystatic.com/BestBuy_US/images/products/5913/5913702_sa.jpg","url":"https://api.bestbuy.com/click/-/5913702/pdp"}],"facets":{"manufacturer":{"samsung":59,"lg":30,"sony":28,"vizio":9,"hisense":8,"insignia™":8,"sharp":8,"westinghouse":7,"tcl":6,"toshiba":6}}}