{"from":101,"to":150,"currentPage":3,"total":169,"totalPages":4,"queryTime":"0.027","totalTime":"0.175","partial":false,"canonicalUrl":"/v1/products((search=\"Smart\"&search=\"TV*\")&(categoryPath.id=abcat0101000)|(categoryPath.id=abcat0101000&manufacturer=\"Toshiba\"&smartCapable=true))?show=sku,manufacturer,name,salesRankShortTerm,salesRankMediumTerm,salesRankLongTerm,bestSellingRank,customerReviewAverage,customerReviewCount,image,url&sort=salesRankShortTerm,bestSellingRank&pageSize=50&page=3&format=json&facet=manufacturer,10&apiKey=AVMRk1IkGNUlScJLbvgQVFPX","products":[{"sku":4803800,"manufacturer":"Sony","name":"Sony - 65\" Class (64.5\" Diag.) - LED - 2160p - Smart - 4K Ultra HD TV with High Dynamic Range","salesRankShortTerm":3070,"salesRankMediumTerm":4088,"salesRankLongTerm":4108,"bestSellingRank":4018,"customerReviewAverage":4.70,"customerReviewCount":1467,"image":"https://img.bbystatic.com/BestBuy_US/images/products/4803/4803800_sa.jpg","url":"https://api.bestbuy.com/click/-/4803800/pdp"},{"sku":5886000,"manufacturer":"Samsung","name":"Samsung - 82\" Class (82\" Diag.) - LED - 2160p - Smart - 4K Ultra HD TV with High Dynamic Range","salesRankShortTerm":3089,"salesRankMediumTerm":3507,"salesRankLongTerm":2884,"bestSellingRank":3147,"customerReviewAverage":4.70,"customerReviewCount":14,"image":"https://img.bbystatic.com/BestBuy_US/images/products/5886/5886000_sa.jpg","url":"https://api.bestbuy.com/click/-/5886000/pdp"},{"sku":5962205,"manufacturer":"VIZIO","name":"VIZIO - 24\" Class (23.5\" Diag.) - LED - 720p - Smart - HDTV","salesRankShortTerm":3221,"salesRankMediumTerm":3772,"salesRankLongTerm":4401,"bestSellingRank":4037,"customerReviewAverage":null,"customerReviewCount":null,"image":"https://img.bbystatic.com/BestBuy_US/images/products/5962/5962205_sa.jpg","url":"https://api.bestbuy.com/click/-/5962205/pdp"},{"sku":4982300,"manufacturer":"Hisense","name":"Hisense - 43\" Class (42.5\" Diag.) - LED - 2160p - Smart - 4K Ultra HD TV","salesRankShortTerm":3261,"salesRankMediumTerm":2748,"salesRankLongTerm":3187,"bestSellingRank":3035,"customerReviewAverage":4.40,"customerReviewCount":472,"image":"https://img.bbystatic.com/BestBuy_US/images/products/4982/4982300_sa.jpg","url":"https://api.bestbuy.com/click/-/4982300/pdp"},{"sku":9660184,"manufacturer":"Westinghouse","name":"Westinghouse - 50\" Class (49.5\" Diag.) - LED - 2160p - Smart - 4K Ultra HD TV","salesRankShortTerm":3385,"salesRankMediumTerm":4362,"salesRankLongTerm":4059,"bestSellingRank":4137,"customerReviewAverage":4.20,"customerReviewCount":870,"image":"https://img.bbystatic.com/BestBuy_US/images/products/9660/9660184_sa.jpg","url":"https://api.bestbuy.com/click/-/9660184/pdp"},{"sku":5748210,"manufacturer":"Sony","name":"Sony - 43\" Class (42.5\" Diag.) - LED - 2160p - Smart - 4K Ultra HD TV with High Dynamic Range","salesRankShortTerm":3438,"salesRankMediumTerm":3519,"salesRankLongTerm":3276,"bestSellingRank":3410,"customerReviewAverage":4.70,"customerReviewCount":47,"image":"https://img.bbystatic.com/BestBuy_US/images/products/5748/5748210_sa.jpg","url":"https://api.bestbuy.com/click/-/5748210/pdp"},{"sku":5555039,"manufacturer":"Samsung","name":"Samsung - 32\" Class (31.5\" Diag.) - LED - 1080p - Smart - HDTV","salesRankShortTerm":3463,"salesRankMediumTerm":3487,"salesRankLongTerm":2688,"bestSellingRank":3044,"customerReviewAverage":4.60,"customerReviewCount":4572,"image":"https://img.bbystatic.com/BestBuy_US/images/products/5555/5555039_sa.jpg","url":"https://api.bestbuy.com/click/-/5555039/pdp"},{"sku":5714425,"manufacturer":"Sony","name":"Sony - 75\" Class (74.5\" Diag.) - LED - 2160p - Smart - 4K Ultra HD TV with High Dynamic Range","salesRankShortTerm":3488,"salesRankMediumTerm":4071,"salesRankLongTerm":4779,"bestSellingRank":4379,"customerReviewAverage":4.40,"customerReviewCount":52,"image":"https://img.bbystatic.com/BestBuy_US/images/products/5714/5714425_sa.jpg","url":"https://api.bestbuy.com/click/-/5714425/pdp"},{"sku":5327500,"manufacturer":"Sharp","name":"Sharp - 55\" Class (54.6\" Diag.) - LED - 1080p - Smart - HDTV Roku TV","salesRankShortTerm":3622,"salesRankMediumTerm":5220,"salesRankLongTerm":3316,"bestSellingRank":3899,"customerReviewAverage":4.50,"customerReviewCount":933,"image":"https://img.bbystatic.com/BestBuy_US/images/products/5327/5327500_sa.jpg","url":"https://api.bestbuy.com/click/-/5327500/pdp"},{"sku":5410021,"manufacturer":"Samsung","name":"Samsung - 40\" Class (40\" Diag.) - LED - 1080p - Smart - HDTV","salesRankShortTerm":3820,"salesRankMediumTerm":5158,"salesRankLongTerm":4010,"bestSellingRank":4404,"customerReviewAverage":4.60,"customerReviewCount":3502,"image":"https://img.bbystatic.com/BestBuy_US/images/products/5410/5410021_sa.jpg","url":"https://api.bestbuy.com/click/-/5410021/pdp"},{"sku":7210005,"manufacturer":"Samsung","name":"Samsung - 28\" Class (27-1/2\" Diag.) - LED - 720p - Smart - HDTV","salesRankShortTerm":3823,"salesRankMediumTerm":4418,"salesRankLongTerm":3465,"bestSellingRank":3825,"customerReviewAverage":4.60,"customerReviewCount":2043,"image":"https://img.bbystatic.com/BestBuy_US/images/products/7210/7210005_sa.jpg","url":"https://api.bestbuy.com/click/-/7210005/pdp"},{"sku":5714432,"manufacturer":"Sony","name":"Sony - 55\" Class (54.6\" Diag.) - LED - 2160p - Smart - 4K Ultra HD TV with High Dynamic Range","salesRankShortTerm":3922,"salesRankMediumTerm":4368,"salesRankLongTerm":4710,"bestSellingRank":4522,"customerReviewAverage":4.90,"customerReviewCount":73,"image":"https://img.bbystatic.com/BestBuy_US/images/products/5714/5714432_sa.jpg","url":"https://api.bestbuy.com/click/-/5714432/pdp"},{"sku":5714421,"manufacturer":"Sony","name":"Sony - 65\" Class (64.5\" Diag.) - LED - 2160p - Smart - 4K Ultra HD TV with High Dynamic Range","salesRankShortTerm":3974,"salesRankMediumTerm":4367,"salesRankLongTerm":5061,"bestSellingRank":4696,"customerReviewAverage":4.70,"customerReviewCount":130,"image":"https://img.bbystatic.com/BestBuy_US/images/products/5714/5714421_sa.jpg","url":"https://api.bestbuy.com/click/-/5714421/pdp"},{"sku":4882400,"manufacturer":"Toshiba","name":"Toshiba - 55\" Class (54.6\" Diag.) - LED - 2160p - with Chromecast Built-in - 4K Ultra HD TV","salesRankShortTerm":4004,"salesRankMediumTerm":5050,"salesRankLongTerm":2732,"bestSellingRank":3494,"customerReviewAverage":4.30,"customerReviewCount":1134,"image":"https://img.bbystatic.com/BestBuy_US/images/products/4882/4882400_sa.jpg","url":"https://api.bestbuy.com/click/-/4882400/pdp"},{"sku":5712314,"manufacturer":"Hisense","name":"Hisense - 65\" Class (64.5\" Diag.) - LED - 2160p - Smart - 4K Ultra HD TV with High Dynamic Range","salesRankShortTerm":4030,"salesRankMediumTerm":3568,"salesRankLongTerm":3569,"bestSellingRank":3629,"customerReviewAverage":4.60,"customerReviewCount":248,"image":"https://img.bbystatic.com/BestBuy_US/images/products/5712/5712314_sa.jpg","url":"https://api.bestbuy.com/click/-/5712314/pdp"},{"sku":5183803,"manufacturer":"VIZIO","name":"VIZIO - 48\" Class (47.6\" Diag.) - LED - 1080p - Smart - HDTV","salesRankShortTerm":4519,"salesRankMediumTerm":4495,"salesRankLongTerm":4375,"bestSellingRank":4451,"customerReviewAverage":5,"customerReviewCount":1,"image":"https://img.bbystatic.com/BestBuy_US/images/products/5183/5183803_sa.jpg","url":"https://api.bestbuy.com/click/-/5183803/pdp"},{"sku":5777500,"manufacturer":"LG","name":"LG - 55\" Class (54.6\" Diag.) - OLED - 2160p - Smart - 4K Ultra HD TV with High Dynamic Range","salesRankShortTerm":4677,"salesRankMediumTerm":6889,"salesRankLongTerm":7992,"bestSellingRank":7182,"customerReviewAverage":5,"customerReviewCount":7,"image":"https://img.bbystatic.com/BestBuy_US/images/products/5777/5777500_sa.jpg","url":"https://api.bestbuy.com/click/-/5777500/pdp"},{"sku":5770951,"manufacturer":"Sony","name":"Sony - 55\" Class (54.6\" Diag.) - OLED - 2160p - Smart - 4K Ultra HD TV with High Dynamic Range","salesRankShortTerm":4982,"salesRankMediumTerm":5707,"salesRankLongTerm":6378,"bestSellingRank":6008,"customerReviewAverage":4.80,"customerReviewCount":47,"image":"https://img.bbystatic.com/BestBuy_US/images/products/5770/5770951_sa.jpg","url":"https://api.bestbuy.com/click/-/5770951/pdp"},{"sku":5758400,"manufacturer":"Samsung","name":"Samsung - 65\" Class (64.5\" Diag.) - LED - 2160p - Smart - 4K Ultra HD TV with High Dynamic Range","salesRankShortTerm":5392,"salesRankMediumTerm":6052,"salesRankLongTerm":6625,"bestSellingRank":6336,"customerReviewAverage":4.70,"customerReviewCount":22,"image":"https://img.bbystatic.com/BestBuy_US/images/products/5758/5758400_sa.jpg","url":"https://api.bestbuy.com/click/-/5758400/pdp"},{"sku":5758118,"manufacturer":"Samsung","name":"Samsung - 55\" Class (54.6\" Diag.) - LED - Curved - 2160p - Smart - 4K Ultra HD TV with High Dynamic Range","salesRankShortTerm":5668,"salesRankMediumTerm":6084,"salesRankLongTerm":7312,"bestSellingRank":6696,"customerReviewAverage":4.80,"customerReviewCount":24,"image":"https://img.bbystatic.com/BestBuy_US/images/products/5758/5758118_sa.jpg","url":"https://api.bestbuy.com/click/-/5758118/pdp"},{"sku":5792800,"manufacturer":"LG","name":"LG - 75\" Class (74.5\" Diag.) - LED - 2160p - Smart - 4K Ultra HD TV with High Dynamic Range","salesRankShortTerm":5675,"salesRankMediumTerm":5065,"salesRankLongTerm":5004,"bestSellingRank":5138,"customerReviewAverage":4.80,"customerReviewCount":49,"image":"https://img.bbystatic.com/BestBuy_US/images/products/5792/5792800_sa.jpg","url":"https://api.bestbuy.com/click/-/5792800/pdp"},{"sku":5758120,"manufacturer":"Samsung","name":"Samsung - 65\" Class (64.5\" Diag.) - LED - Curved - 2160p - Smart - 4K Ultra HD TV with High Dynamic Range","salesRankShortTerm":5775,"salesRankMediumTerm":6240,"salesRankLongTerm":6892,"bestSellingRank":6576,"customerReviewAverage":4.90,"customerReviewCount":35,"image":"https://img.bbystatic.com/BestBuy_US/images/products/5758/5758120_sa.jpg","url":"https://api.bestbuy.com/click/-/5758120/pdp"},{"sku":4858900,"manufacturer":"VIZIO","name":"VIZIO - 48\" Class (47.6\" Diag.) - LED - 1080p - Smart - HDTV","salesRankShortTerm":5833,"salesRankMediumTerm":6910,"salesRankLongTerm":3645,"bestSellingRank":4734,"customerReviewAverage":4.00,"customerReviewCount":404,"image":"https://img.bbystatic.com/BestBuy_US/images/products/4858/4858900_sa.jpg","url":"https://api.bestbuy.com/click/-/4858900/pdp"},{"sku":4882800,"manufacturer":"Toshiba","name":"Toshiba - 49\" Class (48.5\" Diag.) - LED - 2160p - with Chromecast Built-in - 4K Ultra HD TV","salesRankShortTerm":5945,"salesRankMediumTerm":6521,"salesRankLongTerm":2897,"bestSellingRank":4001,"customerReviewAverage":4.50,"customerReviewCount":1851,"image":"https://img.bbystatic.com/BestBuy_US/images/products/4882/4882800_sa.jpg","url":"https://api.bestbuy.com/click/-/4882800/pdp"},{"sku":4801704,"manufacturer":"Sony","name":"Sony - 49\" Class (48.5\" Diag.) - LED - 2160p - Smart - 4K Ultra HD TV with High Dynamic Range","salesRankShortTerm":6062,"salesRankMediumTerm":7450,"salesRankLongTerm":6932,"bestSellingRank":7136,"customerReviewAverage":4.60,"customerReviewCount":923,"image":"https://img.bbystatic.com/BestBuy_US/images/products/4801/4801704_sa.jpg","url":"https://api.bestbuy.com/click/-/4801704/pdp"},{"sku":5751203,"manufacturer":"Westinghouse","name":"Westinghouse - 42\" Class (41.5\" Diag.) - LED - 1080p - Smart - HDTV","salesRankShortTerm":6119,"salesRankMediumTerm":6395,"salesRankLongTerm":4726,"bestSellingRank":5476,"customerReviewAverage":4.20,"customerReviewCount":116,"image":"https://img.bbystatic.com/BestBuy_US/images/products/5751/5751203_sa.jpg","url":"https://api.bestbuy.com/click/-/5751203/pdp"},{"sku":4673800,"manufacturer":"Insignia™","name":"Insignia™ - 24\" Class (23.6\" Diag.) - LED -720p - Smart - Roku TV","salesRankShortTerm":6382,"salesRankMediumTerm":7215,"salesRankLongTerm":5121,"bestSellingRank":6013,"customerReviewAverage":4.40,"customerReviewCount":1205,"image":"https://img.bbystatic.com/BestBuy_US/images/products/4673/4673800_sa.jpg","url":"https://api.bestbuy.com/click/-/4673800/pdp"},{"sku":5368202,"manufacturer":"Westinghouse","name":"Westinghouse - 55\" Class (54.6\" Diag.) - LED - 2160p - Smart - 4K Ultra HD TV","salesRankShortTerm":6392,"salesRankMediumTerm":8043,"salesRankLongTerm":6203,"bestSellingRank":6910,"customerReviewAverage":4.10,"customerReviewCount":426,"image":"https://img.bbystatic.com/BestBuy_US/images/products/5368/5368202_sa.jpg","url":"https://api.bestbuy.com/click/-/5368202/pdp"},{"sku":5789803,"manufacturer":"Samsung","name":"Samsung - 40\" Class (39.5\" Diag.) - LED - 2160p - Smart - 4K Ultra HD TV with High Dynamic Range","salesRankShortTerm":6452,"salesRankMediumTerm":6754,"salesRankLongTerm":5528,"bestSellingRank":6113,"customerReviewAverage":4.80,"customerReviewCount":61,"image":"https://img.bbystatic.com/BestBuy_US/images/products/5789/5789803_sa.jpg","url":"https://api.bestbuy.com/click/-/5789803/pdp"},{"sku":8040004,"manufacturer":"Samsung","name":"Samsung - 24\" Class (23-5/8\" Diag.) - LED - 720p - Smart - HDTV","salesRankShortTerm":6660,"salesRankMediumTerm":7067,"salesRankLongTerm":3593,"bestSellingRank":4773,"customerReviewAverage":4.50,"customerReviewCount":2695,"image":"https://img.bbystatic.com/BestBuy_US/images/products/8040/8040004_sa.jpg","url":"https://api.bestbuy.com/click/-/8040004/pdp"},{"sku":4807300,"manufacturer":"Toshiba","name":"Toshiba - 55\" Class (54.6\" Diag.) - LED - 1080p - with Chromecast Built-in - HDTV","salesRankShortTerm":6764,"salesRankMediumTerm":8946,"salesRankLongTerm":9480,"bestSellingRank":9057,"customerReviewAverage":4.40,"customerReviewCount":1256,"image":"https://img.bbystatic.com/BestBuy_US/images/products/4807/4807300_sa.jpg","url":"https://api.bestbuy.com/click/-/4807300/pdp"},{"sku":5853620,"manufacturer":"LG","name":"LG - 65\" Class (64.5\" Diag.) - LED - 2160p - Smart - 4K Ultra HD TV with High Dynamic Range","salesRankShortTerm":7124,"salesRankMediumTerm":8752,"salesRankLongTerm":9464,"bestSellingRank":8992,"customerReviewAverage":4.60,"customerReviewCount":18,"image":"https://img.bbystatic.com/BestBuy_US/images/products/5853/5853620_sa.jpg","url":"https://api.bestbuy.com/click/-/5853620/pdp"},{"sku":5412152,"manufacturer":"Samsung","name":"Samsung - 60\" Class (60\" Diag.) - LED - 1080p - Smart - HDTV","salesRankShortTerm":7721,"salesRankMediumTerm":8299,"salesRankLongTerm":5413,"bestSellingRank":6554,"customerReviewAverage":4.60,"customerReviewCount":2533,"image":"https://img.bbystatic.com/BestBuy_US/images/products/5412/5412152_sa.jpg","url":"https://api.bestbuy.com/click/-/5412152/pdp"},{"sku":4204506,"manufacturer":"Insignia™","name":"Insignia™ - 55\" Class (54.5\" Diag.) - LED - 2160p - Smart - 4K Ultra HD TV - Roku TV","salesRankShortTerm":8469,"salesRankMediumTerm":9709,"salesRankLongTerm":8807,"bestSellingRank":9227,"customerReviewAverage":4.50,"customerReviewCount":1127,"image":"https://img.bbystatic.com/BestBuy_US/images/products/4204/4204506_sa.jpg","url":"https://api.bestbuy.com/click/-/4204506/pdp"},{"sku":5758300,"manufacturer":"Samsung","name":"Samsung - 75\" Class (74.5\" Diag.) - LED - Curved - 2160p - Smart - 4K Ultra HD TV with High Dynamic Range","salesRankShortTerm":10484,"salesRankMediumTerm":11462,"salesRankLongTerm":10951,"bestSellingRank":11183,"customerReviewAverage":4.20,"customerReviewCount":13,"image":"https://img.bbystatic.com/BestBuy_US/images/products/5758/5758300_sa.jpg","url":"https://api.bestbuy.com/click/-/5758300/pdp"},{"sku":5762005,"manufacturer":"Samsung","name":"Samsung - 75\" Class (74.5\" Diag.) - LED - 2160p - Smart - 4K Ultra HD TV with High Dynamic Range","salesRankShortTerm":10505,"salesRankMediumTerm":9092,"salesRankLongTerm":8414,"bestSellingRank":8947,"customerReviewAverage":4.90,"customerReviewCount":9,"image":"https://img.bbystatic.com/BestBuy_US/images/products/5762/5762005_sa.jpg","url":"https://api.bestbuy.com/click/-/5762005/pdp"},{"sku":5217300,"manufacturer":"Samsung","name":"Samsung - 55\" Class (54.6\" Diag.) - LED - 2160p - Smart - 4K Ultra HD TV","salesRankShortTerm":11082,"salesRankMediumTerm":10860,"salesRankLongTerm":8384,"bestSellingRank":9524,"customerReviewAverage":4.70,"customerReviewCount":3446,"image":"https://img.bbystatic.com/BestBuy_US/images/products/5217/5217300_sa.jpg","url":"https://api.bestbuy.com/click/-/5217300/pdp"},{"sku":5773907,"manufacturer":"LG","name":"LG - 65\" Class (64.5\" Diag.) - OLED - 2160p - Smart - 4K Ultra HD TV with High Dynamic Range","salesRankShortTerm":11309,"salesRankMediumTerm":12164,"salesRankLongTerm":13169,"bestSellingRank":12686,"customerReviewAverage":4.80,"customerReviewCount":8,"image":"https://img.bbystatic.com/BestBuy_US/images/products/5773/5773907_sa.jpg","url":"https://api.bestbuy.com/click/-/5773907/pdp"},{"sku":5897520,"manufacturer":"Samsung","name":"Samsung - 55\" Class (54.6\" Diag.) - LED - 2160p - Smart - 4K Ultra HD Frame TV with High Dynamic Range","salesRankShortTerm":11415,"salesRankMediumTerm":14261,"salesRankLongTerm":13868,"bestSellingRank":13816,"customerReviewAverage":4.40,"customerReviewCount":7,"image":"https://img.bbystatic.com/BestBuy_US/images/products/5897/5897520_sa.jpg","url":"https://api.bestbuy.com/click/-/5897520/pdp"},{"sku":4804000,"manufacturer":"Sony","name":"Sony - 85\" Class (84.5\" diag) - LED - 2160p - Smart - 4K Ultra HDTV with High Dynamic Range","salesRankShortTerm":11530,"salesRankMediumTerm":13625,"salesRankLongTerm":12136,"bestSellingRank":12769,"customerReviewAverage":4.40,"customerReviewCount":48,"image":"https://img.bbystatic.com/BestBuy_US/images/products/4804/4804000_sa.jpg","url":"https://api.bestbuy.com/click/-/4804000/pdp"},{"sku":5480900,"manufacturer":"Sony","name":"Sony - 65\" Class (64.5\" Diag.) - LED - 2160p - Smart - 4K Ultra HD TV with High Dynamic Range","salesRankShortTerm":12170,"salesRankMediumTerm":12407,"salesRankLongTerm":13779,"bestSellingRank":13268,"customerReviewAverage":4.90,"customerReviewCount":49,"image":"https://img.bbystatic.com/BestBuy_US/images/products/5480/5480900_sa.jpg","url":"https://api.bestbuy.com/click/-/5480900/pdp"},{"sku":5029400,"manufacturer":"LG","name":"LG - 55\" Class (54.6\" Diag.) - LED - 2160p - Smart - 4K Ultra HD TV","salesRankShortTerm":13590,"salesRankMediumTerm":12839,"salesRankLongTerm":14365,"bestSellingRank":13918,"customerReviewAverage":4.60,"customerReviewCount":1568,"image":"https://img.bbystatic.com/BestBuy_US/images/products/5029/5029400_sa.jpg","url":"https://api.bestbuy.com/click/-/5029400/pdp"},{"sku":5481000,"manufacturer":"Sony","name":"Sony - 75\" Class (74.5\" Diag.) - LED - 2160p - Smart - 4K Ultra HD TV with High Dynamic Range","salesRankShortTerm":13634,"salesRankMediumTerm":15840,"salesRankLongTerm":19535,"bestSellingRank":17608,"customerReviewAverage":4.80,"customerReviewCount":45,"image":"https://img.bbystatic.com/BestBuy_US/images/products/5481/5481000_sa.jpg","url":"https://api.bestbuy.com/click/-/5481000/pdp"},{"sku":5786407,"manufacturer":"Samsung","name":"Samsung - 55\" Class (54.5\" Diag.) - LED - Curved - 2160p - Smart - 4K Ultra HD TV with High Dynamic Range","salesRankShortTerm":14257,"salesRankMediumTerm":14277,"salesRankLongTerm":17236,"bestSellingRank":15811,"customerReviewAverage":4.70,"customerReviewCount":7,"image":"https://img.bbystatic.com/BestBuy_US/images/products/5786/5786407_sa.jpg","url":"https://api.bestbuy.com/click/-/5786407/pdp"},{"sku":5997253,"manufacturer":"Hisense","name":"Hisense - 50\" Class (50\" Diag.) - LED - 1080p - Smart - HDTV Roku TV","salesRankShortTerm":14388,"salesRankMediumTerm":16491,"salesRankLongTerm":21495,"bestSellingRank":18573,"customerReviewAverage":null,"customerReviewCount":null,"image":"https://img.bbystatic.com/BestBuy_US/images/products/5997/5997253_sa.jpg","url":"https://api.bestbuy.com/click/-/5997253/pdp"},{"sku":4954002,"manufacturer":"LG","name":"LG - 60\" Class (59.5\" Diag.) - LED - 2160p - Smart - 4K Ultra HD TV with High Dynamic Range","salesRankShortTerm":14508,"salesRankMediumTerm":16184,"salesRankLongTerm":18339,"bestSellingRank":17450,"customerReviewAverage":4.60,"customerReviewCount":704,"image":"https://img.bbystatic.com/BestBuy_US/images/products/4954/4954002_sa.jpg","url":"https://api.bestbuy.com/click/-/4954002/pdp"},{"sku":5170201,"manufacturer":"VIZIO","name":"VIZIO - 43\" Class (43\" Diag.) - LED - 1080p - Smart - HDTV","salesRankShortTerm":15336,"salesRankMediumTerm":18246,"salesRankLongTerm":12114,"bestSellingRank":13969,"customerReviewAverage":4.60,"customerReviewCount":96,"image":"https://img.bbystatic.com/BestBuy_US/images/products/5170/5170201_sa.jpg","url":"https://api.bestbuy.com/click/-/5170201/pdp"},{"sku":4801802,"manufacturer":"Sony","name":"Sony - 49\" Class (48.5\" Diag.) - LED - 2160p - Smart - 4K Ultra HD TV with High Dynamic Range","salesRankShortTerm":15743,"salesRankMediumTerm":15527,"salesRankLongTerm":16454,"bestSellingRank":16355,"customerReviewAverage":4.70,"customerReviewCount":1183,"image":"https://img.bbystatic.com/BestBuy_US/images/products/4801/4801802_sa.jpg","url":"https://api.bestbuy.com/click/-/4801802/pdp"},{"sku":5146801,"manufacturer":"Samsung","name":"Samsung - 55\" Class (54.6\" Diag.) - LED - 2160p - Smart - 4K Ultra HD TV with High Dynamic Range","salesRankShortTerm":15797,"salesRankMediumTerm":17419,"salesRankLongTerm":20457,"bestSellingRank":19214,"customerReviewAverage":4.60,"customerReviewCount":774,"image":"https://img.bbystatic.com/BestBuy_US/images/products/5146/5146801_sa.jpg","url":"https://api.bestbuy.com/click/-/5146801/pdp"},{"sku":5872100,"manufacturer":"TCL","name":"TCL - 40\" Class (40\" Diag.) - LED - 1080p - Smart - HDTV Roku TV","salesRankShortTerm":17065,"salesRankMediumTerm":19775,"salesRankLongTerm":10630,"bestSellingRank":12907,"customerReviewAverage":null,"customerReviewCount":null,"image":"https://img.bbystatic.com/BestBuy_US/images/products/5872/5872100_sa.jpg","url":"https://api.bestbuy.com/click/-/5872100/pdp"}],"facets":{"manufacturer":{"samsung":59,"lg":30,"sony":28,"vizio":9,"hisense":8,"insignia™":8,"sharp":8,"westinghouse":7,"tcl":6,"toshiba":6}}}