{"from":51,"to":100,"currentPage":2,"total":169,"totalPages":4,"queryTime":"0.029","totalTime":"0.156","partial":false,"canonicalUrl":"/v1/products((search=\"Smart\"&search=\"TV*\")&(categoryPath.id=abcat0101000)|(categoryPath.id=abcat0101000&manufacturer=\"Toshiba\"&smartCapable=true))?show=sku,manufacturer,name,salesRankShortTerm,salesRankMediumTerm,salesRankLongTerm,bestSellingRank,customerReviewAverage,customerReviewCount,image,url&sort=salesRankShortTerm,bestSellingRank&pageSize=50&page=2&format=json&facet=manufacturer,10&apiKey=AVMRk1IkGNUlScJLbvgQVFPX","products":[{"sku":5768600,"manufacturer":"Samsung","name":"Samsung - 49\" Class (48.5\" Diag.) - LED - 2160p - Smart - 4K Ultra HD TV with High Dynamic Range","salesRankShortTerm":1443,"salesRankMediumTerm":971,"salesRankLongTerm":1115,"bestSellingRank":1093,"customerReviewAverage":4.70,"customerReviewCount":278,"image":"https://img.bbystatic.com/BestBuy_US/images/products/5768/5768600_sa.jpg","url":"https://api.bestbuy.com/click/-/5768600/pdp"},{"sku":6422016,"manufacturer":"Samsung","name":"Samsung - 40\" Class (40\" Diag.) - LED - 1080p - Smart - HDTV","salesRankShortTerm":1496,"salesRankMediumTerm":751,"salesRankLongTerm":524,"bestSellingRank":637,"customerReviewAverage":4.60,"customerReviewCount":5857,"image":"https://img.bbystatic.com/BestBuy_US/images/products/6422/6422016_sa.jpg","url":"https://api.bestbuy.com/click/-/6422016/pdp"},{"sku":5768720,"manufacturer":"Samsung","name":"Samsung - 49\" Class (48.5\" Diag.) - LED - 1080p - Smart - HDTV","salesRankShortTerm":1504,"salesRankMediumTerm":1248,"salesRankLongTerm":939,"bestSellingRank":1089,"customerReviewAverage":4.80,"customerReviewCount":69,"image":"https://img.bbystatic.com/BestBuy_US/images/products/5768/5768720_sa.jpg","url":"https://api.bestbuy.com/click/-/5768720/pdp"},{"sku":5746201,"manufacturer":"Sharp","name":"Sharp - 65\" Class (64.5\" Diag.) - LED - 2160p - Smart - 4K Ultra HD TV Roku TV","salesRankShortTerm":1524,"salesRankMediumTerm":1450,"salesRankLongTerm":1662,"bestSellingRank":1569,"customerReviewAverage":3.30,"customerReviewCount":7,"image":"https://img.bbystatic.com/BestBuy_US/images/products/5746/5746201_sa.jpg","url":"https://api.bestbuy.com/click/-/5746201/pdp"},{"sku":5773708,"manufacturer":"Samsung","name":"Samsung - 65\" Class (64.5\" Diag.) - LED - Curved - 2160p - Smart - 4K Ultra HD TV with High Dynamic Range","salesRankShortTerm":1584,"salesRankMediumTerm":1119,"salesRankLongTerm":1300,"bestSellingRank":1254,"customerReviewAverage":4.70,"customerReviewCount":216,"image":"https://img.bbystatic.com/BestBuy_US/images/products/5773/5773708_sa.jpg","url":"https://api.bestbuy.com/click/-/5773708/pdp"},{"sku":5844904,"manufacturer":"Samsung","name":"Samsung - 75\" Class (74.5\" Diag.) - LED - 2160p - Smart - 4K Ultra HD TV","salesRankShortTerm":1585,"salesRankMediumTerm":1326,"salesRankLongTerm":1579,"bestSellingRank":1477,"customerReviewAverage":4.70,"customerReviewCount":29,"image":"https://img.bbystatic.com/BestBuy_US/images/products/5844/5844904_sa.jpg","url":"https://api.bestbuy.com/click/-/5844904/pdp"},{"sku":5773704,"manufacturer":"Samsung","name":"Samsung - 55\" Class (54.6\" Diag.) - LED - Curved - 2160p - Smart - 4K Ultra HD TV","salesRankShortTerm":1624,"salesRankMediumTerm":1397,"salesRankLongTerm":1490,"bestSellingRank":1456,"customerReviewAverage":4.70,"customerReviewCount":202,"image":"https://img.bbystatic.com/BestBuy_US/images/products/5773/5773704_sa.jpg","url":"https://api.bestbuy.com/click/-/5773704/pdp"},{"sku":5723390,"manufacturer":"LG","name":"LG - 24\" Class (23.8\" Diag.) - LED - 720p - Smart - HDTV","salesRankShortTerm":1692,"salesRankMediumTerm":1830,"salesRankLongTerm":2089,"bestSellingRank":1962,"customerReviewAverage":4.60,"customerReviewCount":212,"image":"https://img.bbystatic.com/BestBuy_US/images/products/5723/5723390_sa.jpg","url":"https://api.bestbuy.com/click/-/5723390/pdp"},{"sku":5900138,"manufacturer":"Sony","name":"Sony - 60\" Class (60\" Diag.) - LED - 2160p - Smart - 4K Ultra HD TV","salesRankShortTerm":1866,"salesRankMediumTerm":1276,"salesRankLongTerm":1554,"bestSellingRank":1457,"customerReviewAverage":4,"customerReviewCount":1,"image":"https://img.bbystatic.com/BestBuy_US/images/products/5900/5900138_sa.jpg","url":"https://api.bestbuy.com/click/-/5900138/pdp"},{"sku":5748205,"manufacturer":"Sony","name":"Sony - 49\" Class (48.5\" Diag.) - LED - 2160p - Smart - 4K Ultra HD TV with High Dynamic Range","salesRankShortTerm":1914,"salesRankMediumTerm":1455,"salesRankLongTerm":1402,"bestSellingRank":1449,"customerReviewAverage":4.70,"customerReviewCount":153,"image":"https://img.bbystatic.com/BestBuy_US/images/products/5748/5748205_sa.jpg","url":"https://api.bestbuy.com/click/-/5748205/pdp"},{"sku":4801501,"manufacturer":"Sony","name":"Sony - 48\" Class (47.6\" Diag.) - LED - 1080p - Smart - HDTV","salesRankShortTerm":1925,"salesRankMediumTerm":1561,"salesRankLongTerm":1672,"bestSellingRank":1660,"customerReviewAverage":4.40,"customerReviewCount":1029,"image":"https://img.bbystatic.com/BestBuy_US/images/products/4801/4801501_sa.jpg","url":"https://api.bestbuy.com/click/-/4801501/pdp"},{"sku":5792901,"manufacturer":"LG","name":"LG - 55\" Class (54.6\" Diag.) - LED - 1080p - Smart - HDTV","salesRankShortTerm":2011,"salesRankMediumTerm":2228,"salesRankLongTerm":2171,"bestSellingRank":2154,"customerReviewAverage":4.60,"customerReviewCount":212,"image":"https://img.bbystatic.com/BestBuy_US/images/products/5792/5792901_sa.jpg","url":"https://api.bestbuy.com/click/-/5792901/pdp"},{"sku":5803109,"manufacturer":"LG","name":"LG - 32\" Class (31.5\" Diag.) - LED - 720p - Smart - HDTV","salesRankShortTerm":2013,"salesRankMediumTerm":1090,"salesRankLongTerm":969,"bestSellingRank":1067,"customerReviewAverage":4.80,"customerReviewCount":48,"image":"https://img.bbystatic.com/BestBuy_US/images/products/5803/5803109_sa.jpg","url":"https://api.bestbuy.com/click/-/5803109/pdp"},{"sku":5875644,"manufacturer":"Sony","name":"Sony - 43\" Class (42.5\" Diag.) - LED - 2160p - Smart - 4K Ultra HD TV","salesRankShortTerm":2051,"salesRankMediumTerm":1477,"salesRankLongTerm":1700,"bestSellingRank":1639,"customerReviewAverage":4.60,"customerReviewCount":27,"image":"https://img.bbystatic.com/BestBuy_US/images/products/5875/5875644_sa.jpg","url":"https://api.bestbuy.com/click/-/5875644/pdp"},{"sku":4904601,"manufacturer":"VIZIO","name":"VIZIO - 24\" Class (23.54\" Diag.) - LED - 1080p - Smart - HDTV","salesRankShortTerm":2074,"salesRankMediumTerm":2153,"salesRankLongTerm":1146,"bestSellingRank":1444,"customerReviewAverage":4.50,"customerReviewCount":1318,"image":"https://img.bbystatic.com/BestBuy_US/images/products/4904/4904601_sa.jpg","url":"https://api.bestbuy.com/click/-/4904601/pdp"},{"sku":5607100,"manufacturer":"Westinghouse","name":"Westinghouse - 50\" Class (49.5\" Diag.) - LED - 1080p - Smart - HDTV","salesRankShortTerm":2188,"salesRankMediumTerm":1904,"salesRankLongTerm":1595,"bestSellingRank":1736,"customerReviewAverage":4.20,"customerReviewCount":637,"image":"https://img.bbystatic.com/BestBuy_US/images/products/5607/5607100_sa.jpg","url":"https://api.bestbuy.com/click/-/5607100/pdp"},{"sku":5773847,"manufacturer":"Samsung","name":"Samsung - 65\" Class (64.5\" Diag.) - LED - Curved - 2160p - Smart - 4K Ultra HD TV","salesRankShortTerm":2240,"salesRankMediumTerm":2590,"salesRankLongTerm":2831,"bestSellingRank":2695,"customerReviewAverage":4.70,"customerReviewCount":122,"image":"https://img.bbystatic.com/BestBuy_US/images/products/5773/5773847_sa.jpg","url":"https://api.bestbuy.com/click/-/5773847/pdp"},{"sku":5247402,"manufacturer":"Westinghouse","name":"Westinghouse - 43\" Class (42.5\" Diag.) - LED - 2160p - Smart - 4K Ultra HD TV","salesRankShortTerm":2346,"salesRankMediumTerm":2613,"salesRankLongTerm":2453,"bestSellingRank":2495,"customerReviewAverage":4.20,"customerReviewCount":212,"image":"https://img.bbystatic.com/BestBuy_US/images/products/5247/5247402_sa.jpg","url":"https://api.bestbuy.com/click/-/5247402/pdp"},{"sku":5748204,"manufacturer":"Sony","name":"Sony - 49\" Class (48.5\" Diag.) - LED - 2160p - Smart - 4K Ultra HD TV with High Dynamic Range","salesRankShortTerm":2372,"salesRankMediumTerm":1456,"salesRankLongTerm":1732,"bestSellingRank":1659,"customerReviewAverage":4.60,"customerReviewCount":219,"image":"https://img.bbystatic.com/BestBuy_US/images/products/5748/5748204_sa.jpg","url":"https://api.bestbuy.com/click/-/5748204/pdp"},{"sku":5875626,"manufacturer":"Sony","name":"Sony - 49\" Class (48.5\" Diag.) - LED - 2160p - Smart - 4K Ultra HD TV","salesRankShortTerm":2374,"salesRankMediumTerm":1814,"salesRankLongTerm":2217,"bestSellingRank":2067,"customerReviewAverage":4.30,"customerReviewCount":12,"image":"https://img.bbystatic.com/BestBuy_US/images/products/5875/5875626_sa.jpg","url":"https://api.bestbuy.com/click/-/5875626/pdp"},{"sku":5774200,"manufacturer":"Samsung","name":"Samsung - 75\" Class (74.5\" Diag.) - LED - 2160p - Smart - 4K Ultra HD TV with High Dynamic Range","salesRankShortTerm":2430,"salesRankMediumTerm":1757,"salesRankLongTerm":1970,"bestSellingRank":1931,"customerReviewAverage":4.60,"customerReviewCount":123,"image":"https://img.bbystatic.com/BestBuy_US/images/products/5774/5774200_sa.jpg","url":"https://api.bestbuy.com/click/-/5774200/pdp"},{"sku":5871010,"manufacturer":"Samsung","name":"Samsung - 32\" Class (31.5\" Diag.) - LED - 720p - Smart - HDTV","salesRankShortTerm":2438,"salesRankMediumTerm":1825,"salesRankLongTerm":2182,"bestSellingRank":2055,"customerReviewAverage":5,"customerReviewCount":1,"image":"https://img.bbystatic.com/BestBuy_US/images/products/5871/5871010_sa.jpg","url":"https://api.bestbuy.com/click/-/5871010/pdp"},{"sku":5763433,"manufacturer":"LG","name":"LG - 65\" Class (64.5\" Diag.) - LED - 2160p - Smart - 4K Ultra HD TV with High Dynamic Range","salesRankShortTerm":2449,"salesRankMediumTerm":1519,"salesRankLongTerm":1804,"bestSellingRank":1733,"customerReviewAverage":4.70,"customerReviewCount":41,"image":"https://img.bbystatic.com/BestBuy_US/images/products/5763/5763433_sa.jpg","url":"https://api.bestbuy.com/click/-/5763433/pdp"},{"sku":5773701,"manufacturer":"Samsung","name":"Samsung - 55\" Class (54.6\" Diag.) - LED - 2160p - Smart - 4K Ultra HD TV with High Dynamic Range","salesRankShortTerm":2525,"salesRankMediumTerm":1722,"salesRankLongTerm":1779,"bestSellingRank":1810,"customerReviewAverage":4.70,"customerReviewCount":239,"image":"https://img.bbystatic.com/BestBuy_US/images/products/5773/5773701_sa.jpg","url":"https://api.bestbuy.com/click/-/5773701/pdp"},{"sku":5792908,"manufacturer":"LG","name":"LG - 55\" Class (54.6\" Diag.) - LED - 2160p - Smart - 4K Ultra HD TV with High Dynamic Range","salesRankShortTerm":2679,"salesRankMediumTerm":2344,"salesRankLongTerm":2634,"bestSellingRank":2532,"customerReviewAverage":4.60,"customerReviewCount":21,"image":"https://img.bbystatic.com/BestBuy_US/images/products/5792/5792908_sa.jpg","url":"https://api.bestbuy.com/click/-/5792908/pdp"},{"sku":5900135,"manufacturer":"Sony","name":"Sony - 70\" Class (69.5\" Diag.) - LED - 2160p - Smart - 4K Ultra HD TV","salesRankShortTerm":2685,"salesRankMediumTerm":2854,"salesRankLongTerm":2856,"bestSellingRank":2860,"customerReviewAverage":4,"customerReviewCount":2,"image":"https://img.bbystatic.com/BestBuy_US/images/products/5900/5900135_sa.jpg","url":"https://api.bestbuy.com/click/-/5900135/pdp"},{"sku":5763400,"manufacturer":"LG","name":"LG - 55\" Class (54.6\" Diag.) - OLED - 2160p - Smart - 4K Ultra HD TV with High Dynamic Range","salesRankShortTerm":2879,"salesRankMediumTerm":1836,"salesRankLongTerm":1862,"bestSellingRank":1916,"customerReviewAverage":4.90,"customerReviewCount":130,"image":"https://img.bbystatic.com/BestBuy_US/images/products/5763/5763400_sa.jpg","url":"https://api.bestbuy.com/click/-/5763400/pdp"},{"sku":5327500,"manufacturer":"Sharp","name":"Sharp - 55\" Class (54.6\" Diag.) - LED - 1080p - Smart - HDTV Roku TV","salesRankShortTerm":2954,"salesRankMediumTerm":4210,"salesRankLongTerm":3426,"bestSellingRank":3656,"customerReviewAverage":4.50,"customerReviewCount":933,"image":"https://img.bbystatic.com/BestBuy_US/images/products/5327/5327500_sa.jpg","url":"https://api.bestbuy.com/click/-/5327500/pdp"},{"sku":5733300,"manufacturer":"Toshiba","name":"Toshiba - 50\" Class (49.5\" Diag.) - LED - 2160p - with Chromecast Built-in - 4K Ultra HD TV","salesRankShortTerm":2965,"salesRankMediumTerm":2802,"salesRankLongTerm":2034,"bestSellingRank":2294,"customerReviewAverage":4.70,"customerReviewCount":13,"image":"https://img.bbystatic.com/BestBuy_US/images/products/5733/5733300_sa.jpg","url":"https://api.bestbuy.com/click/-/5733300/pdp"},{"sku":5935300,"manufacturer":"LG","name":"LG - 55\" Class (54.6\" Diag.) - OLED - 2160p - Smart - 4K Ultra HD TV with High Dynamic Range","salesRankShortTerm":2967,"salesRankMediumTerm":2647,"salesRankLongTerm":2879,"bestSellingRank":2803,"customerReviewAverage":4.80,"customerReviewCount":22,"image":"https://img.bbystatic.com/BestBuy_US/images/products/5935/5935300_sa.jpg","url":"https://api.bestbuy.com/click/-/5935300/pdp"},{"sku":5792905,"manufacturer":"LG","name":"LG - 60\" Class (59.9\" Diag.) - LED - 2160p - Smart - 4K Ultra HD TV with High Dynamic Range","salesRankShortTerm":3001,"salesRankMediumTerm":1713,"salesRankLongTerm":1689,"bestSellingRank":1773,"customerReviewAverage":4.70,"customerReviewCount":22,"image":"https://img.bbystatic.com/BestBuy_US/images/products/5792/5792905_sa.jpg","url":"https://api.bestbuy.com/click/-/5792905/pdp"},{"sku":5772800,"manufacturer":"LG","name":"LG - 65\" Class (64.5\" Diag.) - OLED - 2160p - Smart - 4K Ultra HD TV with High Dynamic Range","salesRankShortTerm":3043,"salesRankMediumTerm":3195,"salesRankLongTerm":4150,"bestSellingRank":3714,"customerReviewAverage":4.80,"customerReviewCount":19,"image":"https://img.bbystatic.com/BestBuy_US/images/products/5772/5772800_sa.jpg","url":"https://api.bestbuy.com/click/-/5772800/pdp"},{"sku":5763359,"manufacturer":"LG","name":"LG - 65\" Class (64.5\" Diag.) - OLED - 2160p - Smart - 4K Ultra HD TV with High Dynamic Range","salesRankShortTerm":3092,"salesRankMediumTerm":2255,"salesRankLongTerm":2084,"bestSellingRank":2171,"customerReviewAverage":4.80,"customerReviewCount":171,"image":"https://img.bbystatic.com/BestBuy_US/images/products/5763/5763359_sa.jpg","url":"https://api.bestbuy.com/click/-/5763359/pdp"},{"sku":5875600,"manufacturer":"Sony","name":"Sony - 55\" Class (54.6\" Diag.) - LED - 2160p - Smart - 4K Ultra HD TV","salesRankShortTerm":3098,"salesRankMediumTerm":2260,"salesRankLongTerm":2708,"bestSellingRank":2570,"customerReviewAverage":4.90,"customerReviewCount":23,"image":"https://img.bbystatic.com/BestBuy_US/images/products/5875/5875600_sa.jpg","url":"https://api.bestbuy.com/click/-/5875600/pdp"},{"sku":5758301,"manufacturer":"Samsung","name":"Samsung - 75\" Class (74.5\" Diag.) - LED - 2160p - Smart - 4K Ultra HD TV with High Dynamic Range","salesRankShortTerm":3141,"salesRankMediumTerm":2707,"salesRankLongTerm":3050,"bestSellingRank":2942,"customerReviewAverage":4.70,"customerReviewCount":46,"image":"https://img.bbystatic.com/BestBuy_US/images/products/5758/5758301_sa.jpg","url":"https://api.bestbuy.com/click/-/5758301/pdp"},{"sku":5748201,"manufacturer":"Sony","name":"Sony - 75\" Class (74.5\" Diag.) - LED - 2160p - Smart - 4K Ultra HD TV with High Dynamic Range","salesRankShortTerm":3193,"salesRankMediumTerm":2362,"salesRankLongTerm":2702,"bestSellingRank":2615,"customerReviewAverage":4.80,"customerReviewCount":132,"image":"https://img.bbystatic.com/BestBuy_US/images/products/5748/5748201_sa.jpg","url":"https://api.bestbuy.com/click/-/5748201/pdp"},{"sku":5865905,"manufacturer":"Hisense","name":"Hisense - 39\" Class (38.5\" Diag.) - LED - 1080p - Smart - HDTV","salesRankShortTerm":3208,"salesRankMediumTerm":3124,"salesRankLongTerm":3216,"bestSellingRank":3225,"customerReviewAverage":4.80,"customerReviewCount":4,"image":"https://img.bbystatic.com/BestBuy_US/images/products/5865/5865905_sa.jpg","url":"https://api.bestbuy.com/click/-/5865905/pdp"},{"sku":5792902,"manufacturer":"LG","name":"LG - 65\" Class (64.5\" Diag.) - LED - 2160p - Smart - 4K Ultra HD TV with High Dynamic Range","salesRankShortTerm":3297,"salesRankMediumTerm":1567,"salesRankLongTerm":1865,"bestSellingRank":1820,"customerReviewAverage":4.60,"customerReviewCount":16,"image":"https://img.bbystatic.com/BestBuy_US/images/products/5792/5792902_sa.jpg","url":"https://api.bestbuy.com/click/-/5792902/pdp"},{"sku":5712157,"manufacturer":"Sharp","name":"Sharp - 55\" Class (54.6\" Diag.) - LED - 2160p - Smart - 4K Ultra HD TV Roku TV","salesRankShortTerm":3343,"salesRankMediumTerm":1706,"salesRankLongTerm":1449,"bestSellingRank":1617,"customerReviewAverage":4.60,"customerReviewCount":5,"image":"https://img.bbystatic.com/BestBuy_US/images/products/5712/5712157_sa.jpg","url":"https://api.bestbuy.com/click/-/5712157/pdp"},{"sku":5770946,"manufacturer":"Sony","name":"Sony - 65\" Class (64.5\" Diag.) - OLED - 2160p - Smart - 4K Ultra HD TV with High Dynamic Range","salesRankShortTerm":3374,"salesRankMediumTerm":2606,"salesRankLongTerm":3089,"bestSellingRank":2940,"customerReviewAverage":4.90,"customerReviewCount":80,"image":"https://img.bbystatic.com/BestBuy_US/images/products/5770/5770946_sa.jpg","url":"https://api.bestbuy.com/click/-/5770946/pdp"},{"sku":5748210,"manufacturer":"Sony","name":"Sony - 43\" Class (42.5\" Diag.) - LED - 2160p - Smart - 4K Ultra HD TV with High Dynamic Range","salesRankShortTerm":3376,"salesRankMediumTerm":3414,"salesRankLongTerm":3370,"bestSellingRank":3416,"customerReviewAverage":4.70,"customerReviewCount":47,"image":"https://img.bbystatic.com/BestBuy_US/images/products/5748/5748210_sa.jpg","url":"https://api.bestbuy.com/click/-/5748210/pdp"},{"sku":4613600,"manufacturer":"Samsung","name":"Samsung - 32\" Class (31.5\" Diag.) - LED - 720p - Smart - HDTV","salesRankShortTerm":3400,"salesRankMediumTerm":2818,"salesRankLongTerm":2466,"bestSellingRank":2646,"customerReviewAverage":4.60,"customerReviewCount":3606,"image":"https://img.bbystatic.com/BestBuy_US/images/products/4613/4613600_sa.jpg","url":"https://api.bestbuy.com/click/-/4613600/pdp"},{"sku":4803800,"manufacturer":"Sony","name":"Sony - 65\" Class (64.5\" Diag.) - LED - 2160p - Smart - 4K Ultra HD TV with High Dynamic Range","salesRankShortTerm":3512,"salesRankMediumTerm":3683,"salesRankLongTerm":4084,"bestSellingRank":3944,"customerReviewAverage":4.70,"customerReviewCount":1467,"image":"https://img.bbystatic.com/BestBuy_US/images/products/4803/4803800_sa.jpg","url":"https://api.bestbuy.com/click/-/4803800/pdp"},{"sku":4982300,"manufacturer":"Hisense","name":"Hisense - 43\" Class (42.5\" Diag.) - LED - 2160p - Smart - 4K Ultra HD TV","salesRankShortTerm":3575,"salesRankMediumTerm":2865,"salesRankLongTerm":3242,"bestSellingRank":3161,"customerReviewAverage":4.40,"customerReviewCount":472,"image":"https://img.bbystatic.com/BestBuy_US/images/products/4982/4982300_sa.jpg","url":"https://api.bestbuy.com/click/-/4982300/pdp"},{"sku":5754302,"manufacturer":"Samsung","name":"Samsung - 55\" Class (54.6\" Diag.) - LED - 2160p - Smart - 4K Ultra HD TV with High Dynamic Range","salesRankShortTerm":3595,"salesRankMediumTerm":2262,"salesRankLongTerm":2483,"bestSellingRank":2457,"customerReviewAverage":4.70,"customerReviewCount":94,"image":"https://img.bbystatic.com/BestBuy_US/images/products/5754/5754302_sa.jpg","url":"https://api.bestbuy.com/click/-/5754302/pdp"},{"sku":5935272,"manufacturer":"LG","name":"LG - 65\" Class (64.5\" Diag.) - OLED - 2160p - Smart - 4K Ultra HD TV with High Dynamic Range","salesRankShortTerm":3608,"salesRankMediumTerm":2414,"salesRankLongTerm":2694,"bestSellingRank":2645,"customerReviewAverage":4.70,"customerReviewCount":13,"image":"https://img.bbystatic.com/BestBuy_US/images/products/5935/5935272_sa.jpg","url":"https://api.bestbuy.com/click/-/5935272/pdp"},{"sku":5773700,"manufacturer":"Samsung","name":"Samsung - 55\" Class (54.6\" Diag.) - LED - 2160p - Smart - 4K Ultra HD TV with High Dynamic Range","salesRankShortTerm":3756,"salesRankMediumTerm":3701,"salesRankLongTerm":4205,"bestSellingRank":4027,"customerReviewAverage":4.80,"customerReviewCount":57,"image":"https://img.bbystatic.com/BestBuy_US/images/products/5773/5773700_sa.jpg","url":"https://api.bestbuy.com/click/-/5773700/pdp"},{"sku":5773804,"manufacturer":"Samsung","name":"Samsung - 65\" Class (64.5\" Diag.) - LED - Curved - 2160p - Smart - 4K Ultra HD TV with High Dynamic Range","salesRankShortTerm":3758,"salesRankMediumTerm":2430,"salesRankLongTerm":2605,"bestSellingRank":2616,"customerReviewAverage":4.90,"customerReviewCount":68,"image":"https://img.bbystatic.com/BestBuy_US/images/products/5773/5773804_sa.jpg","url":"https://api.bestbuy.com/click/-/5773804/pdp"},{"sku":5878700,"manufacturer":"LG","name":"LG - 75\" Class (74.5\" Diag.) - LED - 2160p - Smart - 4K Ultra HD TV","salesRankShortTerm":3771,"salesRankMediumTerm":3366,"salesRankLongTerm":3390,"bestSellingRank":3434,"customerReviewAverage":4.40,"customerReviewCount":17,"image":"https://img.bbystatic.com/BestBuy_US/images/products/5878/5878700_sa.jpg","url":"https://api.bestbuy.com/click/-/5878700/pdp"},{"sku":5524900,"manufacturer":"Hisense","name":"Hisense - 55\" Class (54.6\" Diag.) - LED - 2160p - Smart - 4K Ultra HD TV with High Dynamic Range","salesRankShortTerm":3804,"salesRankMediumTerm":2141,"salesRankLongTerm":2451,"bestSellingRank":2393,"customerReviewAverage":4.60,"customerReviewCount":648,"image":"https://img.bbystatic.com/BestBuy_US/images/products/5524/5524900_sa.jpg","url":"https://api.bestbuy.com/click/-/5524900/pdp"}],"facets":{"manufacturer":{"samsung":59,"lg":30,"sony":28,"vizio":9,"hisense":8,"insignia™":8,"sharp":8,"westinghouse":7,"tcl":6,"toshiba":6}}}